<?xml version="1.0" encoding="utf-8"?>
<!-- Generator: Adobe Illustrator 21.1.0, SVG Export Plug-In . SVG Version: 6.00 Build 0)  -->
<svg version="1.1" id="Layer_1" xmlns="http://www.w3.org/2000/svg" xmlns:xlink="http://www.w3.org/1999/xlink" x="0px" y="0px"
	 viewBox="0 0 242.3 240.9" style="enable-background:new 0 0 242.3 240.9;" xml:space="preserve">
<style type="text/css">
	.st0{fill:#FFFFFF;}
</style>
<g>
	<g>
		<path class="st0" d="M111,135.2c-0.3,1.4-0.6,2.5-0.8,3.6c-3.1,15.1-6.2,30.1-9.3,45.2c-0.4,1.8-0.9,3.5-1,5.3
			c-0.2,2.6,0.6,5,1.9,7.3c0.9,1.6,0.8,1.7-0.8,2.5c-0.6,0.3-0.9,0.7-0.6,1.4c0.6,1.3,1,2.7,1.7,4c0.5,1,1.3,1.8,2,2.6
			c0.3,0.3,0.8,0.3,1.4,0.6c-0.2-0.8-0.3-1.4-0.4-1.9c0.1-0.1,0.3-0.2,0.4-0.2c0.5,0.7,1,1.3,1.5,2c0.2,0.2,0.5,0.3,0.8,0.5
			c0-0.3,0.2-0.7,0.1-0.9c-0.4-0.9-0.1-1.8,0.5-2.4c0.7-0.8,1.6-1.6,2.4-2.3c0.9-0.7,1.8-0.9,2.6,0.1c0.2,0.2,0.5,0.2,0.7,0.3
			c0.7,0.3,1.5,0.5,2.2,0.8c1.8,0.8,3.6,1.6,5.4,2.3c1,0.4,1.9,0.1,2.6-0.8c0.6-0.8,0.3-1.6-0.2-2.3c-0.4-0.6-0.7-1.2-1.1-1.7
			c-0.4-0.6-0.5-1.1-0.1-1.8c0.4-0.6,0.5-1.5,0.4-2.1c-0.5-2.9-1.1-5.7-1.7-8.6c-2.4-11.7-4.7-23.4-7.1-35.2
			C113.5,147.5,112.3,141.5,111,135.2z M124.7,197.1c1-0.3,1.8-0.5,2.7-0.8c1.6-0.5,3.2-1.1,4.7-1.7c0.6-0.2,0.7-0.7,0.3-1.2
			c-0.4-0.5-0.7-1.1-1.1-1.6c-0.6-0.8-0.5-1.4,0.1-2.2c0.6-0.7,1.2-1.4,1.7-2.2c0.2-0.4,0.3-1,0.2-1.3c-0.4-0.9-0.4-1.6,0.3-2.3
			c0.1-0.1,0.2-0.5,0.1-0.6c-1-1.6,0.1-2.6,0.9-3.7c0.8-1.1,0.3-2.5,0.9-3.7c0,0,0-0.1-0.1-0.2c-0.8-1.4-0.4-2.3,1.2-2.7
			c1.7-0.4,2.4-2,1.6-3.4c-6.3-11.2-12.6-22.4-19-33.6c-0.2-0.4-0.5-0.8-0.7-1.2c-0.1,0-0.2,0.1-0.3,0.1
			C120.4,155.5,122.5,176.3,124.7,197.1z M97.9,187.7c0.1-0.1,0.2-0.1,0.3-0.2c1.8-17.6,3.7-35.3,5.5-52.9c-0.3,0.1-0.4,0.2-0.5,0.3
			c-7.2,12.7-14.3,25.4-21.5,38c-0.5,0.8-0.4,1.4,0.2,2.2c1.8,2.5,4.1,4.4,7,5.6c1.1,0.5,2,1.1,2.1,2.5c0,0.2,0.7,0.6,1,0.6
			c1.6-0.3,2.8,0.4,3.8,1.6C96.4,186.3,97.2,187,97.9,187.7z M141.2,56.6c-4,0-8,0-12,0c-2.5,10.5-5,21-7.5,31.6
			c0.2-0.1,0.2-0.1,0.2-0.1c5.9-7.5,11.7-15,17.6-22.5c0.2-0.2,0.3-0.6,0.2-0.8c-0.6-1.7-0.2-3.2,0.7-4.7
			C141.1,59.1,141.5,57.9,141.2,56.6z M125.1,131.2c-0.1,0-0.1,0.1-0.2,0.1c5,12.3,9.9,24.6,14.9,36.9c1.4-1.9,2.5-3.7,3.9-5.3
			c1.4-1.4,1.9-2.7,1-4.5c-0.2-0.3-0.2-0.7-0.1-1.1c0.6-2.5-0.7-4.5-1.9-6.5c-0.7-1.1-0.9-1.9,0.1-2.8
			C136.9,142.3,131,136.7,125.1,131.2z M100.1,88.2c0,0,0.1-0.1,0.1-0.1c-2.5-10.5-5-21-7.5-31.5c-4.5,0-8.9,0-13.6,0
			c0.7,0.7,1.1,1.3,1.6,1.8c1.3,1.1,2.6,2.3,2.8,4c0.2,1.6,1,2.3,2.4,3c2.9,1.5,3.8,2.7,3.1,5.6c-0.1,0.6-0.2,1.3-0.2,1.9
			c0,0.5,0.1,1,0.3,1.4c1.3,1.8,2.7,3.5,4.1,5.3C95.6,82.5,97.9,85.4,100.1,88.2z M112.7,56.6c0.6,9.8,1.3,19.6,1.9,29.3
			c0.1,0,0.2,0,0.2,0.1c3.7-9.8,7.5-19.5,11.2-29.4C121.5,56.6,117.2,56.6,112.7,56.6z M109.3,56.6c-4.6,0-8.9,0-13.4,0
			c3.8,9.8,7.5,19.5,11.2,29.2c0.1,0,0.2,0,0.3-0.1C108,76.1,108.7,66.4,109.3,56.6z M86.2,158.1c3.6-9.1,7.2-17.9,10.8-26.9
			c-0.3,0.1-0.4,0.2-0.4,0.2c-7.4,7-14.8,14-22.2,21c-0.3,0.3-0.4,0.8-0.4,1.1c0,1,0.5,1.8,1.5,2.1c1,0.4,1.9,0.3,2.6-0.6
			c0.9-1.1,2-1.3,3.3-1C83.5,154.6,85.1,155.9,86.2,158.1z M59.6,124.1c-0.1,1.2-0.2,2.1-0.1,3.1c0,0.5,0.2,1,0.3,1.5
			c0.4,1,1,1.9,1.3,2.9c0.6,1.6,1.6,2.9,2.9,4.1c7.9-5.3,15.8-10.6,23.7-15.9c0-0.1-0.1-0.1-0.1-0.2
			C78.3,121.1,68.8,122.7,59.6,124.1z M91.5,126.3c0-0.1-0.1-0.1-0.1-0.2c-8.3,4.1-16.7,8.2-25,12.3c2.6,3.2,7.1,4.3,7.8,9.2
			C80.1,140.4,85.8,133.3,91.5,126.3z M86.1,112.6c0-0.1,0-0.1-0.1-0.2c-8.2-1.2-16.3-2.3-24.7-3.5c0.1,0.8,0.1,1.3,0.3,1.9
			c0.4,1.3,0.2,2.4-0.8,3.4c-0.5,0.6-1.1,1.2-1.6,1.8c-1,1.4-1.6,3-1.2,5C67.5,118.2,76.8,115.4,86.1,112.6z M127.9,92.2
			c0.1,0.1,0.1,0.1,0.2,0.2c5.3-3.7,10.7-7.5,16-11.1c1.1-0.8,1.3-1.6,1-2.7c-0.6-2.6-1.2-5.2-1.9-7.8c-0.2-0.8-0.7-1.6-1.1-2.6
			C137.3,76.3,132.6,84.3,127.9,92.2z M89.4,98.3c-0.1-0.3-0.1-0.3-0.2-0.4c-4.4-4-8.8-8.1-13.3-12.1c-0.2-0.2-0.5-0.4-0.7-0.4
			c-1.2-0.1-2.4-0.1-3.6-0.1c-1.4,0-2.4,0.6-2.8,2c-0.3,1-0.4,2-0.4,3c0,0.9,0.5,1.5,1.5,1.7c0.8,0.1,1.5,0.5,2.3,0.7
			C77.9,94.6,83.6,96.4,89.4,98.3z M130.6,126.1c0,0.1-0.1,0.1-0.1,0.2c4.7,5.8,9.5,11.7,14.2,17.5c0.1,0,0.2-0.1,0.3-0.1
			c0.1-0.5,0.2-1,0.2-1.5c0-1.8-0.2-3.6,0-5.4c0.4-2.8-0.7-4.2-3.2-5.2C138.2,130.1,134.4,128,130.6,126.1z M67.5,105
			c6.5,0,12.8,0,19.3,0c-5.3-2.5-10.4-4.9-15.5-7.3C70,100.2,68,102,67.5,105z M85.7,78c-1.7,1.8-2.2,4.6-5.3,5
			c4.6,3.2,9.1,6.3,13.5,9.4c0.1-0.1,0.1-0.1,0.2-0.2C91.3,87.5,88.5,82.8,85.7,78z M145.3,86.5c-4.4,4-8.5,7.8-12.7,11.6
			c4.1-1.1,8-2.3,11.9-3.6c0.3-0.1,0.7-0.6,0.7-0.9C145.3,91.3,145.3,89.1,145.3,86.5z M134.3,119.6c0,0.1-0.1,0.1-0.1,0.2
			c3.6,2.4,7.2,4.8,11,7.3c0-2.1,0-3.9,0-5.8C141.5,120.8,137.9,120.2,134.3,119.6z M135.1,105c3.5,0,6.8,0,10.1,0
			c0-1.6,0-3.1,0-4.7C141.8,101.9,138.6,103.4,135.1,105z M145.2,115.4c0-1.5,0-2.9,0-4.3c-3.2,0.4-6.2,0.9-9.3,1.3
			c0,0.1,0,0.1,0,0.2C138.9,113.5,142,114.4,145.2,115.4z"/>
		<path class="st0" d="M111,135.2c1.3,6.3,2.5,12.3,3.7,18.2c2.4,11.7,4.7,23.4,7.1,35.2c0.6,2.9,1.2,5.7,1.7,8.6
			c0.1,0.7,0,1.6-0.4,2.1c-0.5,0.7-0.4,1.2,0.1,1.8c0.4,0.5,0.8,1.1,1.1,1.7c0.5,0.7,0.8,1.5,0.2,2.3c-0.7,0.8-1.6,1.1-2.6,0.8
			c-1.8-0.7-3.6-1.5-5.4-2.3c-0.7-0.3-1.5-0.5-2.2-0.8c-0.3-0.1-0.6-0.2-0.7-0.3c-0.9-0.9-1.8-0.8-2.6-0.1c-0.9,0.7-1.7,1.4-2.4,2.3
			c-0.6,0.7-0.9,1.5-0.5,2.4c0.1,0.2,0,0.6-0.1,0.9c-0.3-0.2-0.6-0.3-0.8-0.5c-0.5-0.6-1-1.3-1.5-2c-0.1,0.1-0.3,0.2-0.4,0.2
			c0.1,0.5,0.2,1.1,0.4,1.9c-0.6-0.2-1.1-0.3-1.4-0.6c-0.8-0.8-1.5-1.7-2-2.6c-0.7-1.3-1.1-2.6-1.7-4c-0.3-0.7,0-1.1,0.6-1.4
			c1.6-0.9,1.7-0.9,0.8-2.5c-1.2-2.3-2-4.7-1.9-7.3c0.1-1.8,0.6-3.5,1-5.3c3.1-15.1,6.2-30.1,9.3-45.2
			C110.4,137.7,110.7,136.6,111,135.2z"/>
		<path class="st0" d="M124.7,197.1c-2.1-20.8-4.3-41.6-6.4-62.3c0.1,0,0.2-0.1,0.3-0.1c0.2,0.4,0.5,0.8,0.7,1.2
			c6.3,11.2,12.7,22.4,19,33.6c0.8,1.5,0.1,3-1.6,3.4c-1.6,0.4-1.9,1.2-1.2,2.7c0,0.1,0.1,0.2,0.1,0.2c-0.6,1.1-0.1,2.6-0.9,3.7
			c-0.9,1.1-1.9,2.1-0.9,3.7c0.1,0.1,0,0.5-0.1,0.6c-0.7,0.7-0.7,1.4-0.3,2.3c0.2,0.4,0,1-0.2,1.3c-0.5,0.8-1.1,1.5-1.7,2.2
			c-0.6,0.7-0.7,1.4-0.1,2.2c0.4,0.5,0.7,1,1.1,1.6c0.4,0.5,0.3,1-0.3,1.2c-1.6,0.6-3.1,1.1-4.7,1.7
			C126.5,196.6,125.6,196.8,124.7,197.1z"/>
		<path class="st0" d="M97.9,187.7c-0.7-0.7-1.5-1.4-2.1-2.2c-1-1.2-2.1-1.9-3.8-1.6c-0.3,0.1-1-0.3-1-0.6c-0.1-1.4-1-2-2.1-2.5
			c-2.9-1.2-5.2-3.1-7-5.6c-0.5-0.8-0.6-1.4-0.2-2.2c7.2-12.7,14.4-25.4,21.5-38c0.1-0.1,0.2-0.2,0.5-0.3
			c-1.8,17.6-3.7,35.3-5.5,52.9C98.1,187.6,98,187.6,97.9,187.7z"/>
		<path class="st0" d="M141.2,56.6c0.3,1.4-0.1,2.5-0.7,3.5c-0.9,1.5-1.3,3-0.7,4.7c0.1,0.2,0,0.6-0.2,0.8
			c-5.9,7.5-11.7,15-17.6,22.5c0,0-0.1,0-0.2,0.1c2.5-10.6,5-21,7.5-31.6C133.2,56.6,137.1,56.6,141.2,56.6z"/>
		<path class="st0" d="M125.1,131.2c5.9,5.6,11.8,11.1,17.7,16.8c-1,1-0.7,1.8-0.1,2.8c1.2,2,2.5,4,1.9,6.5c-0.1,0.3,0,0.8,0.1,1.1
			c0.9,1.8,0.3,3.1-1,4.5c-1.5,1.5-2.6,3.4-3.9,5.3c-5-12.3-9.9-24.6-14.9-36.9C125,131.2,125.1,131.2,125.1,131.2z"/>
		<path class="st0" d="M100.1,88.2c-2.3-2.9-4.5-5.8-6.8-8.7c-1.4-1.8-2.8-3.5-4.1-5.3c-0.3-0.4-0.3-0.9-0.3-1.4
			c0-0.6,0.1-1.3,0.2-1.9c0.7-2.9-0.2-4-3.1-5.6c-1.4-0.7-2.2-1.5-2.4-3c-0.3-1.7-1.5-2.9-2.8-4c-0.5-0.4-0.9-1-1.6-1.8
			c4.7,0,9.1,0,13.6,0c2.5,10.5,5,21,7.5,31.5C100.2,88.2,100.2,88.2,100.1,88.2z"/>
		<path class="st0" d="M112.7,56.6c4.5,0,8.8,0,13.4,0c-3.8,9.8-7.5,19.6-11.2,29.4c-0.1,0-0.2,0-0.2-0.1
			C114,76.1,113.3,66.4,112.7,56.6z"/>
		<path class="st0" d="M109.3,56.6c-0.6,9.8-1.3,19.5-1.9,29.2c-0.1,0-0.2,0-0.3,0.1c-3.7-9.7-7.4-19.4-11.2-29.2
			C100.4,56.6,104.7,56.6,109.3,56.6z"/>
		<path class="st0" d="M86.2,158.1c-1.1-2.2-2.7-3.5-4.9-4c-1.3-0.3-2.4-0.2-3.3,1c-0.7,0.9-1.6,1-2.6,0.6c-1-0.4-1.5-1.1-1.5-2.1
			c0-0.4,0.2-0.9,0.4-1.1c7.4-7,14.8-14,22.2-21c0.1-0.1,0.1-0.1,0.4-0.2C93.4,140.2,89.9,149.1,86.2,158.1z"/>
		<path class="st0" d="M59.6,124.1c9.2-1.5,18.7-3,28.1-4.5c0,0.1,0.1,0.1,0.1,0.2c-7.9,5.3-15.8,10.6-23.7,15.9
			c-1.4-1.1-2.3-2.4-2.9-4.1c-0.4-1-0.9-1.9-1.3-2.9c-0.2-0.5-0.3-1-0.3-1.5C59.5,126.3,59.6,125.3,59.6,124.1z"/>
		<path class="st0" d="M91.5,126.3c-5.7,7-11.4,14-17.3,21.3c-0.7-4.8-5.3-6-7.8-9.2c8.4-4.1,16.7-8.2,25-12.3
			C91.4,126.2,91.5,126.2,91.5,126.3z"/>
		<path class="st0" d="M86.1,112.6c-9.3,2.8-18.6,5.6-28,8.4c-0.5-2,0.1-3.5,1.2-5c0.5-0.6,1-1.2,1.6-1.8c0.9-1,1.2-2.1,0.8-3.4
			c-0.2-0.5-0.2-1.1-0.3-1.9c8.4,1.2,16.6,2.3,24.7,3.5C86.1,112.4,86.1,112.5,86.1,112.6z"/>
		<path class="st0" d="M127.9,92.2c4.7-7.9,9.4-15.9,14.2-24.1c0.4,1,0.9,1.8,1.1,2.6c0.7,2.6,1.3,5.2,1.9,7.8c0.3,1.1,0.1,2-1,2.7
			c-5.4,3.6-10.7,7.4-16,11.1C128,92.3,128,92.3,127.9,92.2z"/>
		<path class="st0" d="M89.4,98.3c-5.8-1.9-11.5-3.7-17.2-5.5c-0.8-0.2-1.5-0.6-2.3-0.7c-1-0.2-1.5-0.8-1.5-1.7c0-1,0.1-2.1,0.4-3
			c0.4-1.3,1.4-2,2.8-2c1.2,0,2.4,0,3.6,0.1c0.2,0,0.5,0.2,0.7,0.4c4.4,4,8.9,8.1,13.3,12.1C89.3,97.9,89.3,98,89.4,98.3z"/>
		<path class="st0" d="M130.6,126.1c3.8,1.9,7.5,4,11.5,5.6c2.6,1.1,3.6,2.5,3.2,5.2c-0.3,1.8,0,3.6,0,5.4c0,0.5-0.1,1-0.2,1.5
			c-0.1,0-0.2,0.1-0.3,0.1c-4.7-5.8-9.5-11.7-14.2-17.5C130.5,126.3,130.6,126.2,130.6,126.1z"/>
		<path class="st0" d="M67.5,105c0.5-3,2.5-4.9,3.8-7.3c5.1,2.4,10.2,4.8,15.5,7.3C80.3,105,73.9,105,67.5,105z"/>
		<path class="st0" d="M85.7,78c2.8,4.8,5.6,9.5,8.4,14.2c-0.1,0.1-0.1,0.1-0.2,0.2c-4.4-3.1-8.9-6.2-13.5-9.4
			C83.5,82.6,84,79.8,85.7,78z"/>
		<path class="st0" d="M145.3,86.5c0,2.6,0,4.8,0,7.1c0,0.3-0.4,0.8-0.7,0.9c-3.9,1.3-7.9,2.5-11.9,3.6
			C136.7,94.2,140.9,90.5,145.3,86.5z"/>
		<path class="st0" d="M134.3,119.6c3.6,0.6,7.2,1.2,10.9,1.8c0,1.9,0,3.7,0,5.8c-3.7-2.5-7.4-4.9-11-7.3
			C134.2,119.8,134.3,119.7,134.3,119.6z"/>
		<path class="st0" d="M135.1,105c3.4-1.6,6.7-3.1,10.1-4.7c0,1.7,0,3.1,0,4.7C141.9,105,138.6,105,135.1,105z"/>
		<path class="st0" d="M145.2,115.4c-3.2-1-6.2-1.9-9.3-2.8c0-0.1,0-0.1,0-0.2c3.1-0.4,6.1-0.9,9.3-1.3
			C145.2,112.5,145.2,113.8,145.2,115.4z"/>
	</g>
	<g>
		<path class="st0" d="M79.2,50.5V33.7h2.6v16.7H79.2z"/>
		<path class="st0" d="M84.4,50.5V33.7H87V48h4.7v2.4H84.4z"/>
		<path class="st0" d="M93,50.5V33.7h2.6V48h4.7v2.4H93z"/>
		<path class="st0" d="M101.7,50.5V33.7h2.6v16.7H101.7z"/>
		<path class="st0" d="M109.5,40.7v9.7h-2.6V33.7h2.3l2,5c0.2,0.4,0.3,0.8,0.5,1.2c0.2,0.4,0.3,0.8,0.5,1.2l0.8,2.3c0,0,0.1,0,0.1,0
			c0,0,0,0,0.1,0v-9.7h2.6v16.7h-2.3l-2-5c-0.3-0.8-0.6-1.6-0.9-2.4C110.2,42.3,109.9,41.5,109.5,40.7L109.5,40.7z"/>
		<path class="st0" d="M126.1,46.2c0,1.5-0.3,2.6-1,3.3c-0.7,0.7-1.7,1.1-3.1,1.1c-1.4,0-2.4-0.4-3.1-1.1c-0.6-0.7-1-1.7-1-3.1V38
			c0-0.7,0.1-1.3,0.2-1.8c0.2-0.5,0.4-1,0.7-1.4c0.3-0.4,0.7-0.7,1.3-0.9c0.5-0.2,1.1-0.3,1.9-0.3c0.8,0,1.4,0.1,1.9,0.3
			c0.5,0.2,0.9,0.5,1.2,0.9c0.3,0.4,0.5,0.9,0.7,1.4c0.1,0.5,0.2,1.2,0.2,1.9V46.2z M123.5,37.8c0-0.5-0.1-0.9-0.3-1.3
			c-0.2-0.4-0.6-0.6-1.1-0.6c-0.3,0-0.6,0.1-0.7,0.2c-0.2,0.1-0.3,0.3-0.4,0.5c-0.1,0.2-0.2,0.4-0.2,0.7c0,0.2-0.1,0.5-0.1,0.7v8.4
			c0,0.4,0.1,0.8,0.3,1.2c0.2,0.3,0.6,0.5,1.1,0.5s0.9-0.2,1.1-0.5c0.2-0.4,0.3-0.8,0.3-1.3V37.8z"/>
		<path class="st0" d="M128.6,50.5V33.7h2.6v16.7H128.6z"/>
		<path class="st0" d="M141.6,45.7c0,0.8-0.1,1.4-0.2,2c-0.1,0.6-0.4,1.1-0.7,1.5c-0.3,0.4-0.8,0.8-1.3,1c-0.5,0.2-1.2,0.3-2,0.3
			c-0.7,0-1.3-0.1-1.9-0.3c-0.5-0.2-1-0.5-1.3-0.9c-0.3-0.4-0.6-0.8-0.7-1.3c-0.2-0.5-0.2-1-0.2-1.6l2.6-0.5c0,0.6,0.2,1.1,0.4,1.5
			c0.2,0.4,0.6,0.6,1.2,0.6c0.4,0,0.6-0.1,0.8-0.2s0.4-0.3,0.5-0.5c0.1-0.2,0.2-0.5,0.2-0.8c0-0.3,0-0.6,0-0.9c0-0.4,0-0.7-0.1-1
			c0-0.3-0.1-0.5-0.3-0.7c-0.1-0.2-0.3-0.4-0.6-0.5c-0.2-0.1-0.6-0.3-1-0.5c-0.8-0.3-1.5-0.7-1.9-1c-0.5-0.4-0.9-0.7-1.1-1.1
			c-0.3-0.4-0.4-0.8-0.5-1.3c-0.1-0.4-0.1-0.9-0.1-1.5c0-0.7,0.1-1.3,0.2-1.9c0.2-0.6,0.4-1,0.7-1.5c0.3-0.4,0.8-0.7,1.3-1
			c0.5-0.2,1.1-0.3,1.9-0.3c0.8,0,1.4,0.1,2,0.4c0.5,0.2,0.9,0.6,1.2,1c0.3,0.4,0.5,0.8,0.7,1.3s0.2,0.9,0.2,1.3l-2.6,0.6
			c0-0.6-0.1-1.1-0.3-1.5c-0.2-0.4-0.6-0.6-1.2-0.6c-0.3,0-0.6,0.1-0.8,0.2c-0.2,0.1-0.3,0.3-0.4,0.5c-0.1,0.2-0.2,0.4-0.2,0.7
			c0,0.2,0,0.5,0,0.7c0,0.3,0,0.5,0,0.8c0,0.2,0.1,0.4,0.3,0.6s0.4,0.4,0.7,0.6c0.3,0.2,0.7,0.4,1.3,0.6c0.7,0.3,1.3,0.6,1.8,0.9
			c0.4,0.3,0.8,0.7,1,1.1c0.2,0.4,0.4,0.8,0.4,1.3C141.6,44.5,141.6,45.1,141.6,45.7z"/>
	</g>
	<g>
		<path class="st0" d="M161.4,175.2c0.3-0.9,0.8-1.5,1.6-1.8s1.7-0.5,2.7-0.5c2,0,3.5,0.4,4.5,1.3c1,0.9,1.4,2.2,1.4,4v4h-19.5v-4.3
			c0-1.7,0.5-3,1.4-3.7c0.9-0.8,2.2-1.2,3.9-1.2c0.9,0,1.7,0.2,2.4,0.5c0.7,0.3,1.2,0.8,1.5,1.6H161.4z M157.5,176
			c-0.9,0-1.5,0.2-1.9,0.5c-0.4,0.4-0.6,0.9-0.6,1.8v1h5v-1c0-0.8-0.2-1.4-0.6-1.7C158.9,176.2,158.3,176,157.5,176z M165.5,175.9
			c-0.9,0-1.6,0.2-2,0.5c-0.4,0.3-0.7,0.9-0.7,1.8v1.2h6v-1.2c0-0.5-0.1-0.9-0.3-1.2c-0.2-0.3-0.4-0.5-0.7-0.7
			c-0.3-0.2-0.7-0.3-1.1-0.3C166.3,175.9,165.9,175.9,165.5,175.9z"/>
		<path class="st0" d="M171.6,170.2h-19.5v-3h19.5V170.2z"/>
		<path class="st0" d="M152,159.6c0-0.8,0.1-1.5,0.3-2.1c0.2-0.6,0.5-1.1,0.9-1.4c0.4-0.4,0.9-0.7,1.4-0.8c0.5-0.2,1.1-0.3,1.8-0.3
			l0.8,2.9c-0.7,0-1.3,0.1-1.7,0.4c-0.4,0.3-0.7,0.7-0.7,1.3c0,0.4,0.1,0.6,0.2,0.9c0.1,0.2,0.3,0.4,0.6,0.5
			c0.2,0.1,0.5,0.2,0.8,0.2c0.3,0,0.5,0.1,0.8,0.1h9.9c0.2,0,0.4,0,0.6-0.1c0.2,0,0.4-0.1,0.6-0.2c0.2-0.1,0.4-0.3,0.5-0.5
			c0.1-0.2,0.2-0.5,0.2-0.8c0-1.1-0.8-1.7-2.4-1.7c0.1-0.5,0.2-1,0.2-1.5c0.1-0.5,0.1-1,0.2-1.5c1.5,0,2.6,0.4,3.5,1.2
			c0.9,0.8,1.3,1.9,1.3,3.4c0,1.6-0.4,2.8-1.2,3.6c-0.8,0.8-2,1.2-3.6,1.2h-9.7c-0.7,0-1.4-0.1-2.1-0.2c-0.6-0.2-1.2-0.4-1.7-0.8
			c-0.5-0.4-0.9-0.9-1.1-1.5C152.1,161.2,152,160.5,152,159.6z"/>
		<path class="st0" d="M171.6,152.8h-19.5v-8.7h2.8v5.6h5.3v-4.9h2.9v4.9h5.6v-5.6h2.8V152.8z"/>
		<path class="st0" d="M160.3,139.2h11.3v3h-19.5v-2.7l5.8-2.4c0.5-0.2,1-0.4,1.4-0.6c0.5-0.2,0.9-0.4,1.4-0.6l2.7-1
			c0,0,0-0.1,0-0.1c0,0,0,0,0-0.1h-11.3v-3h19.5v2.7l-5.8,2.3c-1,0.4-1.9,0.7-2.8,1.1c-0.9,0.4-1.8,0.7-2.8,1.1V139.2z"/>
		<path class="st0" d="M155,124.3h16.7v3H155v3.1h-2.8v-9.3h2.8V124.3z"/>
		<path class="st0" d="M171.6,119.5h-19.5v-8.7h2.8v5.6h5.3v-4.9h2.9v4.9h5.6v-5.6h2.8V119.5z"/>
		<path class="st0" d="M160.3,105.9h11.3v3h-19.5v-2.7l5.8-2.4c0.5-0.2,1-0.4,1.4-0.6c0.5-0.2,0.9-0.4,1.4-0.6l2.7-1
			c0,0,0-0.1,0-0.1c0,0,0,0,0-0.1h-11.3v-3h19.5v2.7l-5.8,2.3c-1,0.4-1.9,0.7-2.8,1.1c-0.9,0.4-1.8,0.7-2.8,1.1V105.9z"/>
		<path class="st0" d="M160.3,92.8h11.3v3h-19.5v-2.7l5.8-2.4c0.5-0.2,1-0.4,1.4-0.6c0.5-0.2,0.9-0.4,1.4-0.6l2.7-1c0,0,0-0.1,0-0.1
			c0,0,0,0,0-0.1h-11.3v-3h19.5v2.7l-5.8,2.3c-1,0.4-1.9,0.7-2.8,1.1c-0.9,0.4-1.8,0.7-2.8,1.1V92.8z"/>
		<path class="st0" d="M171.6,82.7h-19.5v-3h19.5V82.7z"/>
		<path class="st0" d="M171.6,69.6l-4.1,0.8V74c0.7,0.1,1.3,0.3,2,0.4c0.7,0.1,1.4,0.2,2,0.4v3.1c-3.3-0.7-6.5-1.3-9.7-2
			c-3.2-0.7-6.5-1.3-9.7-2v-3.4l19.5-4V69.6z M156.6,72.3c1.3,0.2,2.7,0.4,4,0.6c1.3,0.2,2.7,0.4,4.1,0.7v-2.7l-8.1,1.3V72.3z"/>
		<path class="st0" d="M171.6,64.8h-19.5v-3h16.7v-5.4h2.8V64.8z"/>
	</g>
	<g>
		<path class="st0" d="M154.8,196.5v-7.7l-1.3,1v-1.5l1.4-1.1h1.4v9.3H154.8z"/>
		<path class="st0" d="M161.8,190c0,0.3,0,0.7-0.1,1c-0.1,0.3-0.3,0.5-0.6,0.7c0,0,0,0,0,0c0.2,0.1,0.3,0.2,0.4,0.4
			c0.1,0.1,0.2,0.3,0.2,0.4c0,0.2,0.1,0.3,0.1,0.5c0,0.2,0,0.4,0,0.6v0.8c0,0.4-0.1,0.7-0.2,1c-0.1,0.3-0.2,0.5-0.4,0.7
			c-0.2,0.2-0.4,0.3-0.6,0.4c-0.2,0.1-0.5,0.1-0.8,0.1c-0.4,0-0.7-0.1-0.9-0.2c-0.3-0.1-0.5-0.3-0.6-0.5c-0.2-0.2-0.3-0.4-0.4-0.7
			c-0.1-0.3-0.1-0.6-0.1-0.9v-0.7c0-0.2,0-0.4,0-0.6c0-0.2,0-0.4,0.1-0.6c0-0.2,0.1-0.3,0.2-0.5c0.1-0.1,0.2-0.3,0.4-0.4
			c-0.2-0.1-0.3-0.2-0.4-0.3c-0.1-0.1-0.2-0.2-0.2-0.4c-0.1-0.1-0.1-0.3-0.1-0.4c0-0.1,0-0.3,0-0.4v-1.1c0-0.6,0.2-1.1,0.6-1.5
			s0.9-0.6,1.5-0.6c0.7,0,1.2,0.2,1.5,0.6s0.5,0.9,0.5,1.6V190z M160.4,189.2c0-0.2,0-0.4-0.1-0.5c-0.1-0.1-0.2-0.2-0.5-0.2
			c-0.2,0-0.3,0.1-0.4,0.2s-0.2,0.2-0.2,0.4v1.5c0,0.2,0.1,0.3,0.2,0.4c0.1,0.1,0.3,0.2,0.4,0.2c0.2,0,0.3-0.1,0.4-0.2
			c0.1-0.1,0.2-0.2,0.2-0.4V189.2z M160.4,192.9c0-0.2,0-0.4-0.1-0.5c-0.1-0.2-0.2-0.2-0.5-0.2c-0.2,0-0.4,0.1-0.5,0.2
			c-0.1,0.2-0.1,0.3-0.1,0.5v1.8c0,0.2,0.1,0.3,0.2,0.4c0.1,0.1,0.3,0.2,0.4,0.2c0.2,0,0.3-0.1,0.4-0.2c0.1-0.1,0.2-0.2,0.2-0.4
			V192.9z"/>
		<path class="st0" d="M164.5,196.5v-7.7l-1.3,1v-1.5l1.4-1.1h1.4v9.3H164.5z"/>
		<path class="st0" d="M171.6,190c0,0.3,0,0.7-0.1,1c-0.1,0.3-0.3,0.5-0.6,0.7c0,0,0,0,0,0c0.2,0.1,0.3,0.2,0.4,0.4
			c0.1,0.1,0.2,0.3,0.2,0.4c0,0.2,0.1,0.3,0.1,0.5c0,0.2,0,0.4,0,0.6v0.8c0,0.4-0.1,0.7-0.2,1c-0.1,0.3-0.2,0.5-0.4,0.7
			c-0.2,0.2-0.4,0.3-0.6,0.4c-0.2,0.1-0.5,0.1-0.8,0.1c-0.4,0-0.7-0.1-0.9-0.2c-0.3-0.1-0.5-0.3-0.6-0.5s-0.3-0.4-0.4-0.7
			c-0.1-0.3-0.1-0.6-0.1-0.9v-0.7c0-0.2,0-0.4,0-0.6c0-0.2,0-0.4,0.1-0.6c0-0.2,0.1-0.3,0.2-0.5c0.1-0.1,0.2-0.3,0.4-0.4
			c-0.2-0.1-0.3-0.2-0.4-0.3c-0.1-0.1-0.2-0.2-0.2-0.4c-0.1-0.1-0.1-0.3-0.1-0.4c0-0.1,0-0.3,0-0.4v-1.1c0-0.6,0.2-1.1,0.6-1.5
			s0.9-0.6,1.5-0.6c0.7,0,1.2,0.2,1.5,0.6c0.3,0.4,0.5,0.9,0.5,1.6V190z M170.2,189.2c0-0.2,0-0.4-0.1-0.5c-0.1-0.1-0.2-0.2-0.5-0.2
			c-0.2,0-0.3,0.1-0.4,0.2s-0.2,0.2-0.2,0.4v1.5c0,0.2,0.1,0.3,0.2,0.4c0.1,0.1,0.3,0.2,0.4,0.2c0.2,0,0.3-0.1,0.4-0.2
			c0.1-0.1,0.2-0.2,0.2-0.4V189.2z M170.2,192.9c0-0.2,0-0.4-0.1-0.5c-0.1-0.2-0.2-0.2-0.5-0.2c-0.2,0-0.4,0.1-0.5,0.2
			c-0.1,0.2-0.1,0.3-0.1,0.5v1.8c0,0.2,0.1,0.3,0.2,0.4c0.1,0.1,0.3,0.2,0.4,0.2c0.2,0,0.3-0.1,0.4-0.2c0.1-0.1,0.2-0.2,0.2-0.4
			V192.9z"/>
	</g>
	<g>
		<path class="st0" d="M154.2,199.8c-0.2,0-0.4,0.1-0.5,0.3c-0.1,0.2-0.2,0.5-0.2,1l-1.4-0.2c0-0.8,0.2-1.4,0.6-1.8
			c0.4-0.4,0.9-0.6,1.5-0.6c0.7,0,1.3,0.2,1.6,0.6c0.3,0.4,0.5,0.9,0.5,1.6c0,0.4,0,0.8-0.1,1.1c-0.1,0.3-0.2,0.7-0.4,1l-1.9,3.7
			h2.3v1.3h-4v-1.3c0.4-0.8,0.8-1.5,1.2-2.3c0.4-0.8,0.8-1.5,1.2-2.3c0.1-0.2,0.2-0.5,0.2-0.7c0-0.2,0-0.5,0-0.7c0-0.1,0-0.2,0-0.3
			c0-0.1,0-0.2-0.1-0.3c0-0.1-0.1-0.1-0.2-0.2C154.4,199.9,154.3,199.8,154.2,199.8z"/>
		<path class="st0" d="M161.7,206c0,0.3-0.1,0.6-0.2,0.8c-0.1,0.2-0.3,0.5-0.4,0.6c-0.2,0.2-0.4,0.3-0.6,0.4
			c-0.2,0.1-0.5,0.1-0.8,0.1c-0.3,0-0.6,0-0.8-0.1c-0.2-0.1-0.5-0.2-0.6-0.4c-0.2-0.2-0.3-0.4-0.4-0.6c-0.1-0.2-0.2-0.5-0.2-0.8
			v-5.5c0-0.3,0.1-0.6,0.2-0.8c0.1-0.2,0.3-0.5,0.4-0.6c0.2-0.2,0.4-0.3,0.6-0.4c0.2-0.1,0.5-0.1,0.8-0.1c0.6,0,1.1,0.2,1.5,0.5
			c0.4,0.3,0.6,0.8,0.6,1.5V206z M160.2,200.4c0-0.2-0.1-0.3-0.2-0.4c-0.1-0.1-0.3-0.2-0.4-0.2c-0.2,0-0.3,0.1-0.4,0.2
			c-0.1,0.1-0.2,0.2-0.2,0.4v5.6c0,0.2,0.1,0.3,0.2,0.4c0.1,0.1,0.3,0.2,0.4,0.2c0.2,0,0.3-0.1,0.4-0.2c0.1-0.1,0.2-0.2,0.2-0.4
			V200.4z"/>
		<path class="st0" d="M164.3,207.9v-7.7l-1.3,1v-1.5l1.4-1.1h1.4v9.3H164.3z"/>
		<path class="st0" d="M171.5,201.3c0,0.3,0,0.7-0.1,1c-0.1,0.3-0.3,0.5-0.6,0.7c0,0,0,0,0,0c0.2,0.1,0.3,0.2,0.4,0.4
			c0.1,0.1,0.2,0.3,0.2,0.4c0,0.2,0.1,0.3,0.1,0.5c0,0.2,0,0.4,0,0.6v0.8c0,0.4-0.1,0.7-0.2,1c-0.1,0.3-0.2,0.5-0.4,0.7
			c-0.2,0.2-0.4,0.3-0.6,0.4c-0.2,0.1-0.5,0.1-0.8,0.1c-0.4,0-0.7-0.1-0.9-0.2c-0.3-0.1-0.5-0.3-0.6-0.5c-0.2-0.2-0.3-0.4-0.4-0.7
			c-0.1-0.3-0.1-0.6-0.1-0.9v-0.7c0-0.2,0-0.4,0-0.6c0-0.2,0-0.4,0.1-0.6c0-0.2,0.1-0.3,0.2-0.5c0.1-0.1,0.2-0.3,0.4-0.4
			c-0.2-0.1-0.3-0.2-0.4-0.3s-0.2-0.2-0.2-0.4c-0.1-0.1-0.1-0.3-0.1-0.4c0-0.1,0-0.3,0-0.4v-1.1c0-0.6,0.2-1.1,0.6-1.5
			s0.9-0.6,1.5-0.6c0.7,0,1.2,0.2,1.5,0.6s0.5,0.9,0.5,1.6V201.3z M170,200.5c0-0.2,0-0.4-0.1-0.5c-0.1-0.1-0.2-0.2-0.5-0.2
			c-0.2,0-0.3,0.1-0.4,0.2c-0.1,0.1-0.2,0.2-0.2,0.4v1.5c0,0.2,0.1,0.3,0.2,0.4c0.1,0.1,0.3,0.2,0.4,0.2c0.2,0,0.3-0.1,0.4-0.2
			c0.1-0.1,0.2-0.2,0.2-0.4V200.5z M170,204.3c0-0.2,0-0.4-0.1-0.5c-0.1-0.2-0.2-0.2-0.5-0.2c-0.2,0-0.4,0.1-0.5,0.2
			c-0.1,0.2-0.1,0.3-0.1,0.5v1.8c0,0.2,0.1,0.3,0.2,0.4c0.1,0.1,0.3,0.2,0.4,0.2c0.2,0,0.3-0.1,0.4-0.2c0.1-0.1,0.2-0.2,0.2-0.4
			V204.3z"/>
	</g>
	<polygon class="st0" points="120.4,0 122.5,5.5 128.4,5.9 123.9,9.6 125.3,15.4 120.4,12.2 115.4,15.4 116.8,9.6 112.3,5.9 
		118.2,5.5 	"/>
	<polygon class="st0" points="137.4,225.5 139.4,231 145.4,231.5 140.7,235.2 142.1,240.9 137.2,237.7 132.1,240.8 133.7,235.1 
		129.2,231.2 135.1,231 	"/>
	<polygon class="st0" points="86.9,5 89.1,10.5 95,10.8 90.5,14.7 92,20.4 87,17.2 82,20.5 83.4,14.7 78.8,11 84.8,10.6 	"/>
	<polygon class="st0" points="169.6,215.5 171.7,221.1 177.6,221.5 173,225.2 174.5,231 169.5,227.7 164.5,230.8 166,225.1 
		161.5,221.3 167.4,221 	"/>
	<polygon class="st0" points="56.3,19.7 58.6,25.2 64.5,25.4 60,29.2 61.7,34.9 56.6,31.9 51.7,35.2 53,29.4 48.4,25.8 54.3,25.3 	
		"/>
	<polygon class="st0" points="197.8,196.5 199.7,202.1 205.6,202.7 200.9,206.3 202.2,212 197.3,208.7 192.2,211.7 193.9,206 
		189.5,202.1 195.4,201.9 	"/>
	<polygon class="st0" points="24.3,48.4 30.2,47.7 32,42.1 34.5,47.5 40.4,47.5 36.1,51.5 37.9,57.2 32.7,54.3 27.9,57.7 29.1,51.9 
			"/>
	<polygon class="st0" points="211.1,175.7 217,175.1 219,169.5 221.4,174.9 227.3,175 222.9,179 224.6,184.7 219.5,181.7 214.6,185 
		215.9,179.2 	"/>
	<polygon class="st0" points="7.4,77.6 13.3,77 15.2,71.4 17.6,76.8 23.6,76.8 19.2,80.8 20.9,86.5 15.8,83.5 10.9,87 12.2,81.2 	
		"/>
	<polygon class="st0" points="223.6,143.8 229.5,143.5 231.8,138.1 233.9,143.6 239.8,144.1 235.1,147.8 236.5,153.5 231.6,150.2 
		226.5,153.3 228.1,147.6 	"/>
	<polygon class="st0" points="0,110.2 5.9,109.9 8.1,104.3 10.3,109.9 16.2,110.3 11.6,114 13,119.8 8,116.5 3,119.7 4.6,114 	"/>
	<polygon class="st0" points="226.1,110.1 232.1,109.8 234.3,104.4 236.4,109.9 242.3,110.4 237.7,114.1 239.1,119.8 234.1,116.5 
		229.1,119.6 230.7,113.9 	"/>
	<polygon class="st0" points="2.6,143.8 8.5,143.5 10.8,138.1 12.8,143.6 18.7,144.1 14.1,147.8 15.5,153.5 10.5,150.2 5.5,153.3 
		7.1,147.6 	"/>
	<polygon class="st0" points="218.6,77.2 224.5,76.9 226.8,71.4 228.9,77 234.8,77.4 230.1,81.1 231.6,86.9 226.6,83.6 221.6,86.7 
		223.1,81 	"/>
	<polygon class="st0" points="17.8,184.1 19.2,178.3 14.5,174.6 20.4,174.1 22.5,168.6 24.7,174.1 30.7,174.3 26.2,178.2 
		27.8,183.9 22.7,180.8 	"/>
	<polygon class="st0" points="204.4,56.6 206,50.8 201.4,47 207.3,46.7 209.5,41.2 211.7,46.8 217.6,47.1 213,50.9 214.4,56.6 
		209.4,53.4 	"/>
	<polygon class="st0" points="38.9,210.5 40.2,204.7 35.5,201.1 41.4,200.6 43.4,195 45.8,200.5 51.7,200.6 47.2,204.5 48.9,210.2 
		43.8,207.2 	"/>
	<polygon class="st0" points="179.6,33.5 181.2,27.8 176.7,23.9 182.6,23.7 184.9,18.2 186.9,23.8 192.8,24.3 188.2,28 189.6,33.7 
		184.6,30.4 	"/>
	<polygon class="st0" points="66.4,229.2 68.1,223.6 63.7,219.6 69.6,219.5 72,214.1 74,219.7 79.9,220.3 75.1,223.9 76.4,229.7 
		71.5,226.3 	"/>
	<polygon class="st0" points="149.3,19 150.7,13.2 146.1,9.5 152.1,9.1 154.2,3.6 156.4,9.1 162.3,9.4 157.8,13.2 159.3,18.9 
		154.3,15.8 	"/>
	<polygon class="st0" points="98.8,239.3 100.4,233.6 95.9,229.8 101.8,229.5 104.1,224 106.2,229.6 112.1,230 107.4,233.7 
		108.8,239.5 103.9,236.2 	"/>
	<g>
		<path class="st0" d="M98.2,102.9c-0.5,0-0.9,0.2-1.2,0.7s-0.4,1.2-0.4,2.3l-3.3-0.4c0-1.8,0.4-3.3,1.3-4.3c0.9-1,2.1-1.5,3.6-1.5
			c1.7,0,3,0.5,3.7,1.4c0.7,0.9,1.1,2.2,1.1,3.7c0,1-0.1,1.8-0.3,2.6c-0.2,0.7-0.5,1.6-1,2.4l-4.4,8.7h5.5v3.1h-9.4v-2.9
			c0.9-1.8,1.9-3.5,2.8-5.3s1.8-3.5,2.7-5.3c0.3-0.5,0.5-1.1,0.5-1.6c0.1-0.5,0.1-1.1,0.1-1.7c0-0.2,0-0.4,0-0.6
			c0-0.2-0.1-0.4-0.2-0.6c-0.1-0.2-0.2-0.3-0.4-0.5C98.7,103,98.5,102.9,98.2,102.9z"/>
		<path class="st0" d="M115.6,117.3c0,0.7-0.1,1.4-0.4,1.9c-0.3,0.6-0.6,1.1-1,1.4c-0.4,0.4-0.9,0.7-1.5,0.9s-1.2,0.3-1.8,0.3
			c-0.7,0-1.3-0.1-1.9-0.3s-1.1-0.5-1.5-0.9c-0.4-0.4-0.8-0.9-1-1.4c-0.2-0.6-0.4-1.2-0.4-1.9v-12.8c0-0.7,0.1-1.4,0.4-2
			c0.3-0.6,0.6-1.1,1-1.5c0.4-0.4,0.9-0.7,1.5-0.9s1.2-0.3,1.9-0.3c1.4,0,2.5,0.4,3.4,1.2c0.9,0.8,1.3,2,1.3,3.4V117.3z
			 M112.2,104.3c0-0.4-0.1-0.7-0.4-1c-0.3-0.2-0.6-0.4-1-0.4c-0.4,0-0.8,0.1-1,0.4c-0.3,0.2-0.4,0.6-0.4,1v13.1c0,0.4,0.1,0.7,0.4,1
			c0.3,0.2,0.6,0.4,1,0.4c0.4,0,0.7-0.1,1-0.4s0.4-0.6,0.4-1V104.3z"/>
		<path class="st0" d="M128.2,117.3c0,0.7-0.1,1.4-0.4,1.9c-0.3,0.6-0.6,1.1-1,1.4c-0.4,0.4-0.9,0.7-1.5,0.9s-1.2,0.3-1.8,0.3
			c-0.7,0-1.3-0.1-1.9-0.3s-1.1-0.5-1.5-0.9c-0.4-0.4-0.8-0.9-1-1.4c-0.2-0.6-0.4-1.2-0.4-1.9v-12.8c0-0.7,0.1-1.4,0.4-2
			c0.3-0.6,0.6-1.1,1-1.5c0.4-0.4,0.9-0.7,1.5-0.9s1.2-0.3,1.9-0.3c1.4,0,2.5,0.4,3.4,1.2c0.9,0.8,1.3,2,1.3,3.4V117.3z
			 M124.9,104.3c0-0.4-0.1-0.7-0.4-1c-0.3-0.2-0.6-0.4-1-0.4c-0.4,0-0.8,0.1-1,0.4c-0.3,0.2-0.4,0.6-0.4,1v13.1c0,0.4,0.1,0.7,0.4,1
			c0.3,0.2,0.6,0.4,1,0.4c0.4,0,0.7-0.1,1-0.4s0.4-0.6,0.4-1V104.3z"/>
	</g>
</g>
</svg>
