<?xml version="1.0" encoding="utf-8"?>
<!-- Generator: Adobe Illustrator 22.1.0, SVG Export Plug-In . SVG Version: 6.00 Build 0)  -->
<svg version="1.1" id="Layer_1" xmlns="http://www.w3.org/2000/svg" xmlns:xlink="http://www.w3.org/1999/xlink" x="0px" y="0px"
	 viewBox="0 0 49 50" style="enable-background:new 0 0 49 50;" xml:space="preserve">
<style type="text/css">
	.st0{fill:#E6E7E8;}
	.st1{fill:#FFFFFF;}
	.st2{fill:#A0072B;}
</style>
<circle class="st0" cx="24.5" cy="25.5" r="24.5"/>
<circle class="st1" cx="24.5" cy="24.5" r="24.5"/>
<circle class="st2" cx="24.5" cy="24.5" r="22.6"/>
<path class="st1" d="M35.4,34.8h6.6L31,10l-5.5,2.5l3.8,8.7l-1.8,4L20.7,9.6L15.1,12l4.5,10c0,0,0,0,0,0c-2.8,6.3-6.1,8-6.5,8.2
	c-0.8,0.3-1.6,0.5-2.5,0.5c-0.3,0-0.5,0-0.8,0l-2.7,5.5c0.9,0.5,1.9,0.8,3,0.8c1.3,0,2.6-0.4,3.6-1.2l0,0c0,0,2.5-1.2,5.3-7.9
	c0,0,1-2.2,1.5-3.5l0.1-0.2l4.8,10.8h6.5l-3.4-7.6l1.8-4L35.4,34.8z"/>
</svg>
