<?xml version="1.0" encoding="utf-8"?>
<!-- Generator: Adobe Illustrator 21.0.2, SVG Export Plug-In . SVG Version: 6.00 Build 0)  -->
<svg version="1.1" id="Layer_1" xmlns="http://www.w3.org/2000/svg" xmlns:xlink="http://www.w3.org/1999/xlink" x="0px" y="0px"
	 viewBox="0 0 49 50" style="enable-background:new 0 0 49 50;" xml:space="preserve">
<style type="text/css">
	.st0{fill:#E6E7E8;}
	.st1{fill:#FFFFFF;}
	.st2{fill:#FFC20E;}
</style>
<circle class="st0" cx="24.5" cy="25.5" r="24.5"/>
<circle class="st1" cx="24.5" cy="24.5" r="24.5"/>
<circle class="st2" cx="24.5" cy="24.5" r="22.6"/>
<path class="st1" d="M33.5,17.7c0-1.7-0.1-7.1-1.5-10c-0.6-1-0.6-1-2.5-1h-9.7c-1.9,0-1.9,0-2.5,1c-1.5,2.9-1.5,8.3-1.5,10
	c0,7.8,2.6,8,2.6,14.5c0,3.2-1.3,5.7-1.3,7.9c0,2.2,0,2.4,2.6,2.4h10.2c2.6,0,2.6-0.2,2.6-2.4c0-2.2-1.3-4.8-1.3-7.9
	C30.9,25.7,33.5,25.5,33.5,17.7z M20.4,14.3v7.1c0,0.4-0.3,0.7-0.7,0.7c-0.4,0-0.7-0.3-0.7-0.7v-7.1H17c0.2-2.7,0.6-4.8,1.3-6.1
	c0.1-0.1,0.1-0.1,0.2-0.2c0.2-0.1,0.5-0.1,1.2-0.1h9.7c0.7,0,1,0.1,1.2,0.1c0.1,0,0.1,0.1,0.2,0.2c0.6,1.3,1.1,3.4,1.3,6.1H20.4z"/>
</svg>
