<?xml version="1.0" encoding="utf-8"?>
<!-- Generator: Adobe Illustrator 21.0.2, SVG Export Plug-In . SVG Version: 6.00 Build 0)  -->
<svg version="1.1" id="Layer_1" xmlns="http://www.w3.org/2000/svg" xmlns:xlink="http://www.w3.org/1999/xlink" x="0px" y="0px"
	 viewBox="0 0 421.5 91.4" style="enable-background:new 0 0 421.5 91.4;" xml:space="preserve">
<style type="text/css">
	.st0{fill:#FED401;}
</style>
<g>
	<path class="st0" d="M76.5,65.4c0-0.6,0.2-1.1,0.6-1.4v3.3C76.7,66.8,76.5,66.2,76.5,65.4z M115.8,65.1c0.1-0.8,0.1-1.4,0-1.7
		c-0.3-0.1-0.7-0.3-1.2-0.8c-0.5-0.5-0.7-0.9-0.7-1.4c0-0.3,0.6-1,1.9-2l-0.4-0.6c-0.2,0.5-0.5,0.7-0.8,0.7c-0.9-1.4-1.3-2-1.3-1.8
		c0-0.3,0-0.4,0.1-0.2c0,0.2,0.2,0.3,0.6,0.3c0.5,0,1-0.3,1.5-0.9c-1.6-2-2.5-3.3-2.8-3.9c0.5-0.3,0.8-0.5,1-0.6
		c-0.3-0.2-0.8-0.4-1.4-0.6c-0.4-0.1-0.6-0.5-0.7-1c-0.4-0.6-0.6-1-0.6-1.3c-0.4-0.2-0.9-0.5-1.3-0.8c-0.7-0.4-1-0.9-1-1.3
		c0-0.2,0.1-0.4,0.2-0.7c-0.1,0.1-0.5,0.3-1.1,0.7c-0.6,0.4-1.1,0.6-1.5,0.6c-0.4,0-0.7-0.2-0.9-0.7c0,0.1,0.3,0.1,0.8,0.1
		c0.8,0,1.5-0.4,2-1.3c-1-0.4-1.8-0.8-2.2-1c-0.1,0.1-0.4,0.2-0.7,0.5c-0.3,0.3-0.5,0.4-0.6,0.4c-0.4-0.3-0.6-0.5-0.6-0.6
		c0.5-0.2,1.1-0.7,1.8-1.3c-0.5-0.2-0.7-0.6-0.7-1c-0.1,0-0.3,0.1-0.7,0.3c-0.4,0.2-0.7,0.3-0.8,0.3c-0.4,0-0.7-0.2-0.9-0.7
		c0.2-0.2,0.3-0.5,0.3-0.9c-0.6,0.1-1-0.1-1.2-0.7c0.4-0.1,0.7-0.3,0.9-0.3c-1.5-1.3-2.7-2.2-3.4-2.9c-0.7-0.1-1.2-0.2-1.5-0.2v-0.7
		l0.4-0.4c-0.6-0.2-1-0.5-1.3-0.7c-0.3-0.3-0.5-0.5-0.6-0.7c-1.3-0.8-2-1.5-2.2-2.2c0,0.2,0.1,0.4,0.3,0.7l-0.7,0.1
		c-0.4-0.3-0.6-0.6-0.6-0.8c0-0.1,0-0.3,0.1-0.3c0.1,0,0.3,0,0.8,0.1c0.4,0.1,0.7,0.3,0.8,0.7c0.1-0.7,0.2-1.2,0.1-1.5
		c-0.2,0.1-0.7,0.1-1.5,0.1c-0.3,0-0.6-0.1-0.8-0.4c0.7-0.2,1.2-0.3,1.5-0.3v-0.9c-0.5-0.3-0.9-0.5-1.1-0.6c0.2-0.1,0.3-0.3,0.3-0.4
		c0-0.7-0.4-1-1.1-1c-0.1,0-0.4,0.2-0.9,0.6L91.2,29c0.4-0.4,0.7-0.7,0.8-0.9c0.4,0.1,0.7,0.2,0.9,0.2v-2.8c-0.3,0-0.6,0-0.8,0.1
		c-0.2,0.1-0.4,0.1-0.6,0.1c-0.1,0-0.3-0.1-0.6-0.3c-0.2-0.2-0.4-0.4-0.6-0.4c0-0.1,0-0.2,0.1-0.4h0.7c0.3,0.3,0.6,0.4,0.8,0.4
		c0-0.4,0.2-0.8,0.7-1.1c0.1-1,0.2-1.8,0.2-2.2c-0.7,0.7-1.1,1-1.3,1.1c-0.1-0.1-0.3-0.4-0.6-0.7c-0.2-0.3-0.4-0.6-0.6-0.8
		c-0.1,0.1,0.5,0.1,1.7,0.1c0-0.4,0-0.6,0-0.6h0.6c0.2,0.2,0.4,0.3,0.4,0.3c0-0.1,0.1-0.3,0.2-0.6c0.1-0.3,0.2-0.6,0.2-0.8
		c-0.5-0.2-0.8-0.4-0.8-0.4l0.3-0.3c0.1,0,0.1,0,0.1,0.1c0.1,0,0.2,0,0.3,0c0.2,0,0.4-0.2,0.7-0.5c0.2-0.3,0.4-0.5,0.4-0.6
		c0.5-0.3,1.1-0.4,1.8-0.4c-0.5,0,0.2,0.3,2.1,1c-0.1,0.4,0,0.8,0.2,1.2c0.3-0.1,0.6,0,0.9,0.3l0.8,0.9l-0.2,0.3
		c-0.2-0.1-0.3-0.1-0.6,0c0.7,0.4,1.3,0.6,1.5,0.7c-0.2,0.3-0.3,0.5-0.3,0.6H100v6.6c2.2-0.4,3-0.6,2.4-0.6c0.1,0,0.3,0.1,0.6,0.4
		c0.3,0.3,0.5,0.4,0.6,0.4c0.1,0,0.4-0.1,0.8-0.4c0.4-0.3,0.6-0.4,0.8-0.4c1.6-0.1,2.9-0.3,3.8-0.3c0-1,0.1-1.6,0.2-1.9
		c0.8,1.3,1.2,2.3,1.2,3c1.3-0.3,3-0.4,5.2-0.4c0-0.1,0-0.3,0.1-0.4c-0.1-1.3,0-2,0.1-2.2v-1.6c-0.4-0.4-0.7-0.7-0.9-0.7
		c-0.2,0.2-0.4,0.3-0.7,0.3c-0.1,0-0.3-0.1-0.6-0.3c0.1-0.1,0.1-0.4,0-0.8c-0.2-0.4-0.2-0.6-0.1-0.8c1,0.6,1.5,0.9,1.5,1
		c-0.1-0.1,0.1-0.3,0.6-0.8c-0.7-3-1.1-5.5-1.3-7.4c-0.4-1.4-0.8-2.4-1.4-3c0.2-0.5,0.2-1-0.1-1.4c-0.9,0.1-1.4,0.2-1.7,0.1l0.6-1.1
		c-0.6,0.3-0.9,0.4-1,0.4c-0.1-0.3-0.5-0.7-1-1.3c-0.5-0.6-0.8-1-0.8-1.2c0-0.3,0.3-0.7,0.8-1.1c0.1,0.1-0.1,0.1-0.7,0.1
		c-0.1,0-0.3-0.2-0.6-0.6c-0.3-0.4-0.6-0.6-0.8-0.7c-0.7-0.1-1.2-0.1-1.5,0V4.8c-0.3,0.3-0.5,0.4-0.6,0.4C105.1,4.4,104.5,4,104,4
		c-0.1,0-0.2,0-0.2,0.1c0,0.1,0,0.1-0.2,0.1c-0.2,0-0.5-0.2-0.8-0.6c-0.3-0.4-0.5-0.6-0.7-0.7c-0.8-0.1-1.7-0.1-2.5-0.1
		c-0.1,0-0.3-0.1-0.6-0.3c-0.3-0.2-0.5-0.3-0.6-0.3c0.1,0-0.4,0.3-1.3,0.8c-0.1-0.1-0.3-0.4-0.6-0.7c-0.2-0.3-0.4-0.4-0.4-0.4
		c-0.1,0-0.4,0.1-0.8,0.4c-0.4,0.3-0.7,0.4-0.9,0.4c-0.1,0-0.4-0.1-0.7-0.2c-0.3-0.1-0.5-0.2-0.6-0.2c-0.2,0-0.5,0.1-0.9,0.3
		c-0.4,0.2-0.6,0.3-0.7,0.3c-0.2,0-0.3-0.1-0.4-0.2c0-0.1-0.2-0.2-0.4-0.2c-0.5,0-1.5,0.3-3,0.9c-1.3,0.8-2.3,1.4-2.8,1.8
		c-0.6,0.4-1,0.6-1.4,0.7c-0.5,0.7-0.9,1.3-1.2,1.7C82,8,81.9,8.3,81.8,8.5C81,9,80.6,9.4,80.5,9.7c-1.1,2.6-1.7,4.2-1.8,4.9
		c-0.3,0.6-0.4,0.8-0.4,0.8c0,0.1,0,0.2,0.1,0.3c0.1,0.1,0.1,0.5,0.1,1c0.7-0.1,1,0.1,1.1,0.7l-0.3,0.3c-0.2,0-0.4,0-0.6-0.1
		c-0.1-0.1-0.3-0.1-0.4-0.1c-0.2,0-0.5,0.2-0.8,0.6c0.7,0.2,1.3,0.6,1.5,1.1l-0.3,0.3c-0.2,0-0.4,0-0.6-0.1
		c-0.2-0.1-0.3-0.1-0.4-0.1c-0.3,0-0.4,0.1-0.4,0.3v0.7c0.3,0,0.6,0.1,0.8,0.3c-0.7,0.1-1,0.9-1,2.3c0,0.4,0,0.7,0.1,0.9
		c0.4,0.5,0.7,0.8,0.7,0.9c-0.4,0.1-0.8,0.1-1,0.1c0,0.1,0.1,0.4,0.4,0.9l-0.1,0.8c0.4,0.1,0.6,0.3,0.4,0.6
		c-0.2,0.1-0.3,0.4-0.3,0.7c0,0.2,0.1,0.6,0.3,1.1s0.3,0.8,0.4,1c-0.1,0.1-0.1,0.3-0.1,0.7c0.5,0.1,0.8,0.3,1,0.7
		c-0.4,0.3-0.6,0.6-0.4,0.9c0.1,0.4,0.2,0.7,0.3,1c0.5,0.1,0.8,0.3,0.8,0.6L79,33.8c0.3,0.9,0.5,1.6,0.7,2.1c0.5,0.6,0.9,1,1.2,1.3
		c0.6,1.3,1,2.3,1.1,2.9c0.7,1,1.3,1.7,2,2.2c-0.1,0.1,0.5,0.8,1.8,2l0.3,0.8c0.4,0.2,0.7,0.4,0.9,0.4c0,0.2,0,0.4-0.1,0.6
		c1.1,1.5,2.2,2.2,3.4,2.2c0.1,0,0.4,0,0.7-0.1c0.3-0.1,0.5-0.1,0.7-0.1c0.3,0,0.6,0.1,0.8,0.3c-0.1,0.1-0.1,0.2-0.2,0.3
		c-0.1,0.1-0.2,0.2-0.2,0.2c-0.7,0.2-1.3,0.4-1.8,0.4c0.9,0.4,1.5,0.6,1.9,0.8c0.1-0.8,0.7-1.2,1.8-1.2c0.3,0,0.6,0.2,0.9,0.6
		c-0.1,0.1-0.1,0.1-0.2,0.2c0,0.1-0.1,0.1-0.2,0.2c-0.4,0-0.8,0.1-1.4,0.3c-0.6,0.2-1,0.3-1.3,0.3c0.4,0.9,0.9,1.3,1.6,1.3
		c0.2,0,0.3,0,0.3-0.1c0-0.1,0.1-0.1,0.3-0.1c0.1,0,0.2,0.2,0.2,0.6c0.5-0.6,1-0.7,1.5-0.2c0,0.1,0,0.2-0.1,0.3
		c-0.1,0.1-0.1,0.3-0.1,0.3c-0.4,0-0.6,0.1-0.8,0.3l0.8,0.8h0.8c0-0.5,0-0.7-0.1-0.7h0.8c0.2,0.2,0.3,0.4,0.3,0.4
		c-0.3,0.4-0.8,0.8-1.5,1.2c1,0.6,1.5,0.9,1.7,0.8v-0.9c0.2,0,0.6,0.2,1,0.7c0.4,0.4,0.7,0.8,0.7,1.1c-1-0.1-1.6-0.2-2-0.2
		c0,0.7,0.2,1,0.7,1c0.6,0,0.8,0,0.6-0.1c0.2,0.1,0.3,0.1,0.3,0.2c-0.2,0.1-0.4,0.3-0.6,0.3l0.4,0.2c0.9-0.6,1.3-0.9,1.2-0.9
		l0.4,0.4c-0.7,0.8-1.1,1.5-1.1,2c0,0.3,0.2,0.8,0.7,1.7c0.4,0.8,0.8,1.2,1,1.2c0.8,0,1.4,0,1.7,0.1v0.9c-0.2,0.3-0.3,0.6-0.3,0.8
		c0.5,0.1,0.8,0.4,0.8,0.7c0.4,0.1,0.6,0.3,0.6,0.3c-0.5,0.1-1,0.2-1.3,0.2c-0.2,0.4-0.6,0.7-1.2,1c0.3,0.2,0.6,0.3,0.9,0.1
		c0.4-0.2,0.8-0.3,1.1-0.3c0.4,0,0.7,0.1,0.9,0.4c-0.1,0.2-0.4,0.4-0.9,0.8c0.1,0.2,0.1,0.4,0,0.6c-0.2-0.3-0.4-0.4-0.7-0.4
		c-0.1,0-0.6,0.2-1.3,0.7c0,0.2,0,0.4,0,0.4h0.9c0.2-0.2,0.3-0.4,0.3-0.6l0.3,0.3l-0.6,0.7c0.7,0.3,1.3,0.6,1.8,0.8
		c-0.3,0.1-0.5,0.1-0.6,0.1c-0.1,0.4-0.2,0.7-0.4,0.9c-0.4-0.1-1-0.2-1.7-0.2c-0.5,0-0.7,0.6-0.6,1.7c-0.1,0.4-0.7,0.9-1.7,1.7
		c-1,0.8-1.7,1.2-2.2,1.2c-0.6,0-1.5-0.7-2.7-2c-1-1.1-1.4-1.7-1.4-1.8c0.1-0.4,0.2-0.9,0.2-1.4c0.1-0.2,0.3-0.3,0.4-0.3
		c-0.4-0.8-0.6-1.3-0.6-1.3c-0.6,0.4-1.1,0.6-1.4,0.8L91,68.2c1-0.7,1.6-1.3,1.6-1.9c-0.6,0.3-1,0.4-1.1,0.4
		c0.2,0.3,0.3,0.5,0.2,0.6h-0.4c-0.1-0.5-0.1-1.1-0.1-1.7c0-0.5,0.2-0.9,0.6-1.1c0.4,0.4,0.8,0.6,1.1,0.6v-2.4
		c-0.4,0.9-0.7,1.5-0.9,1.9c-0.3-0.7-0.5-1.4-0.6-1.9c-0.3,0-0.8,0-1.5-0.1c-0.7-0.1-1.1-0.1-1.2-0.1c-0.1,0-0.4,0.1-0.7,0.2
		c-0.3,0.1-0.5,0.2-0.7,0.2c-0.9,0-1.7,0-2.3-0.1c-0.3,0.7-0.5,1.3-0.7,1.5c-0.1,0-0.3-0.1-0.6-0.4l-0.4,0.4
		c-0.4-0.3-0.6-0.6-0.8-0.8c0.2-0.2,0.6-0.3,1.1-0.2c0.2-0.4,0.2-0.9,0-1.4c-0.7,0.5-1.6,0.8-2.7,0.8c-0.2,0-0.7-0.1-1.4-0.3
		c-0.7-0.2-1.2-0.3-1.3-0.3l-0.8,0.7v5.1c0,0.4,0,0.7-0.1,0.8c-0.3-0.6-0.4-0.8-0.4-0.8c-0.2,3.2,0.4,6.7,1.8,10.5l1-0.1
		c0.3,0,0.3,0.1,0.1,0.2c-0.3,0.3-0.4,0.6-0.3,0.9c0.7,1.3,1.2,2.3,1.5,2.8c0.3,0.6,0.6,0.9,0.9,1c1.8,2.4,3.1,3.8,3.9,4.2
		c0.8,0.4,1.4,0.6,1.9,0.7c2.2,1.5,4.8,2.3,7.7,2.3c0.1,0,0.5-0.1,0.9-0.2c0.5-0.1,0.8-0.2,0.9-0.2c-0.1,0,0.5,0.2,1.7,0.6
		c0.3-0.5,0.7-0.8,1.2-0.9c0.2,0,0.4,0,0.4,0c-0.5,0.3-0.8,0.5-0.8,0.7c0.7,0.1,1.2,0,1.3-0.2l-0.6-0.6c1.3-0.7,2.2-1.2,2.8-1.3
		l-0.3-0.7c0.1-0.2,0.3-0.4,0.4-0.6c0.9,0.6,1.4,0.9,1.4,0.9c0.1,0,0.2,0.1,0.3,0.2c0.1,0.1,0.2,0.2,0.4,0.2c0.3,0,1.1-0.5,2.4-1.4
		c1.3-0.9,2.1-1.5,2.4-1.8c0.9-1.2,1.5-2.1,2-2.8c-0.1-0.3-0.1-0.5-0.2-0.7c0.3-0.1,0.4-0.2,0.4-0.4c-0.3,0-0.6-0.1-0.8-0.2
		c0.7-0.4,1.3-0.6,1.8-0.6v-1c-0.5,0.1-0.8,0-0.8-0.2c0.4-0.2,0.6-0.6,0.4-1.2c-0.2-0.6-0.1-0.9,0.2-1.2c0.5,0.3,0.8,0.6,0.8,0.9
		c-0.1,0.3-0.2,0.6-0.3,0.9l0.6-0.4V76c-0.4-0.1-0.5-0.5-0.2-1c0.6,0.1,1,0.2,1.2,0.2l-0.2-1c-0.2,0-0.6,0.1-1,0.2
		c-0.2-0.2-0.3-0.4-0.3-0.7c-0.1,0.1,0.2,0.1,0.9,0.1c0.3,0,0.6-0.3,1-0.9c0.1-0.7,0.3-1.5,0.7-2.2c-0.2-0.1-0.6-0.2-1-0.4
		c-0.4-0.2-0.8-0.4-1-0.4c0-0.1,0-0.2,0.1-0.4c0.1-0.2,0.1-0.4,0.1-0.6h0.4l0.3,0.4h1c0-0.1,0-0.2,0.1-0.4c0.1-0.2,0.1-0.3,0.1-0.4
		c-0.7-0.3-1.1-0.7-1.2-1.3c0.5-0.5,0.9-0.9,1.2-1.2C116.1,65.9,115.8,65.6,115.8,65.1z M80.2,20.1v-0.3h0.9v0.3H80.2z M83.9,64.8
		c0.2-0.1,0.4-0.3,0.6-0.4c0.2,0.3,0.3,0.6,0.2,0.8C84.4,65.1,84.1,65,83.9,64.8z M89,37.5c-0.4,0-0.6-0.2-0.6-0.6h0.8
		C89.1,37.2,89,37.4,89,37.5z M89.1,32.1v-0.3H90v0.3H89.1z M89.1,34.7v-0.4h0.7v0.4H89.1z M90.2,26.7c-0.4,0.1-0.6,0.2-0.8,0.2
		c0-0.3,0.1-0.6,0.4-0.9c0.4,0,0.7,0.2,1.1,0.6C90.8,26.5,90.5,26.6,90.2,26.7z M89.4,28.9c0-0.4,0.2-0.6,0.7-0.6
		c0.3,0.3,0.4,0.5,0.4,0.6H89.4z M90.4,46c-0.4-0.4-0.6-0.6-0.6-0.6c0.3,0,0.6,0,1,0.1c0.4,0.1,0.6,0.1,0.7,0.1L90.4,46z M90.2,47
		v-0.3h1.3V47H90.2z M91.4,24.1c-0.2,0-0.4-0.1-0.4-0.2V23c0.5,0.2,0.8,0.4,0.8,0.9C91.7,24,91.5,24.1,91.4,24.1z M91.3,27.7
		c0-0.1,0.1-0.4,0.2-0.7C91.9,27.5,91.8,27.7,91.3,27.7z M92.2,35.2L91.8,35l0.3-0.4l0.2,0.1L92.2,35.2z M94.1,80
		c-0.4-0.3-0.6-0.5-0.6-0.6h0.8C94.2,79.8,94.1,80,94.1,80z M96.3,34.7l-0.6-0.6c0,0.1-0.1,0.3-0.2,0.6C95.7,34.9,96,34.9,96.3,34.7
		z M95.7,50.9l0.6,0.6C95.9,51.4,95.7,51.2,95.7,50.9z M97,37.9h-0.8c0.3-0.4,0.4-0.7,0.4-1c0.2,0.1,0.4,0.2,0.6,0.2
		C97.3,37.5,97.2,37.8,97,37.9z M97.5,41.8c0,0.1-0.1,0.2-0.3,0.2c-0.7-0.1-0.9-0.4-0.7-0.8l0.9,0.2C97.5,41.5,97.6,41.6,97.5,41.8z
		 M98.7,3.6c-0.3-0.4-0.4-0.6-0.4-0.8c0.1,0,0.2,0,0.4,0.1C98.8,3.1,99,3.1,99,3.1C99,3.3,98.8,3.5,98.7,3.6z M98.3,40.5
		c0.1-0.2,0.2-0.4,0.2-0.6c0.3,0,0.6,0,1,0.1c0.4,0.1,0.6,0.1,0.7,0.1C99.5,40.6,98.8,40.8,98.3,40.5z M99.8,42
		c-0.2-0.2-0.4-0.4-0.6-0.6h1.9V42H99.8z M100.5,59.2c-0.2,0.3-0.3,0.4-0.3,0.5l-0.8-0.8c0.1,0,0.3,0,0.6-0.1c0.4,0,0.7,0,0.9,0
		C100.7,58.8,100.6,58.9,100.5,59.2z M99.8,20c0.3-0.2,0.4-0.5,0.4-0.9h0.7C100.8,19.4,100.5,19.7,99.8,20z M101.2,63.2
		c-0.4-0.1-0.7-0.3-0.9-0.3c0.1,0,0.3,0,0.6-0.1c0.3-0.1,0.5-0.1,0.8-0.1L101.2,63.2z M101,70.1c0-0.1-0.1-0.3-0.4-0.6
		c0.4,0,0.7-0.1,0.9-0.2c0.3,0.3,0.4,0.6,0.2,0.8H101z M100.8,4V3.4l1,0.2L100.8,4z M100.8,60.3v1l0.4,0.4c0.4-0.4,0.6-0.7,0.6-1
		C101.5,60.4,101.2,60.3,100.8,60.3z M101.7,64.9h-0.9v0.3h0.9V64.9z M101.3,72.7c-0.1-0.5-0.2-0.8-0.2-0.9c0.3-0.1,0.6-0.2,0.8-0.2
		c0,0.1,0,0.2,0.1,0.5c0.1,0.3,0.1,0.5,0.1,0.6H101.3z M102.5,19.2c-0.4,0-0.7-0.1-1.1-0.4h1.3C102.5,19,102.5,19.2,102.5,19.2z
		 M101.3,21.3c0.5-0.2,0.8-0.3,1-0.1C102,21.3,101.7,21.3,101.3,21.3z M102.5,88.9c-0.6,0.2-0.9,0.6-0.9,1c0.8-0.3,1.4-0.6,1.8-1
		H102.5z M101.9,75.6c0.2-0.1,0.4-0.1,0.6-0.2c0.1,0.2,0.2,0.4,0.2,0.6C102.4,76,102.1,75.8,101.9,75.6z M102.3,44l-0.2-0.1l0.2-0.4
		h0.2L102.3,44z M103,47.2c-0.2-0.1-0.4-0.1-0.4-0.1l0.2-0.8c0.1,0,0.2,0,0.3,0.1c0.1,0.1,0.3,0.1,0.3,0.1v0.8
		C103.4,47.3,103.2,47.3,103,47.2z M102.9,45.1l0.2-0.7c0.4,0,0.8,0.2,1,0.7H102.9z M104.6,86c0,0.3-0.1,0.5-0.2,0.7
		c0.2,0.1,0.4,0.2,0.4,0.2c0.4-0.8,0.7-1.1,0.7-0.9H104.6z M106.3,50.5c0.2-0.1,0.4-0.2,0.4-0.2c0.1,0.1,0.2,0.4,0.2,0.8
		C106.7,51.1,106.5,50.9,106.3,50.5z M107.4,25.8l-0.8-0.3c0.1,0,0.2,0,0.5-0.1c0.3-0.1,0.4-0.1,0.5-0.1L107.4,25.8z M106.7,46.4
		v-0.3h0.6v0.3H106.7z M106.9,56.4c0.6,0.2,0.7,0.5,0.4,0.8C107,56.9,106.9,56.6,106.9,56.4z M108.9,24.2v-0.3h0.7v0.3H108.9z
		 M109.6,51.8c0-0.5,0.1-0.8,0.3-0.8c0.2,0.3,0.3,0.6,0.3,0.8H109.6z M110.7,77.7c-0.4,0-0.6-0.1-0.6-0.3c0,0.3,0.1-0.1,0.2-1.3
		c0.4-0.1,0.7-0.1,1,0C111.1,76.7,110.9,77.3,110.7,77.7z M110.2,82.6c0.1-0.1,0.2-0.2,0.4-0.2c0.2,0.1,0.3,0.2,0.3,0.2H110.2z
		 M111,11.8c0.3,0,0.4,0.1,0.4,0.3c0,0.1-0.1,0.2-0.2,0.2C111,12.3,111,12.1,111,11.8z M111.5,73.5c-0.2,0.2-0.3,0.2-0.3-0.1
		c0.1,0,0.3-0.1,0.4-0.2C111.8,73.3,111.7,73.4,111.5,73.5z M111.5,77.5l0.6-0.6C112.1,77.3,111.9,77.5,111.5,77.5z M111.9,13
		c-0.1-0.1-0.1-0.2,0-0.2c0.1,0,0.2,0.2,0.2,0.6C112,13.4,111.9,13.3,111.9,13z M112.3,14.8c-0.1,0.2-0.3,0.3-0.3,0.3
		c0.1-0.4,0.2-0.6,0.3-0.6C112.4,14.6,112.4,14.7,112.3,14.8z M112.8,62.7c-0.2,0-0.4,0.1-0.7,0.4v0.7l0.9-0.2L112.8,62.7z
		 M112.4,16v-0.3h0.7V16H112.4z M112.7,17.2v-0.4h1v0.4H112.7z M112.7,75.6v-0.3h0.8v0.3H112.7z M113.4,64.5h-0.3v0.7h0.3V64.5z
		 M113.5,72.7l0.3-0.7l0.3,0.3c0.1-0.1,0.4-0.1,0.7,0c0.3,0,0.4,0.1,0.4,0.2C114.5,72.7,114,72.7,113.5,72.7z M113.6,18.5
		c0.3,0.4,0.4,0.8,0.4,1.2C113.7,19.3,113.5,18.9,113.6,18.5z M116.1,61.9h-0.8c0.2,0.4,0.5,0.7,0.8,0.7V61.9z"/>
	<path class="st0" d="M162.8,24c-0.4,0.1-1,0.4-1.8,0.8c0.1,0.3,0.6,0.6,1.4,0.8c-0.6,0.6-0.6,1.2,0.1,1.9c-0.4,0.4-0.7,0.8-0.7,1.3
		c0,3.5-0.4,6-1.1,7.5c-0.7,1.5-2.2,3.8-4.3,6.9c-0.4,0.1-1,0.4-1.8,0.9c-0.8,0.4-1.7,1.3-2.7,2.5c0.1,0.1,0.7,0.1,1.5-0.2
		c-0.1,0.3-0.5,0.7-1.1,1.1c-1.3,0.4-2.4,0.7-3.3,1.1l-0.6-0.4c-0.4,0.1-0.6,0.4-0.7,0.9c0.1,0.1,0.2,0.3,0.3,0.6
		c0.1,0,0.3-0.1,0.8-0.2c0.4-0.1,0.8-0.2,1.1-0.2c-1.8,1.1-3.9,2.1-6.5,3.1c-1,0.1-2.5,0.5-4.3,1c-0.2,0.5-0.3,1.1-0.1,1.8
		c-0.7,0.6-0.8,1.3-0.3,2.2l-0.9,0.4c0,0.2,0.3,0.3,0.8,0.3c0.1,0.3,0.3,0.7,0.4,1.2c0.1,0.2,0,0.5-0.3,1.1c0,0.1,0.2,0.3,0.6,0.7
		v2.3c0,0.1-0.3,0.3-1,0.7c0.1,0.1,0.3,0.1,0.6,0.1c0,0.3,0.1,1,0.4,2.2v3.3c-0.2,0.1-0.6,0.2-1.2,0.4c0.1,0.1,0.3,0.2,0.8,0.2
		c0.1,0,0.2,0.1,0.4,0.3l-1.2,1v0.8c0.4,0.2,0.8,0.6,1.2,1.2c0.2-0.1-0.2-0.1-1.3-0.1c-0.2,0-0.4,0.1-0.7,0.3v0.8l0.1,0.1h1.9
		c0,0.4-0.1,0.6-0.2,0.8c0.2,0-0.1-0.2-0.9-0.6c-0.3,0-0.5,0.1-0.7,0.3c0.7,0.4,1.2,0.6,1.3,0.6c0,0.1-0.1,0.2-0.3,0.4
		c0.7,0.7,1,1.1,1,1.3v6c-0.3,0-0.7,0.3-1.1,0.9c-0.4-0.3-0.7-0.4-0.9-0.3c0.4,1,1,1.5,1.8,1.3c0,0.5,0,1.3,0,2.3c0,1,0,1.8,0,2.3
		c0.3-0.1-0.4-0.2-2.1-0.2c0.1,0-0.2,0.1-1,0.4c-0.2-0.1-0.4-0.4-0.8-0.8c-0.2,0.1-0.2,0.2-0.2,0.3c-0.7-0.1-1.4-0.2-2.1-0.2
		c-0.1,0-0.5,0.1-1.2,0.4c-0.6,0.3-1.1,0.5-1.5,0.6c0.1-1.3,0-2.4-0.1-3.2c-0.4,0.4-1,0.8-1.8,1.4c0,0.1,0.2,0.3,0.7,0.8
		c-2.4,0.6-3.3,0.9-2.9,0.9c-0.2,0-0.5-0.1-0.8-0.3c-0.3-0.2-0.6-0.3-0.8-0.3c-0.4,0-0.8,0.2-1.2,0.6V65.2c-0.1,0.5,0.1,1,0.7,1.4
		l0.3,0.4c0.2-0.1,0.5-0.4,0.8-0.9c0,0.3,0.1,0.4,0.3,0.4c0-0.1-0.2-0.6-0.6-1.4c-0.4-1-0.4-2,0.1-2.9v-2.4
		c-0.1-0.1-0.4-0.4-0.8-0.9c0.7,0.1,1,0,1-0.2c0-0.7-0.4-1.1-1.2-1.3c0-0.4,0.2-0.8,0.7-1.2v-3.2c-0.2-0.1-0.6-0.1-1.2,0.2
		c0-2.7,0-3.7,0.1-3.1c-0.1-0.1-0.2-0.2-0.3-0.3c-0.1-1.8-0.2-4.5-0.3-8.2c0.1-0.1,0.2-0.2,0.4-0.4c0.1,0.2,0.3,0.6,0.7,1
		c0.4,0.1,0.7-0.1,0.7-0.7c0-0.1-0.1-0.4-0.2-0.9c-0.1-0.5-0.2-0.8-0.2-1c-0.4-1.2-0.6-1.7-0.6-1.7c0-0.7,0.4-1.1,1.3-1.2
		c-0.3-0.1-0.8-0.3-1.5-0.8c0.1-0.4,0.4-0.6,1.1-0.8c0.7-0.1,1-0.2,1.1-0.2c0-0.2-0.1-0.3-0.2-0.4c-0.2,0-0.4-0.1-0.7-0.2h-0.3
		c0-0.4-0.3-0.9-0.8-1.4c0.4-0.4,0.5-1,0.1-1.7h0.9c0-0.1,0-0.2,0.1-0.3c0.1-0.1,0.1-0.4,0.1-0.7c-0.7-0.2-1.4-0.3-1.9-0.3
		l-0.4-24.8c0.1-0.4,0.4-1.1,0.8-2c-0.2-0.4-0.3-0.9-0.1-1.4c0-0.1,0.1-0.2,0.2-0.4c0.1,0,0.2,0.1,0.5,0.2c0.3,0.1,0.5,0.2,0.7,0.2
		c0.1,0,0.3-0.3,0.7-1c0.4,0.3,0.6,0.4,0.8,0.4c0.1,0,0.4-0.1,0.9-0.4c0.4-0.3,0.7-0.4,0.9-0.4c5.5-0.3,8-0.4,7.4-0.4
		c0.1,0,0.4,0.1,0.7,0.3s0.5,0.3,0.6,0.3c-0.1,0,0.2-0.1,0.8-0.4C138,0,139.1,0,140.8,0c0.1,0,0.5,0.1,1,0.4c0.5,0.3,0.8,0.4,1,0.4
		c0.1,0,0.3-0.1,0.4-0.3c0.1-0.2,0.3-0.3,0.6-0.3c0.2,0,0.4,0.1,0.4,0.2c0.1,0.1,0.2,0.2,0.4,0.2c0.1,0,0.3,0,0.3-0.1
		c0.1,0,0.2,0,0.3,0c0.1,0,0.4,0.2,0.9,0.6c0.5-0.1,1.5,0.2,2.8,0.8c1.4,0.6,2.2,0.9,2.6,0.9c0.1,0,0.3,0,0.4-0.1
		c0.1,0.1,0.2,0.2,0.3,0.4c-0.2,0.7-0.3,1-0.3,0.8c0.5,0,1.2,0.1,2,0.2c0.4,0.4,0.9,0.8,1.7,1.2c0.1,0.4-0.3,0.7-1,1.1
		c0.7,0.9,1.4,1.7,2,2.3h0.4c0-0.2,0.1-0.6,0.4-1.2c0.6,0.4,1,1,1.2,1.8h-0.7c-0.1,0-0.1,0.4-0.1,1.2c-0.2-0.7-0.6-1-1.1-1
		c-0.4,0-0.8,0.1-1,0.3c0.4,0.1,0.8,0.3,1.4,0.6c0.1,0.2,0.3,0.6,0.8,1.1c0.2,0,0.6-0.3,1.1-0.8c0.2,0.4,0.7,0.9,1.3,1.7
		c0,0.2-0.1,0.4-0.4,0.7c0.2,0.6,0.6,1.3,1.1,2c-0.4,0.4-0.9,1-1.7,1.7c0,0.3,0.3,0.6,0.8,0.9c0.1,0,0.4-0.4,1-1.2
		c0.6,2.4,0.9,3.2,0.9,2.7c0,0.1-0.1,0.4-0.4,0.8c-0.3,0.4-0.4,0.7-0.5,0.8c0.3,0.2,0.6,0.2,0.8-0.1c0,0.1,0.1,0.2,0.2,0.4
		c0.1,0.2,0.2,0.4,0.2,0.6s-0.3,0.6-1,1.2v0.7C161.9,23.6,162.3,23.8,162.8,24z M123.8,63.9h-0.6v-0.3h0.6V63.9z M125,6.2
		c-0.3-0.5-0.7-1.2-1.3-2c0,1.2,0.1,2,0.2,2.4C124.2,6.3,124.6,6.2,125,6.2z M124.5,12.3c0-0.7-0.1-1.2-0.2-1.3l-0.6-0.2v1.1
		C123.9,12.1,124.2,12.3,124.5,12.3z M124.5,18.4c0-0.1-0.1-0.5-0.2-1.1c-0.4,0-0.6,0.2-0.6,0.6C123.7,18,123.9,18.2,124.5,18.4z
		 M124.9,26.2c0-0.2-0.1-0.5-0.2-0.9h-1l0.2,2.1c0.1-0.1,0.3-0.3,0.6-0.6C124.7,26.6,124.9,26.3,124.9,26.2z M125.4,69.9
		c-0.9,0.3-1.5,0.6-1.8,0.9c0,0.7,0.1,1.4,0.2,2.2c0.1-0.1,0.4-0.5,0.9-1.4C125.2,70.7,125.4,70.2,125.4,69.9z M125.9,82.6
		c-0.4,0-1-0.6-1.8-1.7c0.7-1.4,0.7-2.4-0.2-2.9l-0.2,5c0.4,0,1,0.1,1.5,0.4C125.2,82.9,125.4,82.6,125.9,82.6z M125.7,68l-0.4-0.6
		c-0.9,0.4-1.2,0.7-0.9,0.7c-0.2-0.3-0.3-0.5-0.3-0.7c-0.3,0.8-0.3,1.5-0.1,2.2h0.7C124.8,69.2,125.2,68.7,125.7,68z M124.7,15.5
		c0-0.1-0.2-0.4-0.6-0.9c0-0.2,0-0.5-0.1-0.9c-0.1,0.5-0.2,1.2-0.1,2L124.7,15.5z M125.9,86.6c-0.3-0.1-0.7-0.3-1.2-0.6
		c0.1-0.1,0.3-0.2,0.6-0.4c-0.1,0-0.2-0.1-0.4-0.3c-0.7,0.4-1,0.6-0.9,0.8C124.2,86.2,124.9,86.4,125.9,86.6z M124.7,19.6
		c-0.1,0-0.3-0.1-0.6-0.2c-0.2,0.7-0.2,1.5-0.2,2.7c0.4,0,0.6-0.1,0.6-0.2c0-0.1,0-0.4,0.1-0.8C124.6,20.5,124.7,20.1,124.7,19.6z
		 M124.7,28.4c0-0.1-0.2-0.4-0.6-0.8l-0.2,1C124.3,28.6,124.5,28.6,124.7,28.4z M125.9,75.6c-0.6-0.3-1.1-0.6-1.4-1
		c0.2-0.2,0.3-0.5,0.3-0.9h-0.9c0,0.4,0,1,0,1.8c0,0.8,0,1.5,0,1.8c0.2-0.4,0.6-0.8,1-0.9C125.3,76.3,125.7,76,125.9,75.6z
		 M126.4,43.4c0-1-0.4-1.4-1.2-1.4c-0.1,0-0.3,0.1-0.6,0.4c-0.3,0.3-0.5,0.4-0.6,0.5v1.5l0.3,0.2c0.3-0.3,0.5-0.4,0.7-0.4
		c0.1,0,0.2,0.1,0.2,0.2c0,0.1,0.1,0.2,0.2,0.2h0.8C126.4,44.3,126.4,43.9,126.4,43.4z M124.9,23.3c-0.2-0.2-0.5-0.3-0.8-0.3
		c0,0.1,0,0.4,0,1C124.6,24,124.9,23.8,124.9,23.3z M125,51.8c0.1-0.4-0.2-1-0.9-1.5v1C124.5,51.7,124.8,51.8,125,51.8z M124.1,61
		l0.6,0.6C124.3,61.6,124.1,61.4,124.1,61z M125,46.4c-0.3-0.4-0.6-0.4-0.8,0H125z M124.6,46.7c-0.2,0.2-0.3,0.5-0.1,0.8
		C124.7,47.1,124.7,46.8,124.6,46.7z M126.2,54.8h-0.7c-0.2,0.1-0.5,0.4-0.9,0.7c0.1,0,0.3,0.1,0.4,0.2
		C125.7,55.5,126.1,55.2,126.2,54.8z M126.2,37.9c-0.1-0.2-0.4-0.3-0.9-0.3v0.8C125.6,38.4,125.9,38.2,126.2,37.9z M126.2,47.1
		c0-0.4-0.1-0.7-0.2-0.9c-0.4,0.3-0.7,0.6-0.7,0.9H126.2z M126.4,83.7l-0.7-0.3l-0.1,0.3l0.7,0.3L126.4,83.7z M126.1,41.6v-0.8h-0.3
		v0.8H126.1z M127,32.1c0-0.1-0.1-0.3-0.4-0.6c-0.1,0.1-0.2,0.3-0.2,0.6H127z M127.4,53.8v-0.3h-0.8v0.3H127.4z M128.2,66.2v-1.3
		h-0.4v1.3H128.2z M129.5,6.5c-0.1-0.1-0.3-0.1-0.6-0.1c-0.2,0-0.4,0-0.4,0.1c0.1,0.4,0.4,0.6,0.8,0.6
		C129.3,6.9,129.4,6.7,129.5,6.5z M129.6,66v-0.6h-1.1V66H129.6z M130.3,76.5l-0.8-0.2v0.3l0.7,0.2L130.3,76.5z M131.3,86.9
		c0-0.1-0.1-0.4-0.2-0.7c-0.4,0.1-0.8,0.3-1.2,0.6C130,86.9,130.5,86.9,131.3,86.9z M131.5,7.3c-0.1-0.2-0.7-0.3-1.5-0.2
		c0,0.5,0.3,0.9,0.9,1.2C131.3,7.8,131.5,7.5,131.5,7.3z M131.8,38.9c0-0.1-0.1-0.3-0.2-0.6h-0.8v0.8L131.8,38.9z M131.5,73
		l-0.8-0.3V73l0.7,0.2L131.5,73z M132.1,6.9c0-0.2-0.1-0.4-0.2-0.6C131.6,6.3,131.7,6.5,132.1,6.9z M133.6,22.4
		c0.1,0,0.1-0.1,0.1-0.3c0-0.1-0.1-0.2-0.3-0.2C133.4,22.1,133.5,22.3,133.6,22.4z M135.2,53.6v-0.3h-0.8v0.3H135.2z M135.3,47.5
		c-0.1,0-0.3-0.1-0.4-0.2C134.6,47.5,134.8,47.5,135.3,47.5z M136.7,20.7v-0.3H135v0.3H136.7z M136.4,45v-0.6l-1.2-0.2L135,45H136.4
		z M136.2,53l-0.1-0.3l-0.4,0.3v0.2L136.2,53z M136.6,54.6c-0.2,0-0.2-0.2-0.2-0.7h-0.8v0.8l0.4,0.4L136.6,54.6z M136.3,86.1
		c-0.2,0.1-0.3,0.3-0.3,0.6C136.5,86.7,136.7,86.5,136.3,86.1z M136.9,18.1c-0.1-0.4-0.2-0.7-0.2-1.1c-0.1,0-0.3,0.4-0.6,1.3
		C136.5,18.4,136.8,18.3,136.9,18.1z M136.8,23.8v-0.9h-0.3v0.9H136.8z M137.2,35.3v-0.4h-0.6v0.4H137.2z M137.9,46v-0.7h-0.7
		c-0.3,0.5-0.3,0.9,0,1.1C137.4,46.4,137.6,46.3,137.9,46z M138.4,61.6V61l-1-0.2c-0.1,0.3,0,0.6,0.2,0.8H138.4z M138.4,59.9
		c0-0.4-0.1-0.6-0.3-0.6c-0.1,0-0.2,0.1-0.4,0.3C137.8,59.8,138,59.9,138.4,59.9z M139,81.7c-0.3-0.4-0.6-0.7-1-0.7l-0.2,0.8
		C138.3,82,138.8,82,139,81.7z M146.7,26.3c0-1.1-0.4-2.6-1.1-4.4c-0.2-0.4-0.6-1.1-1.1-1.9c0-0.1,0.1-0.3,0.2-0.6
		c0.1-0.3,0.2-0.5,0.2-0.7h-1.1c0.1,0-0.2-0.3-1.1-0.8c-1.2-0.6-2.2-0.9-3.1-0.9h-1.2v18.8h1.2c0.1,0,0.7-0.2,1.9-0.7
		c1.5-0.7,2.8-1.9,3.8-3.6c0.9-1.5,1.3-3.1,1.2-4.6C146.6,26.7,146.7,26.5,146.7,26.3z M140,51.8c-0.3-0.3-0.4-0.5-0.4-0.6
		c-0.7,0-1,0.2-1,0.6C139.5,51.8,140,51.8,140,51.8z M140,47c-0.1,0-0.3-0.3-0.8-0.8L139,47C139.3,47.3,139.7,47.3,140,47z
		 M140.6,9.1l-0.1-0.2L140,9.1v0.3L140.6,9.1z M150.8,36.7l-1.7-0.3v0.6L150.8,36.7z M151.1,35.6c-0.1-0.1-0.3-0.1-0.8-0.2
		c0,0.2,0.1,0.3,0.3,0.3C150.9,35.8,151,35.7,151.1,35.6z M152.2,28.5l-0.1-0.3l-0.6,0.2v0.3L152.2,28.5z M155.3,31
		c0.3-0.5,0-0.8-0.9-0.9C154.6,30.4,154.9,30.7,155.3,31z M158.7,14.1h-0.9c0,0.1,0.2,0.3,0.7,0.8C158.6,14.8,158.7,14.5,158.7,14.1
		z M161.3,28.2c-0.1-0.2-0.1-0.4-0.1-0.7h-0.9c-0.4,0.2-0.6,0.5-0.6,1.1c-0.1,0.9-0.2,1.5-0.4,2c0.3,0.1,0.4,0.3,0.2,0.6
		c-0.5,0.6-0.7,1.1-0.6,1.5c0.4-0.3,1-0.7,1.8-1.3c-0.1-1.1-0.2-1.6-0.2-1.5C160.9,29.3,161.2,28.7,161.3,28.2z M160.8,25
		c-0.2-0.4-0.5-0.6-0.8-0.6l-0.2,0.6H160.8z M161,33.2l-0.2-0.3l-0.2,0.2l0.2,0.3L161,33.2z"/>
	<path class="st0" d="M170.7,86.2c-0.1,0,0.3-0.2,1-0.6c0-0.1-0.3-0.4-0.9-1c0.6-0.4,0.9-0.9,0.9-1.3c0-0.1-0.1-0.4-0.4-0.9
		c-0.3-0.4-0.4-0.7-0.4-0.9v-3.6l0.7-0.7c-0.2,0,0.1,0.2,0.9,0.6l0.7-0.7c-0.2-0.4-0.6-0.7-1-0.7c-0.3,0-0.6,0-1,0
		c-0.1-0.1-0.2-0.2-0.2-0.3v-1.3c0.3,0,0.6-0.2,1-0.6c0,0.4-0.2,0.1-0.6-0.9c0.3-0.1,0.8,0.1,1.7,0.7c0.1,0,0.2,0,0.3-0.1
		c-0.2-1.3-0.8-1.9-1.8-2c0-1.1,0.1-1.8,0.2-2.2c-0.4-0.7-0.7-1-0.7-0.9c0-0.1,0.2-0.5,0.6-1c-0.1-0.6,0-1,0.2-1.3
		c-0.1-0.3-0.3-0.7-0.8-1.2v-1.2c0.4-0.1,0.9-0.2,1.7-0.4c-0.2-0.1-0.6-0.4-1.4-0.7c0-0.1,0-0.4,0-0.8c0-0.4,0-0.7,0-0.9
		c0.1,0,0.3,0,0.6,0.1c0.2,0.1,0.4,0.1,0.7,0.1c0.3,0,0.6-0.1,0.8-0.3V60c-0.4-0.1-0.7-0.2-0.9-0.2c-0.2,0.2-0.2,0.5,0.1,0.8
		c-0.5,0-0.9-0.1-1.2-0.2c-0.1,0.2-0.2-0.1-0.2-0.8c0-0.3,0.3-0.7,0.8-1.2c-0.1-0.1-0.4-0.3-0.8-0.6v-9.7c0.8-0.3,1.4-0.4,1.9-0.4
		c0.2-0.2,0.3-0.4,0.3-0.4c-0.2-0.1-0.6-0.1-1.1-0.1c-0.3-0.5-0.6-0.7-0.9-0.7v-4.3c0.3,0.1,0.6,0,1-0.2l-1-0.7v-3.3
		c0.1-0.1,0.7-0.1,1.8,0c0,0.1-0.1,0.2-0.2,0.3c-0.1,0.1-0.2,0.2-0.2,0.3c0.7,0.1,1.2,0,1.3-0.1v-1.2c-0.1-0.4-0.4-0.6-0.7-0.6
		c-0.2,0-0.5,0.1-0.9,0.3c-0.4,0.2-0.7,0.3-0.9,0.3c-0.3-0.7-0.4-2.1-0.4-4.1l0.2-0.2c0-4.1,0.1-6.8,0.3-8.2
		c-0.2-12.5-0.2-20.4-0.1-23.7c0.7,0.1,1.9,0,3.5-0.6c0.1-0.1,0.3-0.1,0.6-0.1c0.1,0,0.6,0,1.3,0.1c0.7,0.1,1.2,0.1,1.6,0.1
		c0,0.3,0.1,0.6,0.3,0.9c-0.1-0.4-0.1,0-0.1,1c0.1,0.1,0.2,0.1,0.4,0.1c0.3,0,0.6-0.6,1-1.9c-0.3,0.1,0.4,0.1,2.1,0.1
		c0.2,0,0.4-0.1,0.4-0.2c0.1-0.1,0.2-0.2,0.3-0.2c0.1,0,0.3,0.1,0.4,0.2c0.1,0.1,0.3,0.2,0.5,0.2c1,0,2.3-0.1,3.8-0.3
		c0.3,0.5,0.4,0.8,0.4,1c0,0.8-0.6,1.5-1.7,2.1c0.2,0.2,0.7,0.2,1.4,0.2v2c-0.2,0.1-0.5,0.2-0.8,0.3c0,0.3,0.3,0.4,0.8,0.3
		c0,0.1-0.1,0.4-0.2,0.9h-0.3c-0.2-0.1-0.4-0.1-0.7-0.1c-0.1,0.1-0.2,0.2-0.2,0.4c0.3,0.1,0.6,0.2,1,0.4c0-0.3-0.3,0.1-0.8,1.2
		c0.1,0.1,0.5,0.1,1,0.1c0,0.3-0.1,0.8-0.3,1.7c0,0.2,0.1,0.5,0.3,0.8c-0.1,0.5-0.3,1.3-0.6,2.2v6.6l0.3,0.3c0.2,0,0.4,0,0.4-0.1
		c0.1-0.1,0.1-0.1,0.2-0.1v0.8h-1.4c0,0.1,0.2,0.3,0.7,0.8c-0.4,0.1-0.8,0.3-1.2,0.6c0.4,0.5,0.6,1.2,0.7,2.1
		c0.4,0.2,0.6,0.9,0.6,2.1c0,1.5,0,2.2,0,2.3c0.1,0.1,0.2,0.2,0.3,0.5c0.1,0.3,0.2,0.5,0.2,0.6c0,0.2-0.1,0.6-0.2,1.1
		c-0.1,0.5-0.2,0.9-0.2,1.1v29.5c0-0.1-0.1-0.1-0.3,0.2v11.9c0.1,0.1,0.3,0.1,0.6,0.1c0.1,1,0,1.9-0.3,2.5c-0.1,0.2,0,0.5,0.4,0.8
		c0.1,0.3,0.1,0.8,0.1,1.7v7c0,0.1,0,0.4,0.1,0.9c0.1,0.4,0.1,0.7,0.1,0.9c0,1.1-0.2,1.8-0.6,2.1c-0.7-0.5-1.4-0.8-2.3-0.8
		c-1.1,0-2,0-2.5,0.1c0.1-0.4,0.2-0.8,0.2-1c-0.5-0.5-0.8-0.7-0.8-0.4c0.1-0.1,0.2-0.3,0.2-0.6c-0.1-0.1-0.4-0.1-0.7-0.1
		c0.3,0-0.2,0.2-1.4,0.7l0.7,0.6c-0.4,0.4-0.6,0.7-0.4,0.9c-0.3-0.1-1.1,0-2.5,0.2c-0.1,0-0.3-0.1-0.4-0.3c-0.1-0.2-0.3-0.3-0.5-0.3
		c-0.2,0-0.4,0-0.7-0.1c-0.3-0.1-0.5-0.1-0.7-0.1c-0.2,0-0.4,0.1-0.6,0.4c-1.8,0-2.8,0.1-3,0.3h-0.8c-0.1-0.4-0.3-0.9-0.6-1.7V86.2z
		 M171.7,52.5c0.2,0.5,0.5,0.8,0.9,0.8c0.4-0.7,0.7-1.1,0.7-1.2C172.3,52.4,171.8,52.5,171.7,52.5z M171.8,62.6
		c0.3,0.2,0.4,0.4,0.4,0.4h0.8c0.4,0,0.7-0.2,0.7-0.6C172.9,62.2,172.3,62.3,171.8,62.6z M171.8,66.8c0.2,0.1,0.5,0.4,0.8,0.7
		l0.7-0.7C172.8,66.5,172.3,66.5,171.8,66.8z M171.8,86.3c0.1,0.1,0.4,0.2,0.8,0.2c-0.1,0-0.2-0.2-0.2-0.6
		C172.2,86,172.1,86.1,171.8,86.3z M171.9,80.3c0.1,0.4,0.5,0.7,1.1,1c0-0.3-0.1-0.6-0.2-1H171.9z M172.1,51.4l1.1,0.2v-1h-0.8
		C171.9,51.2,171.8,51.4,172.1,51.4z M172.1,39.7c-0.1,0.1-0.2,0.2-0.1,0.4c0,0.2,0,0.3,0.1,0.3c0.4,0,0.7-0.3,0.7-0.8H172.1z
		 M172,29.8c0.1,0.5,0.4,1.2,0.9,2h0.7c0.2-0.1,0.3-0.3,0.3-0.4C173.9,30.7,173.2,30.1,172,29.8z M172,54.7c0.3,0.2,0.6,0.6,0.9,1.1
		l0.3-0.9c-0.1,0-0.2,0-0.4-0.1C172.5,54.8,172.3,54.7,172,54.7z M172,70.2c0.4,0.3,0.8,0.3,1.2,0.1C172.5,70,172.1,70,172,70.2z
		 M172,84.4l0.3,0.3l0.1-0.2l-0.2-0.2L172,84.4z M172.2,28.4h0.8c0-0.1,0.1-0.3,0.2-0.6c0.5,0,0.8-0.1,1-0.2c0-0.8,0-1.1-0.1-0.8
		c0.4-0.6,0.7-0.8,0.7-0.8c-0.3-0.1-0.7-0.2-1.2-0.4c0-0.1-0.1-0.2-0.4-0.3c-0.3-0.1-0.4-0.2-0.4-0.4l-0.2,1.4
		c0.5-0.1,0.9,0,1.2,0.2C173.3,26.9,172.8,27.5,172.2,28.4z M172.2,33.5V35c0.8,0.3,1.3,0.4,1.5,0.3c0.1-0.5-0.1-1.1-0.7-1.9H172.2z
		 M172.2,44.8v0.7c0.2,0.2,0.4,0.5,0.7,0.8l0.6-0.4v-1.2C173,44.3,172.6,44.3,172.2,44.8z M172.2,58.6c0,0.1,0.3,0.4,0.8,0.9
		c0-1.5,0-2.3,0-2.4C172.5,58.2,172.2,58.7,172.2,58.6z M172.2,82.8l0.8,0.3v-0.3l-0.7-0.2L172.2,82.8z M172.3,68.7
		c0-0.1,0.3-0.1,0.9-0.1C172.9,68.3,172.6,68.4,172.3,68.7z M172.4,9.4v1.1h1.3l-0.1-1.2C173.1,9.1,172.7,9.1,172.4,9.4z
		 M172.4,48.1c0,0.5,0.3,0.8,0.8,0.8v-0.8H172.4z M172.7,32.6c0.1,0.1,0.4,0.1,1,0.2C173.2,32.4,172.9,32.3,172.7,32.6z M173.1,19
		v0.3h0.4V19H173.1z M173.2,22.7c0,0.1,0.2,0.3,0.6,0.7c0.1-0.1,0.2-0.3,0.4-0.3L173.2,22.7z M174.1,77.4c0.4,0.1,0.8,0.2,1.1,0.2
		c0.3-0.3,0.4-0.5,0.4-0.7l-0.4-0.4h-0.9L174.1,77.4z M174.2,86.9V88h0.8c0-0.2,0.1-0.5,0.2-0.9C175.1,87,174.8,86.9,174.2,86.9z
		 M175.2,46.4v0.3h0.6v-0.3H175.2z M175.5,88.8l0.4-0.4C175.7,88.3,175.5,88.5,175.5,88.8z M175.6,33.9c0.5,0.2,0.8,0.4,0.8,0.7
		l0.1,0.9l0.4-0.2v-1.3C176.6,33.7,176.2,33.7,175.6,33.9z M175.6,48c0.3,0,0.7-0.1,1.2-0.3C176.1,47.8,175.7,47.9,175.6,48z
		 M175.6,72v0.3h0.6V72H175.6z M175.6,73.3c0.2,0.5,0.5,0.5,0.8,0H175.6z M176,56.9c0.1,0,0.3,0.1,0.6,0.3
		C176.4,57.1,176.3,57,176,56.9z M176,63.9l0.6,0.6c0.5-0.2,0.7-0.6,0.7-1l-0.3-0.1C176.5,63.6,176.2,63.8,176,63.9z M177.6,51.4
		v0.3h0.6v-0.3H177.6z M178.2,5.5v0.6h0.3V5.5H178.2z M179.4,72.4v0.3h0.6v-0.3H179.4z M179.7,17.7c-0.1,0-0.1,0.1-0.1,0.3
		c0,0.2,0.1,0.2,0.3,0.2C179.9,18,179.9,17.8,179.7,17.7z M179.6,21.7h0.8c0.3-0.3,0.4-0.6,0.4-0.8
		C180.2,20.9,179.8,21.2,179.6,21.7z M179.8,5.6c0.3,0.3,0.6,0.4,1,0.4c0-0.1,0.1-0.3,0.2-0.6C180.5,5.3,180.1,5.3,179.8,5.6z
		 M179.9,77.1l0.8,0.2v-0.2l-0.7-0.3L179.9,77.1z M180.7,53.2l0.3,0.3l0.2-0.2l-0.3-0.3L180.7,53.2z M180.8,59.5l0.1,0.2l0.4-0.2
		v-0.3L180.8,59.5z M181.4,79l0.8,0.2V79l-0.7-0.3L181.4,79z M181.7,56.8c-0.2,0.2-0.1,0.5,0.2,0.8c0.1-0.1,0.1-0.3,0.2-0.6
		C182.1,57,181.9,57,181.7,56.8z M181.9,70.9c-0.1,0-0.2,0.1-0.2,0.2c0.1,0.2,0.2,0.3,0.4,0.3C182.2,71.2,182.1,71,181.9,70.9z
		 M181.9,76.1v0.6h0.3v-0.6H181.9z M182.8,51.5l0.8,0.2v-0.3l-0.7-0.2L182.8,51.5z M183,32.3c0.9,0.7,1.7,1.2,2.3,1.5
		c-0.1,0.2-0.2,0.5-0.4,0.9c0.1,1,0.4,1.9,0.9,2.9c-0.4,0.1-0.8,0.4-1.2,0.8c0.4,0.4,0.7,0.7,0.9,0.7c0.4,0,0.7-0.3,0.9-0.8
		c0-0.4,0-0.7,0-1.1c-0.4,0-0.6-0.1-0.6-0.3l0.6-0.4c0-1,0-1.6,0-2l-0.6-0.8c0.1-0.2,0.4-0.5,0.8-0.8v-1.1c-0.6,0-1-0.3-1.2-0.8
		c0.3-0.4,0.7-0.7,1.2-0.7v-1c-0.4,0-0.7-0.2-0.9-0.7c0,0.4-0.3,1.1-0.8,2.3c0.2,0.4,0.4,0.7,0.6,1.1c0.1,0.4-0.2,0.8-0.8,1
		l-0.8-0.8H183z M183,41.3c0.3,0.3,0.4,0.5,0.4,0.7h0.7v-0.9C183.6,41.1,183.2,41.2,183,41.3z M183,60v0.6h0.8V60H183z M183,62.9
		c0,0.1,0.1,0.3,0.2,0.6c0.1,0,0.3-0.1,0.6-0.3C183.6,63,183.3,62.9,183,62.9z M183.2,74.8l0.8,0.2v-0.2l-0.7-0.2L183.2,74.8z
		 M183.6,44.2h1C184.2,43.8,183.8,43.8,183.6,44.2z M183.8,54.9c0.6-0.1,1,0.3,1.4,1c0.3,0.7,0.7,1.1,1.2,1.1c0.2-1.3,0.2-2.5,0-3.8
		h-0.7c-0.2,0.2-0.5,0.5-0.8,0.8c-0.2-0.2-0.4-0.3-0.7-0.3c0.1,0.2,0.4,0.6,0.8,1C184.7,54.7,184.3,54.8,183.8,54.9z M183.9,56.9
		v0.7h0.3v-0.7H183.9z M184.6,7c0.2,0.4,0.5,0.6,0.8,0.6l0.2-0.6H184.6z M184.6,10.8l1,0.2l0.2-0.8
		C185.3,10.3,184.9,10.5,184.6,10.8z M184.8,65.8l0.9,0.2c0.7-0.4,1.1-1,1.1-1.7c0-0.1-0.1-0.4-0.4-0.7c-0.5-0.1-0.9,0.1-1.1,0.4
		C185.3,64.7,185.2,65.3,184.8,65.8z M185,61.6c0.5,0.2,1,0.4,1.3,0.7c0-0.1,0-0.2,0.1-0.3c0.1-0.1,0.1-0.3,0.1-0.6
		c0-0.7-0.3-1.1-0.9-1.1C185.2,60.3,185,60.7,185,61.6z M185,59.4l1.3,0.2l0.2-2.1c-0.2,0-0.7,0.1-1.3,0.4
		C185.6,58.2,185.5,58.7,185,59.4z M185,79.9l0.7,0.3l0.1-0.2l-0.7-0.3L185,79.9z M185.3,49v3.2c0.3,0.3,0.6,0.4,0.9,0.4
		c0.2-0.4,0.2-0.7,0-1.1c0.3-0.4,0.4-0.9,0.4-1.3c0-0.4-0.1-1-0.4-1.9C185.8,48.3,185.5,48.5,185.3,49z M185.3,68.7
		c0,0.8,0.3,1.1,0.9,1l-0.2-1.7C185.5,68,185.3,68.2,185.3,68.7z M185.3,70.6v1.5c0.1,0.3,0.4,0.6,0.9,0.8c-0.1-0.6-0.2-1.4-0.4-2.5
		C185.6,70.6,185.5,70.6,185.3,70.6z M185.3,77.3v0.7c0,0.1,0.1,0.1,0.4,0.1c0.3,0,0.4,0.1,0.4,0.3c0-0.5-0.1-0.9-0.2-1.2
		C185.7,77.1,185.5,77.1,185.3,77.3z M185.7,44.7c0.4-0.4,0.7-0.8,0.7-1.2c0-0.1-0.2-0.5-0.6-1.2c0.5-0.6,0.8-1,0.8-1.1h-1.1
		l-0.1,3.3L185.7,44.7z M185.5,73.8v1.3h0.7v-1.3H185.5z M185.6,32.3c0.4,0,0.6,0.2,0.6,0.6L185.6,32.3z M185.6,46.3V47
		c0.1,0,0.2,0,0.4,0.1c0.2,0.1,0.3,0.1,0.4,0.1v-0.8c-0.1,0-0.2,0-0.3,0C185.8,46.4,185.7,46.3,185.6,46.3z M185.6,76.7l0.2,0.1
		l0.2-0.4l-0.2-0.2L185.6,76.7z M185.6,81.6l0.2,0.1l0.2-0.6l-0.2-0.1L185.6,81.6z M185.8,26.2c0.1,0.1,0.5,0.1,1,0.2
		C186.4,26,186,25.9,185.8,26.2z M187.4,24.4c-0.1,0-0.2-0.1-0.1-0.2c0.1-0.2,0.2-0.3,0.3-0.3C187.6,24.2,187.5,24.4,187.4,24.4z"/>
	<path class="st0" d="M233.8,89c-1.3,0.4-2.7,0.7-4.2,0.7c-2.1,0-2.9-0.4-2.5-1.2c-0.2-0.2-0.4-0.3-0.6-0.3c-0.3,0-0.4,0.4-0.4,1.3
		c-0.5,0.1-1.3,0.2-2.2,0.2c-0.2,0-0.6-0.3-1-0.8c-0.1,0-0.2,0.1-0.4,0.3c-0.2,0.2-0.4,0.3-0.6,0.3h-3c0-0.1,0-0.6-0.1-1.5
		c-0.4-0.3-0.6-0.6-0.4-1c0.1-0.4,0.1-0.7,0.1-0.8l-0.6-1c0-1.6,0-2.2,0.1-1.8c-0.1-0.1-0.2-0.2-0.4-0.3c-0.1-1.4-0.1-2.1-0.1-2
		c-0.1-0.2-0.3-0.4-0.4-0.4c-0.1,0.2-0.1-0.5-0.1-2.2c0-0.3-0.1-0.5-0.4-0.7c-0.2-0.2-0.2-0.6,0.1-1c-0.3-0.9-0.4-1.7-0.3-2.4
		c0.2-0.3,0.3-0.5,0.3-0.7c-0.3-0.1-0.8-0.3-1.4-0.6c0.1,0,0.4-0.2,1-0.6v-0.4l-0.3-0.3c-0.1,0.1-0.3,0.1-0.6,0.1
		c0,0.1,0.2-0.1,0.7-0.6c-0.1-0.1-0.4-0.4-0.7-0.8c-0.3-0.4-0.4-0.8-0.3-1.3c-0.1-0.1-0.2-0.1-0.2,0c0-0.3,0.1-0.6,0.2-0.9
		c0.4-1.5,0-2.7-1-3.5c0,0.1,0-0.1,0.1-0.6c0-0.4-0.1-0.9-0.2-1.3c-0.4-2-1.1-4.2-1.9-6.5c-0.2,0-0.4,0.1-0.7,0.3
		c0,0.4,0.1,1.2,0.2,2.3h-0.2c0,2.7,0.1,5.7,0.4,9c-0.1,0.4-0.1,1.9,0.1,4.4c0.1,1.5,0.1,2.7,0,3.5c0.1,0.1,0.1,0.4,0.2,0.8
		c-0.3,1.3-0.3,2.7,0,4.1c-0.1,2.9-0.1,5.1-0.1,6.6c0,0.1,0.1,0.5,0.2,1c0.1,0.5,0.2,0.9,0.2,1.2c-2.4-0.1-4.1-0.1-5.1,0
		c-0.1-0.5-0.4-1.4-0.8-2.5c-0.5,0-0.7,0.3-0.7,0.8c0.1,0.7,0.2,1.1,0.2,1.2c-0.4,0.2-1.3,0.3-2.8,0.3c-0.2,0-0.6-0.1-1.3-0.2
		c-0.7-0.1-1.2-0.2-1.3-0.2c-0.2,0-0.5,0-1.1,0.1c-0.6,0.1-0.9,0.1-1,0.1c-0.7,0-1.2-0.2-1.5-0.7c-0.1-3.7-0.1-6,0-6.9V64.1
		c0.1,0.4,0.3,0.8,0.7,1.4c0.3-0.4,0.4-0.8,0.4-1.2c0-0.1,0-0.5-0.1-1c-0.1-0.6-0.2-0.9-0.2-1.2c-0.1-0.2-0.2-0.3-0.3-0.3
		c-0.1,0-0.3,0.1-0.4,0.2v-1.8l0.4,0.8c0.2-0.2,0.6-0.7,1.2-1.3c0-0.3-0.3-0.6-0.9-0.9c0.1-0.1,0.4-0.3,0.9-0.7
		c-0.2-0.4-0.6-0.7-1-0.7c-0.1,0-0.3,0.2-0.7,0.6v-0.9c0.6,0.1,1-0.1,1.3-0.8v-1.2c-0.4-0.4-0.7-0.6-1-0.6c0-0.4,0.3-0.8,0.8-1
		c0-0.2-0.2-0.4-0.6-0.7c0.1-0.5,0.5-1.1,1.2-1.8v-0.6c-0.1-0.1-0.4-0.3-1-0.6c0.1-0.4,0.4-0.7,1-0.9v-1.3c-0.4-0.4-1.1-1.1-2-2
		c-0.1,0.1,0.2,0.1,0.8,0.1c0.3-0.3,0.7-0.7,1.1-1.2c0.1-0.8-0.2-1.6-0.9-2.4c0.4-0.1,1-0.2,1.8-0.3c0-0.1-0.1-0.3-0.3-0.3
		c-1-0.4-1.5-0.6-1.7-0.6c0.5-0.8,0.8-1.5,0.8-2.2c0-1.5-0.1-2.6-0.3-3.3c-0.2-0.3-0.4-0.7-0.7-1.2c0.3-0.1,0.7-0.5,1.2-1
		c-0.4-0.1-0.9-0.3-1.5-0.6c0.1-0.1,0.4-0.2,0.8-0.2c0-0.1,0.1-0.3,0.3-0.6c0-0.1-0.3-0.3-1-0.6c0.2-0.3,0.6-0.8,1-1.4
		c0-0.2,0.1-0.6,0.2-1.1c-0.4-0.4-0.6-0.6-0.7-0.6c-0.1,0.4-0.4,0.9-1.1,1.4L196,7.1l0.2-2.1c0.1-1.3,0.1-2.2,0-2.9l-0.1-0.3
		c0.4,0,0.8,0,1.1,0.1c0.3,0.1,0.5,0.1,0.6,0.1c0.2,0,0.3-0.1,0.4-0.2c0-0.1,0.2-0.2,0.4-0.2c-0.3,0,0.1,0.2,1.3,0.6
		c0.1,0.1,0.3,0.3,0.6,0.7h1.1c0.2-0.2,0.3-0.4,0.3-0.7c-0.2-0.1-0.6-0.2-1.1-0.2l0.4-0.4c0.3,0,0.9,0.1,1.7,0.4
		c0.8,0.3,1.3,0.4,1.5,0.4c0.1,0,0.4-0.1,0.8-0.3c0.4-0.2,0.6-0.3,0.7-0.3c2.1-0.3,4.3-0.4,6.5-0.4c1.8,0,4.6,0.7,8.4,2
		c0.1,0.2,0.5,0.5,1,0.9c0.4,0.1,0.8,0.3,1.3,0.6c1.2,0.9,2,1.7,2.4,2.4c0,0.1,0.1,0.2,0.4,0.2c0.3,0.1,0.5,0.4,0.6,1
		c0.1,0.1,0.4,0.3,0.9,0.6c0,0.2-0.2,0.4-0.6,0.7c0.4,0.2,1.1,0.6,2,1.1c-1,1.3-1.4,2.1-1.4,2.7c0,0.1,0,0.3,0.1,0.6
		c0.1,0.2,0.1,0.4,0.1,0.7h1.4c0-0.2-0.1-0.6-0.2-1c-0.1-0.4-0.2-0.8-0.2-1c0-0.2,0.1-0.4,0.3-0.6c0.3,0.5,0.4,0.9,0.4,1.1
		s0.1,0.4,0.4,0.6c0.1,0.1,0.2,0.4,0.3,0.7c0.1,0.3,0.2,0.5,0.2,0.6c0.1-0.1-0.3-0.1-1.3-0.1c-0.4,0-0.8,0.2-1.2,0.7
		c0.3,0.4,0.8,0.7,1.7,0.9c0.4-0.5,0.8-0.8,1.2-0.8l0.2,1.2c-0.6-0.1-1,0-1.3,0.3c0.1,0.2,0.5,0.4,1.1,0.6c-0.5,0.1-1.1,0.4-1.9,1.1
		c0.1,0.2,0.6,0.6,1.2,1c0,0.7,0.1,1.6,0.3,2.9c0.2,0.1,0.5,0.4,0.8,0.7c-0.3,0.1-0.7,0.2-1.2,0.4c0.1,0.3,0.6,0.4,1.2,0.4
		c0,0.4,0.1,0.7,0.2,0.9c-0.3,0.2-0.6,0.7-1,1.3c0.1,0.1,0.7,0.1,1.5,0.1l-0.3,1c-0.4-0.4-0.7-0.7-1-0.7c-0.1,0-0.4,0.1-0.9,0.3
		c0.4,0.6,1,1,2,1.3c0.3,0.5,0.4,1,0.4,1.5c0,0.7-0.3,1.1-1,1.1c-0.9,0-1.5,0.1-1.8,0.3c0.5,0.1,1.2,0.6,2.1,1.4h-2.1l0.6,1.3
		c0,0.4-0.3,0.9-0.8,1.7c0,0.1,0,0.2,0.1,0.3c0.4-0.1,0.6-0.4,0.8-1c0.3-0.9,0.5-1.4,0.6-1.5c0.5,0,0.8,0.2,0.8,0.7
		c0,0.1-0.1,0.3-0.3,0.6c-0.2,0.3-0.4,0.5-0.4,0.6c-0.1,0.4-0.3,1.2-0.6,2.2c-0.2,0.1-0.4,0.3-0.7,0.6c0,0.6-0.3,1.3-0.9,2.2
		c-0.1-0.1-0.4-0.4-0.7-1c-0.6,0-1.5,0.2-2.8,0.6c0.5,0.4,1,0.7,1.4,0.7c0.1,0,0.3-0.1,0.4-0.2c0.1-0.1,0.2-0.2,0.4-0.2
		c0.1,0,0.4,0.3,1.1,0.9c-0.1,0.1-0.3,0.4-0.7,1c-0.4,0.6-0.7,0.9-0.9,0.9c-0.1,0-0.3,0-0.4,0c-0.2,0-0.3,0-0.3,0
		c-0.3,0.4-0.1,0.7,0.6,1c-0.7,0.4-1.6,1.2-2.8,2.4L233.8,89z M197.6,39.4l-0.1,0.3l-0.7-0.2v-0.3L197.6,39.4z M198.3,26.6v-4.8
		c-0.3-0.3-0.4-0.7-0.4-1.2l0.1-1c-0.3,0-0.5,0.2-0.6,0.6c-0.1,0.4-0.2,1.4-0.3,3c-0.1,1.3-0.1,2.3-0.1,2.9c0.2,0.2,0.6,0.4,1,0.7
		L198.3,26.6z M197.7,27.6c0-0.1-0.1-0.3-0.2-0.6l-0.6,0.6H197.7z M197.5,17c-0.2,0.3-0.3,0.6-0.3,0.9c0,0.2,0.1,0.6,0.4,1L198,17
		H197.5z M197.5,66.3c-0.2,0.3-0.3,0.8-0.2,1.7C198,67.4,198,66.8,197.5,66.3z M197.4,14.3l-0.1,1C197.7,14.8,197.7,14.5,197.4,14.3
		z M197.6,70.8v-1.7h-0.3v1.7H197.6z M198.7,87.2l-1.1,0.2l0.2-0.4L198.7,87.2z M198.4,28l-0.2-0.1l-0.3,0.6l0.3,0.1L198.4,28z
		 M198.6,53l-0.3-0.1l-0.2,0.4l0.3,0.1L198.6,53z M200,51.5c-0.5,0-1,0.1-1.5,0.4c0,0.2,0.1,0.3,0.4,0.3
		C199.1,52.3,199.4,52,200,51.5z M199.5,2.7c-0.1,0-0.2,0-0.4,0c-0.3,0.1-0.5,0.1-0.6,0.1C198.8,3.1,199.1,3,199.5,2.7z M199.5,13.3
		h-0.8c0,0.4,0.2,0.6,0.6,0.6C199.4,13.7,199.5,13.6,199.5,13.3z M201.8,21.9c-0.2-0.1-0.6-0.2-1.2-0.3c-0.6-0.1-1-0.2-1.2-0.3
		l0.2,0.9C200.1,22.2,200.9,22.1,201.8,21.9z M200.6,24.3c-0.1-0.2-0.2-0.4-0.3-0.6c-0.1-0.2-0.3-0.3-0.8-0.3l-0.1,2.9l1.3-1.3
		C200.7,24.8,200.7,24.5,200.6,24.3z M200.5,35.3h-0.9l-0.2,0.8h1C200.7,35.8,200.7,35.6,200.5,35.3z M199.4,39.1
		c0.3-0.1,0.4-0.2,0.4-0.4c0-0.1-0.1-0.2-0.4-0.2V39.1z M199.8,32.4v-0.8h-0.3v0.8H199.8z M200.4,60.5l-0.3-0.2l-0.2,0.1l0.3,0.3
		L200.4,60.5z M204.2,47.4l-0.1-0.3l-0.3,0.2l0.2,0.3L204.2,47.4z M204.9,44.7c0-0.4-0.2-0.6-0.7-0.6
		C204.6,44.5,204.8,44.7,204.9,44.7z M205.4,75.3c0.1-0.3,0.1-0.6-0.1-0.8c-0.4,0.4-0.7,0.7-0.7,0.8H205.4z M205.9,73.2L205,73v0.6
		L205.9,73.2z M206.7,85.6c-0.5,0-0.9,0-1.1-0.1c0-0.4-0.1-0.7-0.2-0.9c-0.1,0-0.3,0.4-0.3,1.3c0.6,0.3,0.9,0.4,1,0.4
		C206.5,86.3,206.7,86.1,206.7,85.6z M207.1,2.7c-0.1-0.1-0.4-0.2-0.8-0.2v0.7C206.6,3.1,206.8,2.9,207.1,2.7z M208.7,2.2V1.9h-0.8
		v0.3H208.7z M210,21.6c-0.1-0.1-0.2-0.3-0.4-0.3l-0.3,0.4c-0.2-0.4-0.3-0.9-0.3-1.3c-0.1,0-0.3,0.1-0.6,0.2
		c0.1,0.4,0.3,0.8,0.6,1.4h0.9C209.8,21.9,209.9,21.7,210,21.6z M209.2,37h-0.9c0.1,0.4,0.4,0.6,0.9,0.8
		C209.5,37.5,209.5,37.3,209.2,37z M210.5,65.6c-0.3-0.1-0.6-0.2-1-0.3v-0.7h-0.8l-0.2,1.1c0.4,0.2,1,0.3,1.8,0.6
		C210.2,66,210.3,65.8,210.5,65.6z M209.8,33.9v-0.8c-0.2-0.1-0.6-0.3-1.2-0.3C208.8,33.4,209.2,33.8,209.8,33.9z M210,28.9
		l-0.2-1.9h-0.6v1c0,0.1,0.1,0.3,0.4,0.6c-0.2,0.2-0.6,0.3-1,0.3l0.7,0.6L210,28.9z M210,63.6c0-0.4-0.1-0.6-0.4-0.6
		c-0.4,0.2-0.7,0.4-0.9,0.7C209.1,63.8,209.5,63.8,210,63.6z M210.2,60.4l-0.2-1.4c-0.7,1-1.1,1.5-1.1,1.3l0.3,0.1
		C209.5,60.4,209.9,60.4,210.2,60.4z M210.5,72.4v-0.7c-0.4,0.1-1,0.2-1.5,0.4C209.6,72.8,210.2,72.9,210.5,72.4z M209.4,83.7
		c-0.1,0.1-0.1,0.3-0.2,0.6C209.4,83.9,209.5,83.8,209.4,83.7z M210,26.3c0-0.6-0.1-1-0.2-1.3c-0.4,0-0.6,0.3-0.6,0.9
		C209.2,26.2,209.5,26.3,210,26.3z M209.8,35.3v-0.8c-0.1,0-0.3,0.1-0.6,0.3L209.8,35.3z M210.2,30.8v-0.3h-0.8v0.3H210.2z
		 M210.1,54.1h-0.3l-0.2,0.9h0.3L210.1,54.1z M210.5,74.1c0-0.4-0.1-0.6-0.3-0.8l-0.4,0.6C209.8,74,210.1,74.1,210.5,74.1z
		 M210.6,78.8c-0.2,0-0.4,0.1-0.7,0.2c0.1,0.4,0.2,0.8,0.4,1.4C210.5,80.3,210.6,79.8,210.6,78.8z M218.1,4.2V3.3
		c-0.9-0.2-1.4-0.3-1.5-0.3c0,0.4-0.1,0.6-0.2,0.6c-0.2-1-1.4-1.5-3.6-1.5c-0.7,0-1.3,0.1-1.7,0.2c0.4,0.1,1,0.2,1.8,0.4
		C212.6,2.9,212.3,3,212,3c0.3,0.3,0.4,0.5,0.4,0.6c0.6,0,1,0,1.4-0.1c0.3-0.1,0.5-0.1,0.6-0.1c0.1,0,0.6,0.1,1.2,0.3
		c0.7,0.2,1.1,0.4,1.3,0.4c0.2,0.1,0.3,0.1,0.3,0.2c-0.6,0.3-0.8,0.6-0.8,0.8c0.1,0.1,0.4,0.2,0.7,0.2C217.8,5,218.1,4.6,218.1,4.2z
		 M220.2,24.1c-0.1-0.1-0.3-0.1-0.8-0.1c-0.4,0-0.8-0.3-1-0.9c0.1-0.1,0.2-0.2,0.2-0.4c0.1,0.1-0.2,0.1-1.1,0.1c-0.3,0-0.3,0,0-0.1
		c0.1-0.3,0-0.6-0.3-0.9c-0.4-0.3-0.6-0.6-0.7-0.8l0.7-0.1c0.2,0.1,0.5,0.5,0.8,1l0.7-0.7c-0.6-0.4-1.3-1-2.2-1.7
		c0.2-0.4,0-0.8-0.6-1.2c-0.6-0.4-1.1-0.7-1.4-0.8c-0.7,0.1-1.8,0.1-3.4,0c0.3,0.5,0.4,1.1,0.3,1.8l-0.2,1.2l0.2,1.2
		c-0.2,1.5-0.3,2.2-0.3,2.1c0.3,4.3,0.4,7,0.4,8c0,0.5-0.1,1.5-0.2,3c-0.1,1-0.1,1.8,0,2.3c0.1,0.4,0.6,0.7,1.2,0.7
		c0.3,0,1.1-0.4,2.5-1.2c0.9-0.5,1.4-1.3,1.7-2.4c0.4,0.2,0.8,0.2,1-0.1v-0.9c-0.4,0-0.8-0.2-1-0.6c0.2-0.3,0.5-0.4,0.9-0.4
		c0.2,0,0.4,0,0.7,0c0-0.3-0.1-0.7-0.3-1.2c0.1-0.2,0.7-0.4,1.8-0.7c-0.2-0.2-0.6-0.7-1.2-1.3c0.1-0.1,0.3-0.1,0.8-0.1V27
		c-0.4-0.1-0.8-0.4-1.3-0.8c-0.1,0.1,0.3,0.1,1.1,0.1c0-0.1,0-0.3,0.1-0.6c0.1-0.3,0.1-0.4,0.1-0.5c-0.4-0.4-0.6-0.5-0.6-0.4
		C219.4,24.5,219.9,24.2,220.2,24.1z M212,55.3c-0.1-0.3-0.3-0.7-0.6-1.2c-0.3,0.1-0.4,0.2-0.4,0.4c0,0.1,0.1,0.4,0.2,0.8H212z
		 M212.2,16.3v-0.3h-0.6v0.3H212.2z M214.1,44.2l-1.1-0.3l-0.2,0.6C213.2,44.3,213.6,44.2,214.1,44.2z M214.8,9.5l-0.2-0.3l-0.3,0.1
		l0.2,0.3L214.8,9.5z M215.3,62.5h-0.8v0.7C215.1,62.9,215.3,62.7,215.3,62.5z M215.5,64.7l-0.2-0.1l-0.2,0.4l0.2,0.1L215.5,64.7z
		 M216.1,66.9c-0.1,0.1-0.3,0.3-0.4,0.4c0.1,0.1,0.2,0.3,0.3,0.6C216.1,67.8,216.1,67.5,216.1,66.9z M217.3,71.5l-0.3-1.3
		c-0.4,0.2-0.7,0.6-0.7,1c0,0.1,0.1,0.3,0.4,0.6C216.9,71.7,217.1,71.7,217.3,71.5z M218.6,68.1c-0.1,0-0.2,0-0.3,0
		c-0.2,0.1-0.3,0.1-0.4,0.1c0.1,0-0.1-0.3-0.7-0.8c-0.1,0.4-0.1,0.8-0.1,1.3h1.3C218.6,68.6,218.6,68.4,218.6,68.1z M219.4,74.4
		v-0.9c-0.1,0-0.3,0.1-0.6,0.2c-0.3,0.1-0.5,0.2-0.6,0.2l-0.4-0.3h-0.7c0,0.4,0.1,0.8,0.2,1C217.4,74.4,218.1,74.4,219.4,74.4z
		 M218.6,77.2c0-0.1-0.1-0.3-0.2-0.4c-0.4,0-0.6,0.1-0.8,0.2c-0.2,0.1-0.2,0.2-0.2,0.2L218.6,77.2z M218.3,28.3l-0.7,0.2v-0.2
		l0.6-0.3L218.3,28.3z M219.1,70.3l-0.6-0.6c-0.5,0.3-0.8,0.7-0.8,1.2C218.1,70.9,218.5,70.7,219.1,70.3z M219.4,20.8v-0.3l-1.3-0.2
		v0.3L219.4,20.8z M219.4,76c-0.5,0-0.8,0.1-1,0.2C218.8,76.2,219.1,76.1,219.4,76z M220.4,75c-0.4-0.3-0.7-0.4-1-0.4
		c0,0.3,0.1,0.6,0.3,0.8C219.9,75.1,220.1,75,220.4,75z M219.9,27.6c0.1,0,0.2-0.1,0.2-0.2c0-0.2-0.1-0.3-0.4-0.3
		C219.6,27.4,219.7,27.6,219.9,27.6z M220.4,28.7v-0.3h-0.8v0.3H220.4z M224.7,52c-0.8-1.1-1.3-1.7-1.6-1.7c-0.2,0-0.5,0.2-0.8,0.6
		c0.4,0.1,0.6,0.4,0.6,0.7c-0.3,0.1-0.7,0.2-1.2,0.4c-0.1-0.1,0.4-0.1,1.3-0.1c0.1,0,0.3,0.1,0.4,0.3s0.3,0.3,0.4,0.3
		C224.1,52.4,224.4,52.3,224.7,52z M222.5,56.1c-0.2-0.3-0.4-0.3-0.8,0H222.5z M224.8,81.3c0-0.1-0.1-0.3-0.2-0.6
		c-0.2,0.1-0.4,0.2-0.7,0.2c-0.1,0-0.2-0.1-0.4-0.3c0.1-0.1,0.2-0.2,0.2-0.4c-0.8,0.3-1.2,0.6-1.2,1c0,0.4,0.1,0.6,0.3,0.6
		C223.4,81.6,224,81.5,224.8,81.3z M223.3,45.9v-0.3h-0.7v0.3H223.3z M223.8,49.6c-0.1-0.4-0.2-1.1-0.3-2h-0.8
		c0.1,0.4,0.2,1.1,0.4,2H223.8z M225.8,58.5c0-0.8-0.1-1.4-0.2-1.9c-0.4,0.1-0.8,0.3-0.9,0.6c-0.2,0.3-0.4,0.5-0.7,0.5
		c-0.1,0-0.4,0-0.7-0.1c-0.2,0-0.4,0-0.6,0c0.1,0.3,0.5,0.5,1.1,0.5c0.6,0,0.9,0.1,0.9,0.1c0.6,0.5,0.8,0.8,0.7,0.8L225.8,58.5z
		 M223.7,5.5c-0.1,0-0.2,0-0.4,0.1c-0.2,0.1-0.3,0.1-0.4,0.1c0.1,0.1,0.2,0.2,0.4,0.3C223.5,5.9,223.7,5.7,223.7,5.5z M223.6,34.6
		h-0.2c-0.4,0.3-0.5,0.6-0.2,0.9C223.5,35.3,223.6,35,223.6,34.6z M223.7,64.3c0-0.4-0.1-0.6-0.3-0.6c-0.1,0-0.1,0.1,0,0.2
		C223.5,64.2,223.6,64.3,223.7,64.3z M223.9,63l-0.3-0.3l-0.1,0.2l0.2,0.3L223.9,63z M223.8,77.9c-0.1,0-0.2,0.1-0.2,0.3
		c-0.1,0.2-0.1,0.4,0,0.4C224.1,78.2,224.2,77.9,223.8,77.9z M224.5,36.4l-0.8-0.2C223.8,36.3,224.1,36.4,224.5,36.4z M224.5,79.7
		c0-0.5,0-0.8-0.1-0.8l-0.7,0.8H224.5z M224.5,7.8l-0.1-0.3l-0.4,0.2v0.3L224.5,7.8z M225.3,44.4h-1.1l-0.2,0.3h1.1L225.3,44.4z
		 M225.3,55.7v-1.1c0-0.4-0.2-0.8-0.7-1.2h-0.7c0,1.2,0.1,2,0.2,2.3H225.3z M225.3,62.6c-0.1-0.3-0.4-0.6-0.7-0.9h-0.7
		C224.2,61.9,224.7,62.2,225.3,62.6z M224.8,66.3c-0.1,0-0.2-0.1-0.4-0.2c-0.3,0.3-0.4,0.6-0.4,0.8
		C224.2,66.9,224.5,66.7,224.8,66.3z M224.7,63.2l-0.1-0.3l-0.4,0.2v0.3L224.7,63.2z M224.9,64.1l-0.1-0.2l-0.6,0.2v0.3L224.9,64.1z
		 M226.2,41.8c-0.4,0.1-1,0.2-1.7,0.4h1l0.1,0.3C226,42.6,226.2,42.3,226.2,41.8z M226,35.9c-0.3-0.1-0.7-0.1-1.2,0.1
		c0.2,0.3,0.5,0.4,0.8,0.4L226,35.9z M226.6,85.5c-0.7-0.7-1-1-1.1-1c0.1,0.2,0,0.5-0.3,0.8c-0.3,0.3-0.4,0.5-0.4,0.7
		c0,0.3,0.1,0.5,0.3,0.7h0.7C226.3,86,226.6,85.6,226.6,85.5z M225.6,41.6c0.1-0.2,0.1-0.5-0.2-0.8c-0.1,0.1-0.3,0.2-0.3,0.4
		C225.2,41.4,225.4,41.5,225.6,41.6z M226.2,60c0-0.4-0.1-0.7-0.3-1c-0.5,0-0.8,0.3-0.8,0.8L226.2,60z M227.8,11.7
		c-0.1-0.1-0.4-0.4-0.7-0.9c-0.3-0.4-0.6-0.7-0.8-0.7h-0.8c0.6,0.4,1,1,1.2,1.5H227.8z M226.5,39.4l-0.8-0.2v0.3l0.7,0.2L226.5,39.4
		z M226.9,63.6c0.2-0.8,0-1.8-0.8-2.9l-0.4,0.2c0.3,0.7,0.4,1.1,0.4,1c-0.3,0.8-0.3,1.4,0.1,1.7H226.9z M226.8,87.6
		c-0.1,0-0.3,0.1-0.6,0.3c0-0.1,0-0.2-0.1-0.4c-0.1-0.2-0.1-0.4-0.1-0.4c0.1,0,0.3-0.1,0.6-0.2C226.7,87,226.8,87.3,226.8,87.6z
		 M226.9,38.8c0.1-0.1,0.1-0.2,0.1-0.4c0-0.2,0-0.3-0.1-0.3l-0.4,0.4C226.6,38.6,226.7,38.7,226.9,38.8z M227.8,65.2
		c-0.3-0.2-0.4-0.5-0.4-0.9h-0.7c0,0.1,0.1,0.2,0.2,0.4c0.1,0.2,0.2,0.4,0.2,0.4C227.3,65.4,227.5,65.4,227.8,65.2z M227.9,35.5
		c-0.9,0.3-1.2,1-1,2C227.2,37,227.5,36.4,227.9,35.5z M228.4,34.2l-0.1-0.3l-0.4,0.2v0.3L228.4,34.2z M228.7,37.5v-0.3h-0.9v0.3
		H228.7z M228.6,75.8c0-0.1-0.1-0.3-0.2-0.6c-0.1,0-0.3,0.1-0.6,0.2C228,75.7,228.2,75.8,228.6,75.8z M229.4,29.7l-0.8-0.3l-0.2,0.6
		L229.4,29.7z M228.6,72.7c0.5-0.3,0.5-0.6,0-0.8V72.7z M228.9,77.9c-0.2,0-0.3,0.2-0.3,0.6c0.1,0,0.2-0.1,0.3-0.2
		C229,78.1,229,77.9,228.9,77.9z M228.9,71.7c0-0.3-0.1-0.5-0.2-0.6c-0.1,0-0.1,0.1,0,0.2C228.8,71.6,228.9,71.7,228.9,71.7z
		 M229.3,33.7c-0.1,0.1-0.3,0.2-0.4,0.2c0,0.2,0.1,0.3,0.2,0.6C229.4,34.2,229.5,33.9,229.3,33.7z M230.4,28.7
		c-0.1-0.1-0.5-0.1-1-0.2C229.8,28.9,230.1,29,230.4,28.7z M230.4,76c0-0.3-0.3-0.4-0.8-0.4c0,0.2,0.1,0.4,0.2,0.7
		C229.9,76.2,230.1,76.1,230.4,76z M231.5,19.9c-0.2,0.5-0.5,1-0.9,1.3l0.2-1.3H231.5z M231.1,29.4c0-0.2-0.1-0.4-0.2-0.6
		c-0.1,0-0.2,0.1-0.1,0.3C230.9,29.3,231,29.4,231.1,29.4z M232.5,24.2l-0.1,0.2l-0.9-0.4l0.1-0.2L232.5,24.2z"/>
	<path class="st0" d="M242.4,86.2c-0.1,0,0.3-0.2,1-0.6c0-0.1-0.3-0.4-0.9-1c0.6-0.4,0.9-0.9,0.9-1.3c0-0.1-0.1-0.4-0.4-0.9
		c-0.3-0.4-0.4-0.7-0.4-0.9v-3.6l0.7-0.7c-0.2,0,0.1,0.2,0.9,0.6l0.7-0.7c-0.2-0.4-0.6-0.7-1-0.7c-0.3,0-0.6,0-1,0
		c-0.1-0.1-0.2-0.2-0.2-0.3v-1.3c0.3,0,0.6-0.2,1-0.6c0,0.4-0.2,0.1-0.6-0.9c0.3-0.1,0.8,0.1,1.7,0.7c0.1,0,0.2,0,0.3-0.1
		c-0.2-1.3-0.8-1.9-1.8-2c0-1.1,0.1-1.8,0.2-2.2c-0.4-0.7-0.7-1-0.7-0.9c0-0.1,0.2-0.5,0.6-1c-0.1-0.6,0-1,0.2-1.3
		c-0.1-0.3-0.3-0.7-0.8-1.2v-1.2c0.4-0.1,0.9-0.2,1.7-0.4c-0.2-0.1-0.6-0.4-1.4-0.7c0-0.1,0-0.4,0-0.8c0-0.4,0-0.7,0-0.9
		c0.1,0,0.3,0,0.6,0.1c0.2,0.1,0.4,0.1,0.7,0.1c0.3,0,0.6-0.1,0.8-0.3V60c-0.4-0.1-0.7-0.2-0.9-0.2c-0.2,0.2-0.2,0.5,0.1,0.8
		c-0.5,0-0.9-0.1-1.2-0.2c-0.1,0.2-0.2-0.1-0.2-0.8c0-0.3,0.3-0.7,0.8-1.2c-0.1-0.1-0.4-0.3-0.8-0.6v-9.7c0.8-0.3,1.4-0.4,1.9-0.4
		c0.2-0.2,0.3-0.4,0.3-0.4c-0.2-0.1-0.6-0.1-1.1-0.1c-0.3-0.5-0.6-0.7-0.9-0.7v-4.3c0.3,0.1,0.6,0,1-0.2l-1-0.7v-3.3
		c0.1-0.1,0.7-0.1,1.8,0c0,0.1-0.1,0.2-0.2,0.3c-0.1,0.1-0.2,0.2-0.2,0.3c0.7,0.1,1.2,0,1.3-0.1v-1.2c-0.1-0.4-0.4-0.6-0.7-0.6
		c-0.2,0-0.5,0.1-0.9,0.3c-0.4,0.2-0.7,0.3-0.9,0.3c-0.3-0.7-0.4-2.1-0.4-4.1l0.2-0.2c0-4.1,0.1-6.8,0.3-8.2
		c-0.2-12.5-0.2-20.4-0.1-23.7c0.7,0.1,1.9,0,3.5-0.6c0.1-0.1,0.3-0.1,0.6-0.1c0.1,0,0.6,0,1.3,0.1c0.7,0.1,1.2,0.1,1.6,0.1
		c0,0.3,0.1,0.6,0.3,0.9c-0.1-0.4-0.1,0-0.1,1c0.1,0.1,0.2,0.1,0.4,0.1c0.3,0,0.6-0.6,1-1.9c-0.3,0.1,0.4,0.1,2.1,0.1
		c0.2,0,0.4-0.1,0.4-0.2c0.1-0.1,0.2-0.2,0.3-0.2c0.1,0,0.3,0.1,0.4,0.2c0.1,0.1,0.3,0.2,0.5,0.2c1,0,2.3-0.1,3.8-0.3
		c0.3,0.5,0.4,0.8,0.4,1c0,0.8-0.6,1.5-1.7,2.1c0.2,0.2,0.7,0.2,1.4,0.2v2c-0.2,0.1-0.5,0.2-0.8,0.3c0,0.3,0.3,0.4,0.8,0.3
		c0,0.1-0.1,0.4-0.2,0.9H259c-0.2-0.1-0.4-0.1-0.7-0.1c-0.1,0.1-0.2,0.2-0.2,0.4c0.3,0.1,0.6,0.2,1,0.4c0-0.3-0.3,0.1-0.8,1.2
		c0.1,0.1,0.5,0.1,1,0.1c0,0.3-0.1,0.8-0.3,1.7c0,0.2,0.1,0.5,0.3,0.8c-0.1,0.5-0.3,1.3-0.6,2.2v6.6l0.3,0.3c0.2,0,0.4,0,0.4-0.1
		c0.1-0.1,0.1-0.1,0.2-0.1v0.8h-1.4c0,0.1,0.2,0.3,0.7,0.8c-0.4,0.1-0.8,0.3-1.2,0.6c0.4,0.5,0.6,1.2,0.7,2.1
		c0.4,0.2,0.6,0.9,0.6,2.1c0,1.5,0,2.2,0,2.3c0.1,0.1,0.2,0.2,0.3,0.5c0.1,0.3,0.2,0.5,0.2,0.6c0,0.2-0.1,0.6-0.2,1.1
		c-0.1,0.5-0.2,0.9-0.2,1.1v29.5c0-0.1-0.1-0.1-0.3,0.2v11.9c0.1,0.1,0.3,0.1,0.6,0.1c0.1,1,0,1.9-0.3,2.5c-0.1,0.2,0,0.5,0.4,0.8
		c0.1,0.3,0.1,0.8,0.1,1.7v7c0,0.1,0,0.4,0.1,0.9c0.1,0.4,0.1,0.7,0.1,0.9c0,1.1-0.2,1.8-0.6,2.1c-0.7-0.5-1.4-0.8-2.3-0.8
		c-1.1,0-2,0-2.5,0.1c0.1-0.4,0.2-0.8,0.2-1c-0.5-0.5-0.8-0.7-0.8-0.4c0.1-0.1,0.2-0.3,0.2-0.6c-0.1-0.1-0.4-0.1-0.7-0.1
		c0.3,0-0.2,0.2-1.4,0.7l0.7,0.6c-0.4,0.4-0.6,0.7-0.4,0.9c-0.3-0.1-1.1,0-2.5,0.2c-0.1,0-0.3-0.1-0.4-0.3c-0.1-0.2-0.3-0.3-0.5-0.3
		s-0.4,0-0.7-0.1c-0.3-0.1-0.5-0.1-0.7-0.1c-0.2,0-0.4,0.1-0.6,0.4c-1.8,0-2.8,0.1-3,0.3H243c-0.1-0.4-0.3-0.9-0.6-1.7V86.2z
		 M243.4,52.5c0.2,0.5,0.5,0.8,0.9,0.8c0.4-0.7,0.7-1.1,0.7-1.2C244.1,52.4,243.6,52.5,243.4,52.5z M243.5,62.6
		c0.3,0.2,0.4,0.4,0.4,0.4h0.8c0.4,0,0.7-0.2,0.7-0.6C244.7,62.2,244,62.3,243.5,62.6z M243.5,66.8c0.2,0.1,0.5,0.4,0.8,0.7l0.7-0.7
		C244.5,66.5,244,66.5,243.5,66.8z M243.5,86.3c0.1,0.1,0.4,0.2,0.8,0.2c-0.1,0-0.2-0.2-0.2-0.6C244,86,243.8,86.1,243.5,86.3z
		 M243.6,80.3c0.1,0.4,0.5,0.7,1.1,1c0-0.3-0.1-0.6-0.2-1H243.6z M243.8,51.4l1.1,0.2v-1h-0.8C243.7,51.2,243.6,51.4,243.8,51.4z
		 M243.8,39.7c-0.1,0.1-0.2,0.2-0.1,0.4c0,0.2,0,0.3,0.1,0.3c0.4,0,0.7-0.3,0.7-0.8H243.8z M243.7,29.8c0.1,0.5,0.4,1.2,0.9,2h0.7
		c0.2-0.1,0.3-0.3,0.3-0.4C245.6,30.7,245,30.1,243.7,29.8z M243.7,54.7c0.3,0.2,0.6,0.6,0.9,1.1l0.3-0.9c-0.1,0-0.2,0-0.4-0.1
		C244.3,54.8,244,54.7,243.7,54.7z M243.7,70.2c0.4,0.3,0.8,0.3,1.2,0.1C244.3,70,243.9,70,243.7,70.2z M243.7,84.4l0.3,0.3l0.1-0.2
		l-0.2-0.2L243.7,84.4z M244,28.4h0.8c0-0.1,0.1-0.3,0.2-0.6c0.5,0,0.8-0.1,1-0.2c0-0.8,0-1.1-0.1-0.8c0.4-0.6,0.7-0.8,0.7-0.8
		c-0.3-0.1-0.7-0.2-1.2-0.4c0-0.1-0.1-0.2-0.4-0.3c-0.3-0.1-0.4-0.2-0.4-0.4l-0.2,1.4c0.5-0.1,0.9,0,1.2,0.2
		C245,26.9,244.5,27.5,244,28.4z M244,33.5V35c0.8,0.3,1.3,0.4,1.5,0.3c0.1-0.5-0.1-1.1-0.7-1.9H244z M244,44.8v0.7
		c0.2,0.2,0.4,0.5,0.7,0.8l0.6-0.4v-1.2C244.7,44.3,244.3,44.3,244,44.8z M244,58.6c0,0.1,0.3,0.4,0.8,0.9c0-1.5,0-2.3,0-2.4
		C244.2,58.2,244,58.7,244,58.6z M244,82.8l0.8,0.3v-0.3l-0.7-0.2L244,82.8z M244.1,68.7c0-0.1,0.3-0.1,0.9-0.1
		C244.7,68.3,244.4,68.4,244.1,68.7z M244.2,9.4v1.1h1.3l-0.1-1.2C244.8,9.1,244.4,9.1,244.2,9.4z M244.2,48.1
		c0,0.5,0.3,0.8,0.8,0.8v-0.8H244.2z M244.4,32.6c0.1,0.1,0.4,0.1,1,0.2C245,32.4,244.6,32.3,244.4,32.6z M244.8,19v0.3h0.4V19
		H244.8z M245,22.7c0,0.1,0.2,0.3,0.6,0.7c0.1-0.1,0.2-0.3,0.4-0.3L245,22.7z M245.8,77.4c0.4,0.1,0.8,0.2,1.1,0.2
		c0.3-0.3,0.4-0.5,0.4-0.7l-0.4-0.4h-0.9L245.8,77.4z M245.9,86.9V88h0.8c0-0.2,0.1-0.5,0.2-0.9C246.9,87,246.5,86.9,245.9,86.9z
		 M246.9,46.4v0.3h0.6v-0.3H246.9z M247.3,88.8l0.4-0.4C247.4,88.3,247.3,88.5,247.3,88.8z M247.4,33.9c0.5,0.2,0.8,0.4,0.8,0.7
		l0.1,0.9l0.4-0.2v-1.3C248.3,33.7,247.9,33.7,247.4,33.9z M247.4,48c0.3,0,0.7-0.1,1.2-0.3C247.9,47.8,247.5,47.9,247.4,48z
		 M247.4,72v0.3h0.6V72H247.4z M247.4,73.3c0.2,0.5,0.5,0.5,0.8,0H247.4z M247.7,56.9c0.1,0,0.3,0.1,0.6,0.3
		C248.2,57.1,248,57,247.7,56.9z M247.7,63.9l0.6,0.6c0.5-0.2,0.7-0.6,0.7-1l-0.3-0.1C248.2,63.6,247.9,63.8,247.7,63.9z
		 M249.4,51.4v0.3h0.6v-0.3H249.4z M249.9,5.5v0.6h0.3V5.5H249.9z M251.1,72.4v0.3h0.6v-0.3H251.1z M251.5,17.7
		c-0.1,0-0.1,0.1-0.1,0.3c0,0.2,0.1,0.2,0.3,0.2C251.7,18,251.6,17.8,251.5,17.7z M251.4,21.7h0.8c0.3-0.3,0.4-0.6,0.4-0.8
		C252,20.9,251.6,21.2,251.4,21.7z M251.6,5.6c0.3,0.3,0.6,0.4,1,0.4c0-0.1,0.1-0.3,0.2-0.6C252.2,5.3,251.8,5.3,251.6,5.6z
		 M251.7,77.1l0.8,0.2v-0.2l-0.7-0.3L251.7,77.1z M252.5,53.2l0.3,0.3l0.2-0.2l-0.3-0.3L252.5,53.2z M252.6,59.5l0.1,0.2l0.4-0.2
		v-0.3L252.6,59.5z M253.1,79l0.8,0.2V79l-0.7-0.3L253.1,79z M253.5,56.8c-0.2,0.2-0.1,0.5,0.2,0.8c0.1-0.1,0.1-0.3,0.2-0.6
		C253.8,57,253.7,57,253.5,56.8z M253.7,70.9c-0.1,0-0.2,0.1-0.2,0.2c0.1,0.2,0.2,0.3,0.4,0.3C253.9,71.2,253.8,71,253.7,70.9z
		 M253.7,76.1v0.6h0.3v-0.6H253.7z M254.6,51.5l0.8,0.2v-0.3l-0.7-0.2L254.6,51.5z M254.8,32.3c0.9,0.7,1.7,1.2,2.3,1.5
		c-0.1,0.2-0.2,0.5-0.4,0.9c0.1,1,0.4,1.9,0.9,2.9c-0.4,0.1-0.8,0.4-1.2,0.8c0.4,0.4,0.7,0.7,0.9,0.7c0.4,0,0.7-0.3,0.9-0.8
		c0-0.4,0-0.7,0-1.1c-0.4,0-0.6-0.1-0.6-0.3l0.6-0.4c0-1,0-1.6,0-2l-0.6-0.8c0.1-0.2,0.4-0.5,0.8-0.8v-1.1c-0.6,0-1-0.3-1.2-0.8
		c0.3-0.4,0.7-0.7,1.2-0.7v-1c-0.4,0-0.7-0.2-0.9-0.7c0,0.4-0.3,1.1-0.8,2.3c0.2,0.4,0.4,0.7,0.6,1.1c0.1,0.4-0.2,0.8-0.8,1
		l-0.8-0.8H254.8z M254.8,41.3c0.3,0.3,0.4,0.5,0.4,0.7h0.7v-0.9C255.3,41.1,254.9,41.2,254.8,41.3z M254.8,60v0.6h0.8V60H254.8z
		 M254.8,62.9c0,0.1,0.1,0.3,0.2,0.6c0.1,0,0.3-0.1,0.6-0.3C255.3,63,255.1,62.9,254.8,62.9z M254.9,74.8l0.8,0.2v-0.2l-0.7-0.2
		L254.9,74.8z M255.3,44.2h1C255.9,43.8,255.6,43.8,255.3,44.2z M255.6,54.9c0.6-0.1,1,0.3,1.4,1c0.3,0.7,0.7,1.1,1.2,1.1
		c0.2-1.3,0.2-2.5,0-3.8h-0.7c-0.2,0.2-0.5,0.5-0.8,0.8c-0.2-0.2-0.4-0.3-0.7-0.3c0.1,0.2,0.4,0.6,0.8,1
		C256.5,54.7,256.1,54.8,255.6,54.9z M255.7,56.9v0.7h0.3v-0.7H255.7z M256.3,7c0.2,0.4,0.5,0.6,0.8,0.6l0.2-0.6H256.3z M256.3,10.8
		l1,0.2l0.2-0.8C257,10.3,256.6,10.5,256.3,10.8z M256.6,65.8l0.9,0.2c0.7-0.4,1.1-1,1.1-1.7c0-0.1-0.1-0.4-0.4-0.7
		c-0.5-0.1-0.9,0.1-1.1,0.4C257.1,64.7,256.9,65.3,256.6,65.8z M256.8,61.6c0.5,0.2,1,0.4,1.3,0.7c0-0.1,0-0.2,0.1-0.3
		c0.1-0.1,0.1-0.3,0.1-0.6c0-0.7-0.3-1.1-0.9-1.1C256.9,60.3,256.7,60.7,256.8,61.6z M256.8,59.4l1.3,0.2l0.2-2.1
		c-0.2,0-0.7,0.1-1.3,0.4C257.4,58.2,257.3,58.7,256.8,59.4z M256.8,79.9l0.7,0.3l0.1-0.2l-0.7-0.3L256.8,79.9z M257,49v3.2
		c0.3,0.3,0.6,0.4,0.9,0.4c0.2-0.4,0.2-0.7,0-1.1c0.3-0.4,0.4-0.9,0.4-1.3c0-0.4-0.1-1-0.4-1.9C257.5,48.3,257.2,48.5,257,49z
		 M257,68.7c0,0.8,0.3,1.1,0.9,1l-0.2-1.7C257.2,68,257,68.2,257,68.7z M257,70.6v1.5c0.1,0.3,0.4,0.6,0.9,0.8
		c-0.1-0.6-0.2-1.4-0.4-2.5C257.4,70.6,257.2,70.6,257,70.6z M257,77.3v0.7c0,0.1,0.1,0.1,0.4,0.1c0.3,0,0.4,0.1,0.4,0.3
		c0-0.5-0.1-0.9-0.2-1.2C257.4,77.1,257.2,77.1,257,77.3z M257.4,44.7c0.4-0.4,0.7-0.8,0.7-1.2c0-0.1-0.2-0.5-0.6-1.2
		c0.5-0.6,0.8-1,0.8-1.1h-1.1l-0.1,3.3L257.4,44.7z M257.2,73.8v1.3h0.7v-1.3H257.2z M257.3,32.3c0.4,0,0.6,0.2,0.6,0.6L257.3,32.3z
		 M257.3,46.3V47c0.1,0,0.2,0,0.4,0.1c0.2,0.1,0.3,0.1,0.4,0.1v-0.8c-0.1,0-0.2,0-0.3,0C257.6,46.4,257.4,46.3,257.3,46.3z
		 M257.3,76.7l0.2,0.1l0.2-0.4l-0.2-0.2L257.3,76.7z M257.3,81.6l0.2,0.1l0.2-0.6l-0.2-0.1L257.3,81.6z M257.6,26.2
		c0.1,0.1,0.5,0.1,1,0.2C258.1,26,257.8,25.9,257.6,26.2z M259.1,24.4c-0.1,0-0.2-0.1-0.1-0.2c0.1-0.2,0.2-0.3,0.3-0.3
		C259.3,24.2,259.3,24.4,259.1,24.4z"/>
	<path class="st0" d="M266.4,9.4c0.4,0.1,0.8,0,1.3-0.2c0.5-0.2,0.7-0.5,0.6-0.9c0.1,0.1-0.6,0.1-1.9,0.1C266.1,7.5,266,7,266,6.7
		V2.1c2.9,0,4.8,0,5.9,0c0.1,0,0.7,0.1,1.7,0.4c1,0.3,1.5,0.4,1.7,0.4c0.1,0,0.3-0.1,0.4-0.3c0.1-0.2,0.3-0.3,0.4-0.3
		c0.1,0,0.4,0.1,0.8,0.3c0.4,0.2,0.6,0.3,0.8,0.3c0.1,0,0.4-0.1,0.7-0.3c0.3-0.2,0.5-0.3,0.7-0.3c0.1,0,0.3,0.1,0.4,0.3
		c0.1,0.2,0.2,0.3,0.4,0.3c0.1,0,0.4-0.1,0.7-0.4c0.2,0.4,0.4,0.6,0.7,0.6c0.1,0,0.6-0.1,1.4-0.2c0.4-0.4,0.6-0.6,0.6-0.6
		c0.2,0,0.6,0.1,1,0.3c0.5,0.2,0.8,0.3,0.9,0.3c0.1,0,0.4-0.1,0.9-0.2c0.4-0.1,0.7-0.2,0.9-0.2c0.1,0,0.5,0.1,0.9,0.2
		c0.5,0.1,0.8,0.2,0.9,0.2c0.2,0,0.5-0.1,0.7-0.4c0.3-0.3,0.5-0.4,0.6-0.4c0.1,0,0.7,0.1,1.5,0.2c0.9,0.1,1.5,0.2,1.8,0.2
		c0.1,0.2,0.2,0.3,0.3,0.3c0.6-0.5,0.8-0.8,0.7-0.8c1.9,0.2,3.4,0.3,4.4,0.3c0,1.6,0,2.5,0,2.7c0.1,0.7,0.2,0.9,0.2,0.7
		c0,0.1-0.1,0.4-0.2,0.8c-0.1,0.4-0.2,0.7-0.2,0.9c-0.1-0.4-0.2,0.2-0.2,2c-0.7,0-1.1,0.2-1.1,0.7l0.2,0.8c0.7,0.3,1,0.7,1,1.1v6.4
		c0.5,0-1.7,0-6.6,0c-0.9,0-1.5,0.1-1.8,0.2c-0.3,0.1-0.5,0.4-0.5,0.7c0,0.4,0,1.1,0,2.1c0,1,0,1.6,0,2v3c0,0.8,0,2.1-0.1,3.8v2.5
		v5.1c0,2.7,0,5-0.1,7c-0.8,0.3-1.4,0.5-1.8,0.6c0.5,0.1,0.7,0.4,0.7,0.9c-0.1,0.7-0.2,1-0.1,1.1c0.1,0.2,0.3,0.3,0.3,0.3l0.4-0.4
		c0.2,1.6,0.3,2.5,0.2,2.7c-1-0.7-1.7-1.1-2.1-1.2c0,0.2-0.1,0.4-0.2,0.5c-0.1,0.1-0.2,0.2-0.2,0.4c0,0.1,0.1,0.2,0.3,0.4
		c0.1-0.2,0.3-0.3,0.6-0.3c0.1,0,0.4,0.1,0.8,0.2c0,0.5,0.1,0.8,0.4,0.9c0.3,0.1,0.5,0.3,0.6,0.5v20c-0.1,0.1-0.2,1-0.2,2.5
		c0,0.1-0.1,0.5-0.2,1c-0.1,0.5-0.1,0.9-0.1,1.1c0.2,0.4,0.3,0.7,0.2,0.9c-0.1,0.3-0.1,0.7-0.1,1.1c0,7.2-0.1,11.6-0.4,13.3
		c-0.4,0-0.7-0.1-1.1-0.2c0.3-0.1,0.3-0.4,0-0.7c-0.7,0.1-1.3,0.1-1.7,0c-1.3,0.5-1.8,0.8-1.5,0.8c-0.1,0-0.3-0.2-0.6-0.4
		c-0.3-0.3-0.5-0.4-0.6-0.3c-0.7,0.6-1.4,1-1.9,1.1c-0.2,0-0.3-0.2-0.6-0.7c-0.2-0.5-0.4-0.8-0.6-0.9c-0.1-0.7-0.3-1.3-0.3-1.7
		l-0.4,0.3c0.1,1,0,1.9-0.2,2.7l-3.4-0.7c-0.2,0-0.4,0.1-0.4,0.2c-0.1,0.1-0.2,0.2-0.4,0.2c-0.2,0-0.4-0.3-0.4-1
		c-0.2-1-0.3-1.6-0.3-1.7l0.2-69.3c0-0.3-0.1-0.6-0.2-0.9c-0.1-0.3-2.1-0.5-5.7-0.5c-0.2,0-0.4,0.1-0.4,0.2c0,0.1-0.1,0.2-0.3,0.2
		c-0.3,0-0.7-0.3-1.2-1c0-0.7,0-1.8-0.1-3.1c-0.1-1.1-0.1-1.7-0.1-1.9C266,10.8,266.1,10,266.4,9.4z M274.6,60.1
		c0.1,0.1,0.1,0.3,0.1,0.3c0.3-0.3,0.6-0.4,0.8-0.4c0.1,0,0.3,0,0.3,0.1c0.1,0.1,0.1,0.1,0.2,0.1c0,0.3-0.3-0.1-0.9-1.1
		c-0.4-0.1-0.7,0-0.7,0.6C274.5,59.8,274.5,60,274.6,60.1z M274.9,72.6c0.1-0.2,0.3-0.3,0.5-0.3c0.1,0,0.4,0.1,0.8,0.2
		c0.1-0.7,0.1-1.1-0.2-1.2c-0.7,0.4-1.1,0.7-1.4,0.7v0.9C274.6,72.9,274.7,72.8,274.9,72.6z M274.7,80.6c0.4-0.3,0.6-0.5,0.6-0.6
		c0-0.4-0.2-0.6-0.6-0.6C274.4,79.7,274.4,80.1,274.7,80.6z M274.9,67.8V67h-0.3v0.8H274.9z M274.9,68.5c0.5-0.2,0.9-0.4,1.1-0.6
		l-1.4,0.2L274.9,68.5z M274.9,69.8v-0.6h-0.3v0.6H274.9z M277.3,77.8c0.3-0.3,0.4-0.5,0.4-0.7c-0.1-0.2-0.5-0.3-1.1-0.3
		c-0.1-0.1-0.1-0.4-0.1-1c-0.4,0.4-0.8,0.8-1.1,1c-0.3,0.1-0.5-0.1-0.7-0.6c-0.1,0.8-0.1,1.3,0,1.3
		C276.1,77.5,276.9,77.5,277.3,77.8z M275.2,63.6c0,0.3-0.2-0.1-0.6-1.1c0,0.8,0,1.5,0,2C275.1,64.1,275.2,63.8,275.2,63.6z
		 M276,65.3v-0.9c-0.5-0.1-1,0.2-1.3,0.9H276z M275.4,44.1v-0.2l-0.4-0.2l-0.1,0.2L275.4,44.1z M275.1,46.4v-1.1h-0.3v1.1H275.1z
		 M275.4,31.8c0.3-0.3,0.4-0.6,0.4-0.8c-0.4,0-0.6,0.1-0.8,0.3C275.1,31.6,275.2,31.8,275.4,31.8z M275.2,37.1
		c0.4-0.3,0.6-0.6,0.6-0.9c-0.2-0.1-0.4-0.2-0.6-0.2C275.2,36.1,275.2,36.5,275.2,37.1z M275.6,35.2c0.1-0.1,0.3-0.3,0.3-0.4
		c0.1-0.4,0-0.7-0.4-0.7c0,0.4-0.1,0.7-0.2,1.1H275.6z M276,66.9v-0.3l-0.6-0.2l-0.1,0.3L276,66.9z M276,25.6v-0.3h-0.6v0.3H276z
		 M275.9,60.9c-0.2,0.2-0.3,0.4-0.2,0.6C275.8,61.3,275.9,61.1,275.9,60.9z M277.3,61.6c-0.5-0.2-0.8-0.3-0.9-0.3
		c-0.1,0-0.2,0.2-0.2,0.6L277.3,61.6z M277.1,11.3v-0.6h-0.7v0.6H277.1z M277.8,62.9h-1c0,0.3-0.1,0.5-0.2,0.6
		c-0.1,0.1-0.2,0.2-0.2,0.3C277.1,63.6,277.6,63.3,277.8,62.9z M279.3,9.6V9.3h-0.6v0.3H279.3z M280.3,11.7v-0.8h-0.8
		c0,0.1,0,0.2-0.1,0.3c0,0.2,0,0.4,0,0.4H280.3z M281.8,83.1v-0.6h-0.3v0.6H281.8z M283.1,16.9v-0.3l-0.4-0.2l-0.1,0.3L283.1,16.9z
		 M283.5,69.9v-0.4h-0.3v0.4H283.5z M286.1,80.4c-0.4-0.4-0.6-0.6-0.8-0.6c-0.2,0.3-0.3,0.5-0.3,0.6H286.1z M286.9,3.1l-1.2,0.2
		C286.1,3.4,286.5,3.3,286.9,3.1z M287.6,84.2c-0.1,0.1-0.1,0.2-0.2,0.4c-0.1,0.2-0.2,0.4-0.2,0.4c-0.1-0.1-0.2-0.2-0.4-0.3
		c-0.2-0.1-0.4-0.2-0.4-0.2L287.6,84.2z M287.8,77.4c-0.3-0.1-0.7-0.2-1.3-0.2L287.8,77.4z M287.8,81.1l0.1-1.5
		c-0.5,0.2-1,0.4-1.3,0.4C286.6,80.5,287,80.9,287.8,81.1z M288.3,8.7c-0.3-0.4-0.6-0.6-0.8-0.4c-0.1,0.1-0.2,0.3-0.2,0.4H288.3z
		 M288.4,42.9l-0.2-1.8c0.2,0-0.1,0.2-0.9,0.7C287.5,42.2,287.9,42.6,288.4,42.9z M287.7,66c0.4,0.1,0.7-0.1,0.7-0.8
		c0-0.2,0-0.4-0.1-0.5c-0.1-0.1-0.1-0.2-0.1-0.3h-0.7c-0.1,0.1-0.1,0.3-0.2,0.3v0.8L287.7,66z M287.5,12.4l1-0.4l-0.1-0.3l-1,0.6
		L287.5,12.4z M288,27.9l0.4-0.4V26h-0.7c0,0.8-0.1,1.3-0.3,1.4L288,27.9z M287.7,82.9v-0.7h-0.3v0.7H287.7z M288.4,62.4l-0.2-2.9
		c-0.8,0.8-1,1.9-0.4,3.2C288,62.7,288.3,62.6,288.4,62.4z M288.2,32.8c0.1-0.1,0.2-0.5,0.2-1c0-0.4-0.2-0.9-0.7-1.3l-0.2,1.7
		C288,32.6,288.3,32.8,288.2,32.8z M288.2,35.6c0-0.8-0.1-1.5-0.2-2c0,0.2-0.1,0.7-0.4,1.3C288,34.9,288.2,35.2,288.2,35.6z
		 M288,67.8c0.1-0.1,0.2-0.2,0.1-0.4c0-0.2,0-0.3-0.1-0.3l-0.4,0.6C287.7,67.7,287.9,67.8,288,67.8z M288,70.5
		c0.1-0.2,0.2-0.7,0.2-1.5c-0.3,0.6-0.5,1-0.7,1.3C287.7,70.5,287.9,70.5,288,70.5z M288.3,72.9c0-0.4-0.2-0.8-0.6-1.1
		c-0.1,0.2-0.2,0.8-0.2,1.8C288,73.5,288.3,73.3,288.3,72.9z M287.8,75l0.2-0.2l-0.2-0.4l-0.2,0.1L287.8,75z M287.8,76.3l0.2-0.1
		l-0.2-0.7h-0.2L287.8,76.3z M288.6,58.5v-0.6h-0.9v0.6H288.6z M288.4,63.1c-0.1,0-0.2,0-0.3,0.1h-0.3V64
		C288,63.6,288.3,63.3,288.4,63.1z M288,38.5c0.1,0.2,0.1,0.2,0.2,0.2c0-0.4-0.1-0.7-0.2-0.7C287.8,38.1,287.8,38.3,288,38.5z
		 M288.6,21.7v-0.3h-0.8v0.3H288.6z M288.2,28.7c0.1-0.1,0.1-0.2,0-0.2c-0.2,0-0.3,0.2-0.3,0.6C288,29.1,288.1,29,288.2,28.7z
		 M288.3,57v-0.7H288V57H288.3z M288.2,30.2c0.1,0.2,0.1,0.2,0.2,0.2c0-0.4-0.1-0.6-0.2-0.6C288,29.8,288,30,288.2,30.2z
		 M288.6,23.9v-0.3l-0.4-0.2l-0.1,0.2L288.6,23.9z M290.3,12.5c0.2-0.1,0.4-0.2,0.6-0.3c-0.1,0-0.2,0-0.4-0.1
		c-0.2-0.1-0.3-0.1-0.4-0.1C290.1,12.2,290.2,12.4,290.3,12.5z M291.4,9.3V8.8h-0.8v0.4H291.4z"/>
	<path class="st0" d="M305,65.4c0-0.6,0.2-1.1,0.6-1.4v3.3C305.2,66.8,305,66.2,305,65.4z M344.3,65.1c0.1-0.8,0.1-1.4,0-1.7
		c-0.3-0.1-0.7-0.3-1.2-0.8c-0.5-0.5-0.7-0.9-0.7-1.4c0-0.3,0.6-1,1.9-2l-0.4-0.6c-0.2,0.5-0.5,0.7-0.8,0.7c-0.9-1.4-1.3-2-1.3-1.8
		c0-0.3,0-0.4,0.1-0.2c0,0.2,0.2,0.3,0.6,0.3c0.5,0,1-0.3,1.5-0.9c-1.6-2-2.5-3.3-2.8-3.9c0.5-0.3,0.8-0.5,1-0.6
		c-0.3-0.2-0.8-0.4-1.4-0.6c-0.4-0.1-0.6-0.5-0.7-1c-0.4-0.6-0.6-1-0.6-1.3c-0.4-0.2-0.9-0.5-1.3-0.8c-0.7-0.4-1-0.9-1-1.3
		c0-0.2,0.1-0.4,0.2-0.7c-0.1,0.1-0.5,0.3-1.1,0.7c-0.6,0.4-1.1,0.6-1.5,0.6c-0.4,0-0.7-0.2-0.9-0.7c0,0.1,0.3,0.1,0.8,0.1
		c0.8,0,1.5-0.4,2-1.3c-1-0.4-1.8-0.8-2.2-1c-0.1,0.1-0.4,0.2-0.7,0.5c-0.3,0.3-0.5,0.4-0.6,0.4c-0.4-0.3-0.6-0.5-0.6-0.6
		c0.5-0.2,1.1-0.7,1.8-1.3c-0.5-0.2-0.7-0.6-0.7-1c-0.1,0-0.3,0.1-0.7,0.3c-0.4,0.2-0.7,0.3-0.8,0.3c-0.4,0-0.7-0.2-0.9-0.7
		c0.2-0.2,0.3-0.5,0.3-0.9c-0.6,0.1-1-0.1-1.2-0.7c0.4-0.1,0.7-0.3,0.9-0.3c-1.5-1.3-2.7-2.2-3.4-2.9c-0.7-0.1-1.2-0.2-1.5-0.2v-0.7
		l0.4-0.4c-0.6-0.2-1-0.5-1.3-0.7c-0.3-0.3-0.5-0.5-0.6-0.7c-1.3-0.8-2-1.5-2.2-2.2c0,0.2,0.1,0.4,0.3,0.7l-0.7,0.1
		c-0.4-0.3-0.6-0.6-0.6-0.8c0-0.1,0-0.3,0.1-0.3c0.1,0,0.3,0,0.8,0.1c0.4,0.1,0.7,0.3,0.8,0.7c0.1-0.7,0.2-1.2,0.1-1.5
		c-0.2,0.1-0.7,0.1-1.5,0.1c-0.3,0-0.6-0.1-0.8-0.4c0.7-0.2,1.2-0.3,1.5-0.3v-0.9c-0.5-0.3-0.9-0.5-1.1-0.6c0.2-0.1,0.3-0.3,0.3-0.4
		c0-0.7-0.4-1-1.1-1c-0.1,0-0.4,0.2-0.9,0.6l-0.3-0.3c0.4-0.4,0.7-0.7,0.8-0.9c0.4,0.1,0.7,0.2,0.9,0.2v-2.8c-0.3,0-0.6,0-0.8,0.1
		c-0.2,0.1-0.4,0.1-0.6,0.1c-0.1,0-0.3-0.1-0.6-0.3c-0.2-0.2-0.4-0.4-0.6-0.4c0-0.1,0-0.2,0.1-0.4h0.7c0.3,0.3,0.6,0.4,0.8,0.4
		c0-0.4,0.2-0.8,0.7-1.1c0.1-1,0.2-1.8,0.2-2.2c-0.7,0.7-1.1,1-1.3,1.1c-0.1-0.1-0.3-0.4-0.6-0.7c-0.2-0.3-0.4-0.6-0.6-0.8
		c-0.1,0.1,0.5,0.1,1.7,0.1c0-0.4,0-0.6,0-0.6h0.6c0.2,0.2,0.4,0.3,0.4,0.3c0-0.1,0.1-0.3,0.2-0.6c0.1-0.3,0.2-0.6,0.2-0.8
		c-0.5-0.2-0.8-0.4-0.8-0.4l0.3-0.3c0.1,0,0.1,0,0.1,0.1c0.1,0,0.2,0,0.3,0c0.2,0,0.4-0.2,0.7-0.5c0.2-0.3,0.4-0.5,0.4-0.6
		c0.5-0.3,1.1-0.4,1.8-0.4c-0.5,0,0.2,0.3,2.1,1c-0.1,0.4,0,0.8,0.2,1.2c0.3-0.1,0.6,0,0.9,0.3l0.8,0.9l-0.2,0.3
		c-0.2-0.1-0.3-0.1-0.6,0c0.7,0.4,1.3,0.6,1.5,0.7c-0.2,0.3-0.3,0.5-0.3,0.6h-0.8v6.6c2.2-0.4,3-0.6,2.4-0.6c0.1,0,0.3,0.1,0.6,0.4
		c0.3,0.3,0.5,0.4,0.6,0.4c0.1,0,0.4-0.1,0.8-0.4c0.4-0.3,0.6-0.4,0.8-0.4c1.6-0.1,2.9-0.3,3.8-0.3c0-1,0.1-1.6,0.2-1.9
		c0.8,1.3,1.2,2.3,1.2,3c1.3-0.3,3-0.4,5.2-0.4c0-0.1,0-0.3,0.1-0.4c-0.1-1.3,0-2,0.1-2.2v-1.6c-0.4-0.4-0.7-0.7-0.9-0.7
		c-0.2,0.2-0.4,0.3-0.7,0.3c-0.1,0-0.3-0.1-0.6-0.3c0.1-0.1,0.1-0.4,0-0.8c-0.2-0.4-0.2-0.6-0.1-0.8c1,0.6,1.5,0.9,1.5,1
		c-0.1-0.1,0.1-0.3,0.6-0.8c-0.7-3-1.1-5.5-1.3-7.4c-0.4-1.4-0.8-2.4-1.4-3c0.2-0.5,0.2-1-0.1-1.4c-0.9,0.1-1.4,0.2-1.7,0.1l0.6-1.1
		c-0.6,0.3-0.9,0.4-1,0.4c-0.1-0.3-0.5-0.7-1-1.3c-0.5-0.6-0.8-1-0.8-1.2c0-0.3,0.3-0.7,0.8-1.1c0.1,0.1-0.1,0.1-0.7,0.1
		c-0.1,0-0.3-0.2-0.6-0.6c-0.3-0.4-0.6-0.6-0.8-0.7c-0.7-0.1-1.2-0.1-1.5,0V4.8c-0.3,0.3-0.5,0.4-0.6,0.4C333.6,4.4,333,4,332.5,4
		c-0.1,0-0.2,0-0.2,0.1c0,0.1,0,0.1-0.2,0.1c-0.2,0-0.5-0.2-0.8-0.6c-0.3-0.4-0.5-0.6-0.7-0.7c-0.8-0.1-1.7-0.1-2.5-0.1
		c-0.1,0-0.3-0.1-0.6-0.3c-0.3-0.2-0.5-0.3-0.6-0.3c0.1,0-0.4,0.3-1.3,0.8c-0.1-0.1-0.3-0.4-0.6-0.7c-0.2-0.3-0.4-0.4-0.4-0.4
		c-0.1,0-0.4,0.1-0.8,0.4c-0.4,0.3-0.7,0.4-0.9,0.4c-0.1,0-0.4-0.1-0.7-0.2c-0.3-0.1-0.5-0.2-0.6-0.2c-0.2,0-0.5,0.1-0.9,0.3
		c-0.4,0.2-0.6,0.3-0.7,0.3c-0.2,0-0.3-0.1-0.4-0.2c0-0.1-0.2-0.2-0.4-0.2c-0.5,0-1.5,0.3-3,0.9c-1.3,0.8-2.3,1.4-2.8,1.8
		c-0.6,0.4-1,0.6-1.4,0.7c-0.5,0.7-0.9,1.3-1.2,1.7c-0.3,0.4-0.5,0.7-0.6,0.9c-0.7,0.5-1.2,0.9-1.3,1.2c-1.1,2.6-1.7,4.2-1.8,4.9
		c-0.3,0.6-0.4,0.8-0.4,0.8c0,0.1,0,0.2,0.1,0.3c0.1,0.1,0.1,0.5,0.1,1c0.7-0.1,1,0.1,1.1,0.7l-0.3,0.3c-0.2,0-0.4,0-0.6-0.1
		c-0.1-0.1-0.3-0.1-0.4-0.1c-0.2,0-0.5,0.2-0.8,0.6c0.7,0.2,1.3,0.6,1.5,1.1l-0.3,0.3c-0.2,0-0.4,0-0.6-0.1
		c-0.2-0.1-0.3-0.1-0.4-0.1c-0.3,0-0.4,0.1-0.4,0.3v0.7c0.3,0,0.6,0.1,0.8,0.3c-0.7,0.1-1,0.9-1,2.3c0,0.4,0,0.7,0.1,0.9
		c0.4,0.5,0.7,0.8,0.7,0.9c-0.4,0.1-0.8,0.1-1,0.1c0,0.1,0.1,0.4,0.4,0.9l-0.1,0.8c0.4,0.1,0.6,0.3,0.4,0.6
		c-0.2,0.1-0.3,0.4-0.3,0.7c0,0.2,0.1,0.6,0.3,1.1s0.3,0.8,0.4,1c-0.1,0.1-0.1,0.3-0.1,0.7c0.5,0.1,0.8,0.3,1,0.7
		c-0.4,0.3-0.6,0.6-0.4,0.9c0.1,0.4,0.2,0.7,0.3,1c0.5,0.1,0.8,0.3,0.8,0.6l-0.4,0.3c0.3,0.9,0.5,1.6,0.7,2.1c0.5,0.6,0.9,1,1.2,1.3
		c0.6,1.3,1,2.3,1.1,2.9c0.7,1,1.3,1.7,2,2.2c-0.1,0.1,0.5,0.8,1.8,2l0.3,0.8c0.4,0.2,0.7,0.4,0.9,0.4c0,0.2,0,0.4-0.1,0.6
		c1.1,1.5,2.2,2.2,3.4,2.2c0.1,0,0.4,0,0.7-0.1c0.3-0.1,0.5-0.1,0.7-0.1c0.3,0,0.6,0.1,0.8,0.3c-0.1,0.1-0.1,0.2-0.2,0.3
		c-0.1,0.1-0.2,0.2-0.2,0.2c-0.7,0.2-1.3,0.4-1.8,0.4c0.9,0.4,1.5,0.6,1.9,0.8c0.1-0.8,0.7-1.2,1.8-1.2c0.3,0,0.6,0.2,0.9,0.6
		c-0.1,0.1-0.1,0.1-0.2,0.2c0,0.1-0.1,0.1-0.2,0.2c-0.4,0-0.8,0.1-1.4,0.3c-0.6,0.2-1,0.3-1.3,0.3c0.4,0.9,0.9,1.3,1.6,1.3
		c0.2,0,0.3,0,0.3-0.1c0-0.1,0.1-0.1,0.3-0.1c0.1,0,0.2,0.2,0.2,0.6c0.5-0.6,1-0.7,1.5-0.2c0,0.1,0,0.2-0.1,0.3
		c-0.1,0.1-0.1,0.3-0.1,0.3c-0.4,0-0.6,0.1-0.8,0.3l0.8,0.8h0.8c0-0.5,0-0.7-0.1-0.7h0.8c0.2,0.2,0.3,0.4,0.3,0.4
		c-0.3,0.4-0.8,0.8-1.5,1.2c1,0.6,1.5,0.9,1.7,0.8v-0.9c0.2,0,0.6,0.2,1,0.7c0.4,0.4,0.7,0.8,0.7,1.1c-1-0.1-1.6-0.2-2-0.2
		c0,0.7,0.2,1,0.7,1c0.6,0,0.8,0,0.6-0.1c0.2,0.1,0.3,0.1,0.3,0.2c-0.2,0.1-0.4,0.3-0.6,0.3l0.4,0.2c0.9-0.6,1.3-0.9,1.2-0.9
		l0.4,0.4c-0.7,0.8-1.1,1.5-1.1,2c0,0.3,0.2,0.8,0.7,1.7c0.4,0.8,0.8,1.2,1,1.2c0.8,0,1.4,0,1.7,0.1v0.9c-0.2,0.3-0.3,0.6-0.3,0.8
		c0.5,0.1,0.8,0.4,0.8,0.7c0.4,0.1,0.6,0.3,0.6,0.3c-0.5,0.1-1,0.2-1.3,0.2c-0.2,0.4-0.6,0.7-1.2,1c0.3,0.2,0.6,0.3,0.9,0.1
		c0.4-0.2,0.8-0.3,1.1-0.3c0.4,0,0.7,0.1,0.9,0.4c-0.1,0.2-0.4,0.4-0.9,0.8c0.1,0.2,0.1,0.4,0,0.6c-0.2-0.3-0.4-0.4-0.7-0.4
		c-0.1,0-0.6,0.2-1.3,0.7c0,0.2,0,0.4,0,0.4h0.9c0.2-0.2,0.3-0.4,0.3-0.6l0.3,0.3l-0.6,0.7c0.7,0.3,1.3,0.6,1.8,0.8
		c-0.3,0.1-0.5,0.1-0.6,0.1c-0.1,0.4-0.2,0.7-0.4,0.9c-0.4-0.1-1-0.2-1.7-0.2c-0.5,0-0.7,0.6-0.6,1.7c-0.1,0.4-0.7,0.9-1.7,1.7
		c-1,0.8-1.7,1.2-2.2,1.2c-0.6,0-1.5-0.7-2.7-2c-1-1.1-1.4-1.7-1.4-1.8c0.1-0.4,0.2-0.9,0.2-1.4c0.1-0.2,0.3-0.3,0.4-0.3
		c-0.4-0.8-0.6-1.3-0.6-1.3c-0.6,0.4-1.1,0.6-1.4,0.8l-0.1-0.7c1-0.7,1.6-1.3,1.6-1.9c-0.6,0.3-1,0.4-1.1,0.4
		c0.2,0.3,0.3,0.5,0.2,0.6h-0.4c-0.1-0.5-0.1-1.1-0.1-1.7c0-0.5,0.2-0.9,0.6-1.1c0.4,0.4,0.8,0.6,1.1,0.6v-2.4
		c-0.4,0.9-0.7,1.5-0.9,1.9c-0.3-0.7-0.5-1.4-0.6-1.9c-0.3,0-0.8,0-1.5-0.1c-0.7-0.1-1.1-0.1-1.2-0.1c-0.1,0-0.4,0.1-0.7,0.2
		c-0.3,0.1-0.5,0.2-0.7,0.2c-0.9,0-1.7,0-2.3-0.1c-0.3,0.7-0.5,1.3-0.7,1.5c-0.1,0-0.3-0.1-0.6-0.4l-0.4,0.4
		c-0.4-0.3-0.6-0.6-0.8-0.8c0.2-0.2,0.6-0.3,1.1-0.2c0.2-0.4,0.2-0.9,0-1.4c-0.7,0.5-1.6,0.8-2.7,0.8c-0.2,0-0.7-0.1-1.4-0.3
		c-0.7-0.2-1.2-0.3-1.3-0.3l-0.8,0.7v5.1c0,0.4,0,0.7-0.1,0.8c-0.3-0.6-0.4-0.8-0.4-0.8c-0.2,3.2,0.4,6.7,1.8,10.5l1-0.1
		c0.3,0,0.3,0.1,0.1,0.2c-0.3,0.3-0.4,0.6-0.3,0.9c0.7,1.3,1.2,2.3,1.5,2.8c0.3,0.6,0.6,0.9,0.9,1c1.8,2.4,3.1,3.8,3.9,4.2
		c0.8,0.4,1.4,0.6,1.9,0.7c2.2,1.5,4.8,2.3,7.7,2.3c0.1,0,0.5-0.1,0.9-0.2c0.5-0.1,0.8-0.2,0.9-0.2c-0.1,0,0.5,0.2,1.7,0.6
		c0.3-0.5,0.7-0.8,1.2-0.9c0.2,0,0.4,0,0.4,0c-0.5,0.3-0.8,0.5-0.8,0.7c0.7,0.1,1.2,0,1.3-0.2l-0.6-0.6c1.3-0.7,2.2-1.2,2.8-1.3
		l-0.3-0.7c0.1-0.2,0.3-0.4,0.4-0.6c0.9,0.6,1.4,0.9,1.4,0.9c0.1,0,0.2,0.1,0.3,0.2c0.1,0.1,0.2,0.2,0.4,0.2c0.3,0,1.1-0.5,2.4-1.4
		c1.3-0.9,2.1-1.5,2.4-1.8c0.9-1.2,1.5-2.1,2-2.8c-0.1-0.3-0.1-0.5-0.2-0.7c0.3-0.1,0.4-0.2,0.4-0.4c-0.3,0-0.6-0.1-0.8-0.2
		c0.7-0.4,1.3-0.6,1.8-0.6v-1c-0.5,0.1-0.8,0-0.8-0.2c0.4-0.2,0.6-0.6,0.4-1.2c-0.2-0.6-0.1-0.9,0.2-1.2c0.5,0.3,0.8,0.6,0.8,0.9
		c-0.1,0.3-0.2,0.6-0.3,0.9l0.6-0.4V76c-0.4-0.1-0.5-0.5-0.2-1c0.6,0.1,1,0.2,1.2,0.2l-0.2-1c-0.2,0-0.6,0.1-1,0.2
		c-0.2-0.2-0.3-0.4-0.3-0.7c-0.1,0.1,0.2,0.1,0.9,0.1c0.3,0,0.6-0.3,1-0.9c0.1-0.7,0.3-1.5,0.7-2.2c-0.2-0.1-0.6-0.2-1-0.4
		c-0.4-0.2-0.8-0.4-1-0.4c0-0.1,0-0.2,0.1-0.4c0.1-0.2,0.1-0.4,0.1-0.6h0.4l0.3,0.4h1c0-0.1,0-0.2,0.1-0.4c0.1-0.2,0.1-0.3,0.1-0.4
		c-0.7-0.3-1.1-0.7-1.2-1.3c0.5-0.5,0.9-0.9,1.2-1.2C344.6,65.9,344.3,65.6,344.3,65.1z M308.7,20.1v-0.3h0.9v0.3H308.7z
		 M312.4,64.8c0.2-0.1,0.4-0.3,0.6-0.4c0.2,0.3,0.3,0.6,0.2,0.8C312.9,65.1,312.6,65,312.4,64.8z M317.5,37.5
		c-0.4,0-0.6-0.2-0.6-0.6h0.8C317.6,37.2,317.5,37.4,317.5,37.5z M317.6,32.1v-0.3h0.9v0.3H317.6z M317.6,34.7v-0.4h0.7v0.4H317.6z
		 M318.7,26.7c-0.4,0.1-0.6,0.2-0.8,0.2c0-0.3,0.1-0.6,0.4-0.9c0.4,0,0.7,0.2,1.1,0.6C319.3,26.5,319.1,26.6,318.7,26.7z
		 M317.9,28.9c0-0.4,0.2-0.6,0.7-0.6c0.3,0.3,0.4,0.5,0.4,0.6H317.9z M318.9,46c-0.4-0.4-0.6-0.6-0.6-0.6c0.3,0,0.6,0,1,0.1
		c0.4,0.1,0.6,0.1,0.7,0.1L318.9,46z M318.7,47v-0.3h1.3V47H318.7z M319.9,24.1c-0.2,0-0.4-0.1-0.4-0.2V23c0.5,0.2,0.8,0.4,0.8,0.9
		C320.2,24,320.1,24.1,319.9,24.1z M319.8,27.7c0-0.1,0.1-0.4,0.2-0.7C320.4,27.5,320.3,27.7,319.8,27.7z M320.7,35.2l-0.3-0.1
		l0.3-0.4l0.2,0.1L320.7,35.2z M322.6,80c-0.4-0.3-0.6-0.5-0.6-0.6h0.8C322.7,79.8,322.6,80,322.6,80z M324.8,34.7l-0.6-0.6
		c0,0.1-0.1,0.3-0.2,0.6C324.2,34.9,324.5,34.9,324.8,34.7z M324.2,50.9l0.6,0.6C324.4,51.4,324.2,51.2,324.2,50.9z M325.5,37.9
		h-0.8c0.3-0.4,0.4-0.7,0.4-1c0.2,0.1,0.4,0.2,0.6,0.2C325.8,37.5,325.7,37.8,325.5,37.9z M326,41.8c0,0.1-0.1,0.2-0.3,0.2
		c-0.7-0.1-0.9-0.4-0.7-0.8l0.9,0.2C326,41.5,326.1,41.6,326,41.8z M327.2,3.6c-0.3-0.4-0.4-0.6-0.4-0.8c0.1,0,0.2,0,0.4,0.1
		c0.2,0.1,0.3,0.1,0.4,0.1C327.5,3.3,327.3,3.5,327.2,3.6z M326.8,40.5c0.1-0.2,0.2-0.4,0.2-0.6c0.3,0,0.6,0,1,0.1
		c0.4,0.1,0.6,0.1,0.7,0.1C328,40.6,327.3,40.8,326.8,40.5z M328.3,42c-0.2-0.2-0.4-0.4-0.6-0.6h1.9V42H328.3z M329,59.2
		c-0.2,0.3-0.3,0.4-0.3,0.5l-0.8-0.8c0.1,0,0.3,0,0.6-0.1c0.4,0,0.7,0,0.9,0C329.2,58.8,329.1,58.9,329,59.2z M328.3,20
		c0.3-0.2,0.4-0.5,0.4-0.9h0.7C329.3,19.4,329,19.7,328.3,20z M329.7,63.2c-0.4-0.1-0.7-0.3-0.9-0.3c0.1,0,0.3,0,0.6-0.1
		c0.3-0.1,0.5-0.1,0.8-0.1L329.7,63.2z M329.5,70.1c0-0.1-0.1-0.3-0.4-0.6c0.4,0,0.7-0.1,0.9-0.2c0.3,0.3,0.4,0.6,0.2,0.8H329.5z
		 M329.3,4V3.4l1,0.2L329.3,4z M329.3,60.3v1l0.4,0.4c0.4-0.4,0.6-0.7,0.6-1C330,60.4,329.7,60.3,329.3,60.3z M330.2,64.9h-0.9v0.3
		h0.9V64.9z M329.9,72.7c-0.1-0.5-0.2-0.8-0.2-0.9c0.3-0.1,0.6-0.2,0.8-0.2c0,0.1,0,0.2,0.1,0.5c0.1,0.3,0.1,0.5,0.1,0.6H329.9z
		 M331,19.2c-0.4,0-0.7-0.1-1.1-0.4h1.3C331,19,331,19.2,331,19.2z M329.9,21.3c0.5-0.2,0.8-0.3,1-0.1
		C330.6,21.3,330.2,21.3,329.9,21.3z M331,88.9c-0.6,0.2-0.9,0.6-0.9,1c0.8-0.3,1.4-0.6,1.8-1H331z M330.4,75.6
		c0.2-0.1,0.4-0.1,0.6-0.2c0.1,0.2,0.2,0.4,0.2,0.6C330.9,76,330.6,75.8,330.4,75.6z M330.9,44l-0.2-0.1l0.2-0.4h0.2L330.9,44z
		 M331.5,47.2c-0.2-0.1-0.4-0.1-0.4-0.1l0.2-0.8c0.1,0,0.2,0,0.3,0.1c0.1,0.1,0.3,0.1,0.3,0.1v0.8C331.9,47.3,331.7,47.3,331.5,47.2
		z M331.4,45.1l0.2-0.7c0.4,0,0.8,0.2,1,0.7H331.4z M333.1,86c0,0.3-0.1,0.5-0.2,0.7c0.2,0.1,0.4,0.2,0.4,0.2
		c0.4-0.8,0.7-1.1,0.7-0.9H333.1z M334.8,50.5c0.2-0.1,0.4-0.2,0.4-0.2c0.1,0.1,0.2,0.4,0.2,0.8C335.2,51.1,335,50.9,334.8,50.5z
		 M335.9,25.8l-0.8-0.3c0.1,0,0.2,0,0.5-0.1c0.3-0.1,0.4-0.1,0.5-0.1L335.9,25.8z M335.2,46.4v-0.3h0.6v0.3H335.2z M335.4,56.4
		c0.6,0.2,0.7,0.5,0.4,0.8C335.5,56.9,335.4,56.6,335.4,56.4z M337.4,24.2v-0.3h0.7v0.3H337.4z M338.1,51.8c0-0.5,0.1-0.8,0.3-0.8
		c0.2,0.3,0.3,0.6,0.3,0.8H338.1z M339.3,77.7c-0.4,0-0.6-0.1-0.6-0.3c0,0.3,0.1-0.1,0.2-1.3c0.4-0.1,0.7-0.1,1,0
		C339.6,76.7,339.4,77.3,339.3,77.7z M338.7,82.6c0.1-0.1,0.2-0.2,0.4-0.2c0.2,0.1,0.3,0.2,0.3,0.2H338.7z M339.5,11.8
		c0.3,0,0.4,0.1,0.4,0.3c0,0.1-0.1,0.2-0.2,0.2C339.5,12.3,339.5,12.1,339.5,11.8z M340,73.5c-0.2,0.2-0.3,0.2-0.3-0.1
		c0.1,0,0.3-0.1,0.4-0.2C340.3,73.3,340.2,73.4,340,73.5z M340,77.5l0.6-0.6C340.6,77.3,340.4,77.5,340,77.5z M340.4,13
		c-0.1-0.1-0.1-0.2,0-0.2c0.1,0,0.2,0.2,0.2,0.6C340.5,13.4,340.4,13.3,340.4,13z M340.8,14.8c-0.1,0.2-0.3,0.3-0.3,0.3
		c0.1-0.4,0.2-0.6,0.3-0.6C340.9,14.6,340.9,14.7,340.8,14.8z M341.4,62.7c-0.2,0-0.4,0.1-0.7,0.4v0.7l0.9-0.2L341.4,62.7z
		 M340.9,16v-0.3h0.7V16H340.9z M341.2,17.2v-0.4h1v0.4H341.2z M341.2,75.6v-0.3h0.8v0.3H341.2z M341.9,64.5h-0.3v0.7h0.3V64.5z
		 M342,72.7l0.3-0.7l0.3,0.3c0.1-0.1,0.4-0.1,0.7,0c0.3,0,0.4,0.1,0.4,0.2C343,72.7,342.5,72.7,342,72.7z M342.1,18.5
		c0.3,0.4,0.4,0.8,0.4,1.2C342.2,19.3,342.1,18.9,342.1,18.5z M344.6,61.9h-0.8c0.2,0.4,0.5,0.7,0.8,0.7V61.9z"/>
</g>
<g>
	<path class="st0" d="M36.8,31.4c0-3.5-0.2-14.8-3.1-20.8c-1.2-2.1-1.2-2.1-5.2-2.1H8.3c-4,0-4,0-5.2,2.1C0,16.6,0,27.8,0,31.4
		C0,47.6,5.4,48,5.4,61.5c0,6.7-2.7,11.9-2.7,16.4s0,5,5.4,5h21.2c5.4,0,5.4-0.4,5.4-5S32,68,32,61.5C31.4,48,36.8,47.6,36.8,31.4z
		 M9.6,24.3v14.8c0,0.8-0.6,1.5-1.5,1.5c-0.8,0-1.5-0.6-1.5-1.5V24.3H2.5c0.4-5.6,1.2-10,2.7-12.7c0.2-0.2,0.2-0.2,0.4-0.4
		C6,11,6.7,11,8.1,11h20.2c1.5,0,2.1,0.2,2.5,0.2c0.2,0,0.2,0.2,0.4,0.4c1.2,2.7,2.3,7.1,2.7,12.7C33.9,24.3,9.6,24.3,9.6,24.3z"/>
	<path class="st0" d="M421.5,31.4c0-3.5-0.2-14.8-3.1-20.8c-1.2-2.1-1.2-2.1-5.2-2.1H393c-4,0-4,0-5.2,2.1c-3.1,6-3.1,17.3-3.1,20.8
		c0,16.2,5.4,16.6,5.4,30.2c0,6.7-2.7,11.9-2.7,16.4s0,5,5.4,5H414c5.4,0,5.4-0.4,5.4-5s-2.7-10-2.7-16.4
		C416.1,48,421.5,47.6,421.5,31.4z M394.2,24.3v14.8c0,0.8-0.6,1.5-1.5,1.5s-1.5-0.6-1.5-1.5V24.3h-4.2c0.4-5.6,1.2-10,2.7-12.7
		c0.2-0.2,0.2-0.2,0.4-0.4c0.4-0.2,1-0.2,2.5-0.2h20.2c1.5,0,2.1,0.2,2.5,0.2c0.2,0,0.2,0.2,0.4,0.4c1.2,2.7,2.3,7.1,2.7,12.7
		C418.6,24.3,394.2,24.3,394.2,24.3z"/>
</g>
</svg>
