[
    {
        "version": "0.9.3",
        "downloadUrl": "https://bitbucket.org/kreisvierdigital/k4clientform/downloads",
        "date": "2016-07-24T16:22:00+00:00",
        "notes": [
            "[Added] Adding Plugin Update Notifications"
        ]
    },
    {
        "version": "0.9.1",
        "downloadUrl": "https://bitbucket.org/kreisvierdigital/k4clientform/downloads",
        "date": "2016-06-06T11:00+00:00",
        "notes": [
            "[Added] Initial release"
        ]
    }
]